0 #0 {}
-10 #1 {1}
-10 #2 {2}
-40 #3 {1,2}
-10 #4 {3}
13 #5 {1,3}
13 #6 {2,3}
-37 #7 {1,2,3}
-10 #8 {4}
-40 #9 {1,4}
-40 #10 {2,4}
-90 #11 {1,2,4}
-27 #12 {3,4}
-37 #13 {1,3,4}
-37 #14 {2,3,4}
-107 #15 {1,2,3,4}
-10 #16 {5}
6 #17 {1,5}
6 #18 {2,5}
-44 #19 {1,2,5}
-40 #20 {3,5}
-5 #21 {1,3,5}
-2 #22 {2,3,5}
-61 #23 {1,2,3,5}
-27 #24 {4,5}
-44 #25 {1,4,5}
-44 #26 {2,4,5}
-114 #27 {1,2,4,5}
-77 #28 {3,4,5}
-62 #29 {1,3,4,5}
-61 #30 {2,3,4,5}
-151 #31 {1,2,3,4,5}
-10 #32 {6}
-40 #33 {1,6}
-40 #34 {2,6}
-90 #35 {1,2,6}
-36 #36 {3,6}
-37 #37 {1,3,6}
-37 #38 {2,3,6}
-107 #39 {1,2,3,6}
-40 #40 {4,6}
-90 #41 {1,4,6}
-90 #42 {2,4,6}
-160 #43 {1,2,4,6}
-73 #44 {3,4,6}
-107 #45 {1,3,4,6}
-107 #46 {2,3,4,6}
-197 #47 {1,2,3,4,6}
-36 #48 {5,6}
-44 #49 {1,5,6}
-44 #50 {2,5,6}
-114 #51 {1,2,5,6}
-86 #52 {3,5,6}
-71 #53 {1,3,5,6}
-68 #54 {2,3,5,6}
-151 #55 {1,2,3,5,6}
-73 #56 {4,5,6}
-114 #57 {1,4,5,6}
-114 #58 {2,4,5,6}
-204 #59 {1,2,4,5,6}
-143 #60 {3,4,5,6}
-151 #61 {1,3,4,5,6}
-151 #62 {2,3,4,5,6}
-261 #63 {1,2,3,4,5,6}
-10 #64 {7}
26 #65 {1,7}
26 #66 {2,7}
-24 #67 {1,2,7}
-40 #68 {3,7}
-5 #69 {1,3,7}
-2 #70 {2,3,7}
-41 #71 {1,2,3,7}
-27 #72 {4,7}
-24 #73 {1,4,7}
-24 #74 {2,4,7}
-94 #75 {1,2,4,7}
-77 #76 {3,4,7}
-62 #77 {1,3,4,7}
-59 #78 {2,3,4,7}
-131 #79 {1,2,3,4,7}
-40 #80 {5,7}
-5 #81 {1,5,7}
-2 #82 {2,5,7}
-48 #83 {1,2,5,7}
-90 #84 {3,5,7}
-75 #85 {1,3,5,7}
-72 #86 {2,3,5,7}
-85 #87 {1,2,3,5,7}
-77 #88 {4,5,7}
-62 #89 {1,4,5,7}
-59 #90 {2,4,5,7}
-138 #91 {1,2,4,5,7}
-147 #92 {3,4,5,7}
-152 #93 {1,3,4,5,7}
-149 #94 {2,3,4,5,7}
-195 #95 {1,2,3,4,5,7}
-36 #96 {6,7}
-24 #97 {1,6,7}
-24 #98 {2,6,7}
-94 #99 {1,2,6,7}
-86 #100 {3,6,7}
-71 #101 {1,3,6,7}
-68 #102 {2,3,6,7}
-131 #103 {1,2,3,6,7}
-73 #104 {4,6,7}
-94 #105 {1,4,6,7}
-94 #106 {2,4,6,7}
-184 #107 {1,2,4,6,7}
-143 #108 {3,4,6,7}
-148 #109 {1,3,4,6,7}
-145 #110 {2,3,4,6,7}
-241 #111 {1,2,3,4,6,7}
-86 #112 {5,6,7}
-71 #113 {1,5,6,7}
-68 #114 {2,5,6,7}
-138 #115 {1,2,5,6,7}
-156 #116 {3,5,6,7}
-161 #117 {1,3,5,6,7}
-158 #118 {2,3,5,6,7}
-195 #119 {1,2,3,5,6,7}
-143 #120 {4,5,6,7}
-148 #121 {1,4,5,6,7}
-145 #122 {2,4,5,6,7}
-248 #123 {1,2,4,5,6,7}
-233 #124 {3,4,5,6,7}
-258 #125 {1,3,4,5,6,7}
-255 #126 {2,3,4,5,6,7}
-325 #127 {1,2,3,4,5,6,7}
-10 #128 {8}
45 #129 {1,8}
48 #130 {2,8}
4 #131 {1,2,8}
-40 #132 {3,8}
-5 #133 {1,3,8}
-2 #134 {2,3,8}
-13 #135 {1,2,3,8}
-27 #136 {4,8}
4 #137 {1,4,8}
4 #138 {2,4,8}
-66 #139 {1,2,4,8}
-77 #140 {3,4,8}
-62 #141 {1,3,4,8}
-59 #142 {2,3,4,8}
-103 #143 {1,2,3,4,8}
-40 #144 {5,8}
-5 #145 {1,5,8}
-2 #146 {2,5,8}
-20 #147 {1,2,5,8}
-90 #148 {3,5,8}
-75 #149 {1,3,5,8}
-72 #150 {2,3,5,8}
-77 #151 {1,2,3,5,8}
-77 #152 {4,5,8}
-62 #153 {1,4,5,8}
-59 #154 {2,4,5,8}
-110 #155 {1,2,4,5,8}
-147 #156 {3,4,5,8}
-152 #157 {1,3,4,5,8}
-149 #158 {2,3,4,5,8}
-174 #159 {1,2,3,4,5,8}
-36 #160 {6,8}
-1 #161 {1,6,8}
2 #162 {2,6,8}
-66 #163 {1,2,6,8}
-86 #164 {3,6,8}
-71 #165 {1,3,6,8}
-68 #166 {2,3,6,8}
-103 #167 {1,2,3,6,8}
-73 #168 {4,6,8}
-66 #169 {1,4,6,8}
-66 #170 {2,4,6,8}
-156 #171 {1,2,4,6,8}
-143 #172 {3,4,6,8}
-148 #173 {1,3,4,6,8}
-145 #174 {2,3,4,6,8}
-213 #175 {1,2,3,4,6,8}
-86 #176 {5,6,8}
-71 #177 {1,5,6,8}
-68 #178 {2,5,6,8}
-110 #179 {1,2,5,6,8}
-156 #180 {3,5,6,8}
-161 #181 {1,3,5,6,8}
-158 #182 {2,3,5,6,8}
-183 #183 {1,2,3,5,6,8}
-143 #184 {4,5,6,8}
-148 #185 {1,4,5,6,8}
-145 #186 {2,4,5,6,8}
-220 #187 {1,2,4,5,6,8}
-233 #188 {3,4,5,6,8}
-258 #189 {1,3,4,5,6,8}
-255 #190 {2,3,4,5,6,8}
-300 #191 {1,2,3,4,5,6,8}
-40 #192 {7,8}
-5 #193 {1,7,8}
-2 #194 {2,7,8}
0 #195 {1,2,7,8}
-90 #196 {3,7,8}
-75 #197 {1,3,7,8}
-72 #198 {2,3,7,8}
-77 #199 {1,2,3,7,8}
-77 #200 {4,7,8}
-62 #201 {1,4,7,8}
-59 #202 {2,4,7,8}
-90 #203 {1,2,4,7,8}
-147 #204 {3,4,7,8}
-152 #205 {1,3,4,7,8}
-149 #206 {2,3,4,7,8}
-174 #207 {1,2,3,4,7,8}
-90 #208 {5,7,8}
-75 #209 {1,5,7,8}
-72 #210 {2,5,7,8}
-77 #211 {1,2,5,7,8}
-160 #212 {3,5,7,8}
-165 #213 {1,3,5,7,8}
-162 #214 {2,3,5,7,8}
-187 #215 {1,2,3,5,7,8}
-147 #216 {4,5,7,8}
-152 #217 {1,4,5,7,8}
-149 #218 {2,4,5,7,8}
-174 #219 {1,2,4,5,7,8}
-237 #220 {3,4,5,7,8}
-262 #221 {1,3,4,5,7,8}
-259 #222 {2,3,4,5,7,8}
-304 #223 {1,2,3,4,5,7,8}
-86 #224 {6,7,8}
-71 #225 {1,6,7,8}
-68 #226 {2,6,7,8}
-90 #227 {1,2,6,7,8}
-156 #228 {3,6,7,8}
-161 #229 {1,3,6,7,8}
-158 #230 {2,3,6,7,8}
-183 #231 {1,2,3,6,7,8}
-143 #232 {4,6,7,8}
-148 #233 {1,4,6,7,8}
-145 #234 {2,4,6,7,8}
-200 #235 {1,2,4,6,7,8}
-233 #236 {3,4,6,7,8}
-258 #237 {1,3,4,6,7,8}
-255 #238 {2,3,4,6,7,8}
-300 #239 {1,2,3,4,6,7,8}
-156 #240 {5,6,7,8}
-161 #241 {1,5,6,7,8}
-158 #242 {2,5,6,7,8}
-183 #243 {1,2,5,6,7,8}
-246 #244 {3,5,6,7,8}
-271 #245 {1,3,5,6,7,8}
-268 #246 {2,3,5,6,7,8}
-313 #247 {1,2,3,5,6,7,8}
-233 #248 {4,5,6,7,8}
-258 #249 {1,4,5,6,7,8}
-255 #250 {2,4,5,6,7,8}
-300 #251 {1,2,4,5,6,7,8}
-343 #252 {3,4,5,6,7,8}
-388 #253 {1,3,4,5,6,7,8}
-385 #254 {2,3,4,5,6,7,8}
-450 #255 {1,2,3,4,5,6,7,8}
-10 #256 {9}
-40 #257 {1,9}
-40 #258 {2,9}
-90 #259 {1,2,9}
13 #260 {3,9}
-37 #261 {1,3,9}
-37 #262 {2,3,9}
-107 #263 {1,2,3,9}
-40 #264 {4,9}
-90 #265 {1,4,9}
-90 #266 {2,4,9}
-160 #267 {1,2,4,9}
-37 #268 {3,4,9}
-107 #269 {1,3,4,9}
-107 #270 {2,3,4,9}
-197 #271 {1,2,3,4,9}
6 #272 {5,9}
-44 #273 {1,5,9}
-44 #274 {2,5,9}
-114 #275 {1,2,5,9}
-12 #276 {3,5,9}
-61 #277 {1,3,5,9}
-61 #278 {2,3,5,9}
-151 #279 {1,2,3,5,9}
-44 #280 {4,5,9}
-114 #281 {1,4,5,9}
-114 #282 {2,4,5,9}
-204 #283 {1,2,4,5,9}
-69 #284 {3,4,5,9}
-151 #285 {1,3,4,5,9}
-151 #286 {2,3,4,5,9}
-261 #287 {1,2,3,4,5,9}
-40 #288 {6,9}
-90 #289 {1,6,9}
-90 #290 {2,6,9}
-160 #291 {1,2,6,9}
-37 #292 {3,6,9}
-107 #293 {1,3,6,9}
-107 #294 {2,3,6,9}
-197 #295 {1,2,3,6,9}
-90 #296 {4,6,9}
-160 #297 {1,4,6,9}
-160 #298 {2,4,6,9}
-250 #299 {1,2,4,6,9}
-107 #300 {3,4,6,9}
-197 #301 {1,3,4,6,9}
-197 #302 {2,3,4,6,9}
-307 #303 {1,2,3,4,6,9}
-44 #304 {5,6,9}
-114 #305 {1,5,6,9}
-114 #306 {2,5,6,9}
-204 #307 {1,2,5,6,9}
-78 #308 {3,5,6,9}
-151 #309 {1,3,5,6,9}
-151 #310 {2,3,5,6,9}
-261 #311 {1,2,3,5,6,9}
-114 #312 {4,5,6,9}
-204 #313 {1,4,5,6,9}
-204 #314 {2,4,5,6,9}
-314 #315 {1,2,4,5,6,9}
-155 #316 {3,4,5,6,9}
-261 #317 {1,3,4,5,6,9}
-261 #318 {2,3,4,5,6,9}
-391 #319 {1,2,3,4,5,6,9}
26 #320 {7,9}
-24 #321 {1,7,9}
-24 #322 {2,7,9}
-94 #323 {1,2,7,9}
-12 #324 {3,7,9}
-41 #325 {1,3,7,9}
-41 #326 {2,3,7,9}
-131 #327 {1,2,3,7,9}
-24 #328 {4,7,9}
-94 #329 {1,4,7,9}
-94 #330 {2,4,7,9}
-184 #331 {1,2,4,7,9}
-69 #332 {3,4,7,9}
-131 #333 {1,3,4,7,9}
-131 #334 {2,3,4,7,9}
-241 #335 {1,2,3,4,7,9}
-12 #336 {5,7,9}
-48 #337 {1,5,7,9}
-48 #338 {2,5,7,9}
-138 #339 {1,2,5,7,9}
-82 #340 {3,5,7,9}
-87 #341 {1,3,5,7,9}
-85 #342 {2,3,5,7,9}
-195 #343 {1,2,3,5,7,9}
-69 #344 {4,5,7,9}
-138 #345 {1,4,5,7,9}
-138 #346 {2,4,5,7,9}
-248 #347 {1,2,4,5,7,9}
-159 #348 {3,4,5,7,9}
-195 #349 {1,3,4,5,7,9}
-195 #350 {2,3,4,5,7,9}
-325 #351 {1,2,3,4,5,7,9}
-24 #352 {6,7,9}
-94 #353 {1,6,7,9}
-94 #354 {2,6,7,9}
-184 #355 {1,2,6,7,9}
-78 #356 {3,6,7,9}
-131 #357 {1,3,6,7,9}
-131 #358 {2,3,6,7,9}
-241 #359 {1,2,3,6,7,9}
-94 #360 {4,6,7,9}
-184 #361 {1,4,6,7,9}
-184 #362 {2,4,6,7,9}
-294 #363 {1,2,4,6,7,9}
-155 #364 {3,4,6,7,9}
-241 #365 {1,3,4,6,7,9}
-241 #366 {2,3,4,6,7,9}
-371 #367 {1,2,3,4,6,7,9}
-78 #368 {5,6,7,9}
-138 #369 {1,5,6,7,9}
-138 #370 {2,5,6,7,9}
-248 #371 {1,2,5,6,7,9}
-168 #372 {3,5,6,7,9}
-195 #373 {1,3,5,6,7,9}
-195 #374 {2,3,5,6,7,9}
-325 #375 {1,2,3,5,6,7,9}
-155 #376 {4,5,6,7,9}
-248 #377 {1,4,5,6,7,9}
-248 #378 {2,4,5,6,7,9}
-378 #379 {1,2,4,5,6,7,9}
-265 #380 {3,4,5,6,7,9}
-325 #381 {1,3,4,5,6,7,9}
-325 #382 {2,3,4,5,6,7,9}
-475 #383 {1,2,3,4,5,6,7,9}
38 #384 {8,9}
4 #385 {1,8,9}
4 #386 {2,8,9}
-66 #387 {1,2,8,9}
-12 #388 {3,8,9}
-13 #389 {1,3,8,9}
-13 #390 {2,3,8,9}
-103 #391 {1,2,3,8,9}
1 #392 {4,8,9}
-66 #393 {1,4,8,9}
-66 #394 {2,4,8,9}
-156 #395 {1,2,4,8,9}
-69 #396 {3,4,8,9}
-103 #397 {1,3,4,8,9}
-103 #398 {2,3,4,8,9}
-213 #399 {1,2,3,4,8,9}
-12 #400 {5,8,9}
-20 #401 {1,5,8,9}
-20 #402 {2,5,8,9}
-110 #403 {1,2,5,8,9}
-82 #404 {3,5,8,9}
-87 #405 {1,3,5,8,9}
-84 #406 {2,3,5,8,9}
-167 #407 {1,2,3,5,8,9}
-69 #408 {4,5,8,9}
-110 #409 {1,4,5,8,9}
-110 #410 {2,4,5,8,9}
-220 #411 {1,2,4,5,8,9}
-159 #412 {3,4,5,8,9}
-184 #413 {1,3,4,5,8,9}
-181 #414 {2,3,4,5,8,9}
-297 #415 {1,2,3,4,5,8,9}
-8 #416 {6,8,9}
-66 #417 {1,6,8,9}
-66 #418 {2,6,8,9}
-156 #419 {1,2,6,8,9}
-78 #420 {3,6,8,9}
-103 #421 {1,3,6,8,9}
-103 #422 {2,3,6,8,9}
-213 #423 {1,2,3,6,8,9}
-66 #424 {4,6,8,9}
-156 #425 {1,4,6,8,9}
-156 #426 {2,4,6,8,9}
-266 #427 {1,2,4,6,8,9}
-155 #428 {3,4,6,8,9}
-213 #429 {1,3,4,6,8,9}
-213 #430 {2,3,4,6,8,9}
-343 #431 {1,2,3,4,6,8,9}
-78 #432 {5,6,8,9}
-110 #433 {1,5,6,8,9}
-110 #434 {2,5,6,8,9}
-220 #435 {1,2,5,6,8,9}
-168 #436 {3,5,6,8,9}
-193 #437 {1,3,5,6,8,9}
-190 #438 {2,3,5,6,8,9}
-297 #439 {1,2,3,5,6,8,9}
-155 #440 {4,5,6,8,9}
-220 #441 {1,4,5,6,8,9}
-220 #442 {2,4,5,6,8,9}
-350 #443 {1,2,4,5,6,8,9}
-265 #444 {3,4,5,6,8,9}
-310 #445 {1,3,4,5,6,8,9}
-307 #446 {2,3,4,5,6,8,9}
-447 #447 {1,2,3,4,5,6,8,9}
-12 #448 {7,8,9}
0 #449 {1,7,8,9}
0 #450 {2,7,8,9}
-90 #451 {1,2,7,8,9}
-82 #452 {3,7,8,9}
-87 #453 {1,3,7,8,9}
-84 #454 {2,3,7,8,9}
-147 #455 {1,2,3,7,8,9}
-69 #456 {4,7,8,9}
-90 #457 {1,4,7,8,9}
-90 #458 {2,4,7,8,9}
-200 #459 {1,2,4,7,8,9}
-159 #460 {3,4,7,8,9}
-184 #461 {1,3,4,7,8,9}
-181 #462 {2,3,4,7,8,9}
-277 #463 {1,2,3,4,7,8,9}
-82 #464 {5,7,8,9}
-87 #465 {1,5,7,8,9}
-84 #466 {2,5,7,8,9}
-154 #467 {1,2,5,7,8,9}
-172 #468 {3,5,7,8,9}
-197 #469 {1,3,5,7,8,9}
-194 #470 {2,3,5,7,8,9}
-239 #471 {1,2,3,5,7,8,9}
-159 #472 {4,5,7,8,9}
-184 #473 {1,4,5,7,8,9}
-181 #474 {2,4,5,7,8,9}
-284 #475 {1,2,4,5,7,8,9}
-269 #476 {3,4,5,7,8,9}
-314 #477 {1,3,4,5,7,8,9}
-311 #478 {2,3,4,5,7,8,9}
-381 #479 {1,2,3,4,5,7,8,9}
-78 #480 {6,7,8,9}
-90 #481 {1,6,7,8,9}
-90 #482 {2,6,7,8,9}
-200 #483 {1,2,6,7,8,9}
-168 #484 {3,6,7,8,9}
-193 #485 {1,3,6,7,8,9}
-190 #486 {2,3,6,7,8,9}
-277 #487 {1,2,3,6,7,8,9}
-155 #488 {4,6,7,8,9}
-200 #489 {1,4,6,7,8,9}
-200 #490 {2,4,6,7,8,9}
-330 #491 {1,2,4,6,7,8,9}
-265 #492 {3,4,6,7,8,9}
-310 #493 {1,3,4,6,7,8,9}
-307 #494 {2,3,4,6,7,8,9}
-427 #495 {1,2,3,4,6,7,8,9}
-168 #496 {5,6,7,8,9}
-193 #497 {1,5,6,7,8,9}
-190 #498 {2,5,6,7,8,9}
-284 #499 {1,2,5,6,7,8,9}
-278 #500 {3,5,6,7,8,9}
-323 #501 {1,3,5,6,7,8,9}
-320 #502 {2,3,5,6,7,8,9}
-385 #503 {1,2,3,5,6,7,8,9}
-265 #504 {4,5,6,7,8,9}
-310 #505 {1,4,5,6,7,8,9}
-307 #506 {2,4,5,6,7,8,9}
-434 #507 {1,2,4,5,6,7,8,9}
-395 #508 {3,4,5,6,7,8,9}
-460 #509 {1,3,4,5,6,7,8,9}
-457 #510 {2,3,4,5,6,7,8,9}
-551 #511 {1,2,3,4,5,6,7,8,9}
-10 #512 {10}
-40 #513 {1,10}
-40 #514 {2,10}
-90 #515 {1,2,10}
8 #516 {3,10}
-37 #517 {1,3,10}
-37 #518 {2,3,10}
-107 #519 {1,2,3,10}
-40 #520 {4,10}
-90 #521 {1,4,10}
-90 #522 {2,4,10}
-160 #523 {1,2,4,10}
-37 #524 {3,4,10}
-107 #525 {1,3,4,10}
-107 #526 {2,3,4,10}
-197 #527 {1,2,3,4,10}
6 #528 {5,10}
-44 #529 {1,5,10}
-44 #530 {2,5,10}
-114 #531 {1,2,5,10}
-42 #532 {3,5,10}
-61 #533 {1,3,5,10}
-61 #534 {2,3,5,10}
-151 #535 {1,2,3,5,10}
-44 #536 {4,5,10}
-114 #537 {1,4,5,10}
-114 #538 {2,4,5,10}
-204 #539 {1,2,4,5,10}
-99 #540 {3,4,5,10}
-151 #541 {1,3,4,5,10}
-151 #542 {2,3,4,5,10}
-261 #543 {1,2,3,4,5,10}
-40 #544 {6,10}
-90 #545 {1,6,10}
-90 #546 {2,6,10}
-160 #547 {1,2,6,10}
-38 #548 {3,6,10}
-107 #549 {1,3,6,10}
-107 #550 {2,3,6,10}
-197 #551 {1,2,3,6,10}
-90 #552 {4,6,10}
-160 #553 {1,4,6,10}
-160 #554 {2,4,6,10}
-250 #555 {1,2,4,6,10}
-107 #556 {3,4,6,10}
-197 #557 {1,3,4,6,10}
-197 #558 {2,3,4,6,10}
-307 #559 {1,2,3,4,6,10}
-44 #560 {5,6,10}
-114 #561 {1,5,6,10}
-114 #562 {2,5,6,10}
-204 #563 {1,2,5,6,10}
-108 #564 {3,5,6,10}
-151 #565 {1,3,5,6,10}
-151 #566 {2,3,5,6,10}
-261 #567 {1,2,3,5,6,10}
-114 #568 {4,5,6,10}
-204 #569 {1,4,5,6,10}
-204 #570 {2,4,5,6,10}
-314 #571 {1,2,4,5,6,10}
-185 #572 {3,4,5,6,10}
-261 #573 {1,3,4,5,6,10}
-261 #574 {2,3,4,5,6,10}
-391 #575 {1,2,3,4,5,6,10}
8 #576 {7,10}
-24 #577 {1,7,10}
-24 #578 {2,7,10}
-94 #579 {1,2,7,10}
-42 #580 {3,7,10}
-41 #581 {1,3,7,10}
-41 #582 {2,3,7,10}
-131 #583 {1,2,3,7,10}
-29 #584 {4,7,10}
-94 #585 {1,4,7,10}
-94 #586 {2,4,7,10}
-184 #587 {1,2,4,7,10}
-99 #588 {3,4,7,10}
-131 #589 {1,3,4,7,10}
-131 #590 {2,3,4,7,10}
-241 #591 {1,2,3,4,7,10}
-42 #592 {5,7,10}
-48 #593 {1,5,7,10}
-48 #594 {2,5,7,10}
-138 #595 {1,2,5,7,10}
-112 #596 {3,5,7,10}
-117 #597 {1,3,5,7,10}
-114 #598 {2,3,5,7,10}
-195 #599 {1,2,3,5,7,10}
-99 #600 {4,5,7,10}
-138 #601 {1,4,5,7,10}
-138 #602 {2,4,5,7,10}
-248 #603 {1,2,4,5,7,10}
-189 #604 {3,4,5,7,10}
-214 #605 {1,3,4,5,7,10}
-211 #606 {2,3,4,5,7,10}
-325 #607 {1,2,3,4,5,7,10}
-38 #608 {6,7,10}
-94 #609 {1,6,7,10}
-94 #610 {2,6,7,10}
-184 #611 {1,2,6,7,10}
-108 #612 {3,6,7,10}
-131 #613 {1,3,6,7,10}
-131 #614 {2,3,6,7,10}
-241 #615 {1,2,3,6,7,10}
-95 #616 {4,6,7,10}
-184 #617 {1,4,6,7,10}
-184 #618 {2,4,6,7,10}
-294 #619 {1,2,4,6,7,10}
-185 #620 {3,4,6,7,10}
-241 #621 {1,3,4,6,7,10}
-241 #622 {2,3,4,6,7,10}
-371 #623 {1,2,3,4,6,7,10}
-108 #624 {5,6,7,10}
-138 #625 {1,5,6,7,10}
-138 #626 {2,5,6,7,10}
-248 #627 {1,2,5,6,7,10}
-198 #628 {3,5,6,7,10}
-223 #629 {1,3,5,6,7,10}
-220 #630 {2,3,5,6,7,10}
-325 #631 {1,2,3,5,6,7,10}
-185 #632 {4,5,6,7,10}
-248 #633 {1,4,5,6,7,10}
-248 #634 {2,4,5,6,7,10}
-378 #635 {1,2,4,5,6,7,10}
-295 #636 {3,4,5,6,7,10}
-340 #637 {1,3,4,5,6,7,10}
-337 #638 {2,3,4,5,6,7,10}
-475 #639 {1,2,3,4,5,6,7,10}
8 #640 {8,10}
4 #641 {1,8,10}
4 #642 {2,8,10}
-66 #643 {1,2,8,10}
-42 #644 {3,8,10}
-27 #645 {1,3,8,10}
-24 #646 {2,3,8,10}
-103 #647 {1,2,3,8,10}
-29 #648 {4,8,10}
-66 #649 {1,4,8,10}
-66 #650 {2,4,8,10}
-156 #651 {1,2,4,8,10}
-99 #652 {3,4,8,10}
-104 #653 {1,3,4,8,10}
-103 #654 {2,3,4,8,10}
-213 #655 {1,2,3,4,8,10}
-42 #656 {5,8,10}
-27 #657 {1,5,8,10}
-24 #658 {2,5,8,10}
-110 #659 {1,2,5,8,10}
-112 #660 {3,5,8,10}
-117 #661 {1,3,5,8,10}
-114 #662 {2,3,5,8,10}
-167 #663 {1,2,3,5,8,10}
-99 #664 {4,5,8,10}
-110 #665 {1,4,5,8,10}
-110 #666 {2,4,5,8,10}
-220 #667 {1,2,4,5,8,10}
-189 #668 {3,4,5,8,10}
-214 #669 {1,3,4,5,8,10}
-211 #670 {2,3,4,5,8,10}
-297 #671 {1,2,3,4,5,8,10}
-38 #672 {6,8,10}
-66 #673 {1,6,8,10}
-66 #674 {2,6,8,10}
-156 #675 {1,2,6,8,10}
-108 #676 {3,6,8,10}
-113 #677 {1,3,6,8,10}
-110 #678 {2,3,6,8,10}
-213 #679 {1,2,3,6,8,10}
-95 #680 {4,6,8,10}
-156 #681 {1,4,6,8,10}
-156 #682 {2,4,6,8,10}
-266 #683 {1,2,4,6,8,10}
-185 #684 {3,4,6,8,10}
-213 #685 {1,3,4,6,8,10}
-213 #686 {2,3,4,6,8,10}
-343 #687 {1,2,3,4,6,8,10}
-108 #688 {5,6,8,10}
-113 #689 {1,5,6,8,10}
-110 #690 {2,5,6,8,10}
-220 #691 {1,2,5,6,8,10}
-198 #692 {3,5,6,8,10}
-223 #693 {1,3,5,6,8,10}
-220 #694 {2,3,5,6,8,10}
-297 #695 {1,2,3,5,6,8,10}
-185 #696 {4,5,6,8,10}
-220 #697 {1,4,5,6,8,10}
-220 #698 {2,4,5,6,8,10}
-350 #699 {1,2,4,5,6,8,10}
-295 #700 {3,4,5,6,8,10}
-340 #701 {1,3,4,5,6,8,10}
-337 #702 {2,3,4,5,6,8,10}
-447 #703 {1,2,3,4,5,6,8,10}
-42 #704 {7,8,10}
-27 #705 {1,7,8,10}
-24 #706 {2,7,8,10}
-90 #707 {1,2,7,8,10}
-112 #708 {3,7,8,10}
-117 #709 {1,3,7,8,10}
-114 #710 {2,3,7,8,10}
-147 #711 {1,2,3,7,8,10}
-99 #712 {4,7,8,10}
-104 #713 {1,4,7,8,10}
-101 #714 {2,4,7,8,10}
-200 #715 {1,2,4,7,8,10}
-189 #716 {3,4,7,8,10}
-214 #717 {1,3,4,7,8,10}
-211 #718 {2,3,4,7,8,10}
-277 #719 {1,2,3,4,7,8,10}
-112 #720 {5,7,8,10}
-117 #721 {1,5,7,8,10}
-114 #722 {2,5,7,8,10}
-154 #723 {1,2,5,7,8,10}
-202 #724 {3,5,7,8,10}
-227 #725 {1,3,5,7,8,10}
-224 #726 {2,3,5,7,8,10}
-269 #727 {1,2,3,5,7,8,10}
-189 #728 {4,5,7,8,10}
-214 #729 {1,4,5,7,8,10}
-211 #730 {2,4,5,7,8,10}
-284 #731 {1,2,4,5,7,8,10}
-299 #732 {3,4,5,7,8,10}
-344 #733 {1,3,4,5,7,8,10}
-341 #734 {2,3,4,5,7,8,10}
-406 #735 {1,2,3,4,5,7,8,10}
-108 #736 {6,7,8,10}
-113 #737 {1,6,7,8,10}
-110 #738 {2,6,7,8,10}
-200 #739 {1,2,6,7,8,10}
-198 #740 {3,6,7,8,10}
-223 #741 {1,3,6,7,8,10}
-220 #742 {2,3,6,7,8,10}
-277 #743 {1,2,3,6,7,8,10}
-185 #744 {4,6,7,8,10}
-210 #745 {1,4,6,7,8,10}
-207 #746 {2,4,6,7,8,10}
-330 #747 {1,2,4,6,7,8,10}
-295 #748 {3,4,6,7,8,10}
-340 #749 {1,3,4,6,7,8,10}
-337 #750 {2,3,4,6,7,8,10}
-427 #751 {1,2,3,4,6,7,8,10}
-198 #752 {5,6,7,8,10}
-223 #753 {1,5,6,7,8,10}
-220 #754 {2,5,6,7,8,10}
-284 #755 {1,2,5,6,7,8,10}
-308 #756 {3,5,6,7,8,10}
-353 #757 {1,3,5,6,7,8,10}
-350 #758 {2,3,5,6,7,8,10}
-415 #759 {1,2,3,5,6,7,8,10}
-295 #760 {4,5,6,7,8,10}
-340 #761 {1,4,5,6,7,8,10}
-337 #762 {2,4,5,6,7,8,10}
-434 #763 {1,2,4,5,6,7,8,10}
-425 #764 {3,4,5,6,7,8,10}
-490 #765 {1,3,4,5,6,7,8,10}
-487 #766 {2,3,4,5,6,7,8,10}
-572 #767 {1,2,3,4,5,6,7,8,10}
-40 #768 {9,10}
-90 #769 {1,9,10}
-90 #770 {2,9,10}
-160 #771 {1,2,9,10}
-37 #772 {3,9,10}
-107 #773 {1,3,9,10}
-107 #774 {2,3,9,10}
-197 #775 {1,2,3,9,10}
-90 #776 {4,9,10}
-160 #777 {1,4,9,10}
-160 #778 {2,4,9,10}
-250 #779 {1,2,4,9,10}
-107 #780 {3,4,9,10}
-197 #781 {1,3,4,9,10}
-197 #782 {2,3,4,9,10}
-307 #783 {1,2,3,4,9,10}
-44 #784 {5,9,10}
-114 #785 {1,5,9,10}
-114 #786 {2,5,9,10}
-204 #787 {1,2,5,9,10}
-61 #788 {3,5,9,10}
-151 #789 {1,3,5,9,10}
-151 #790 {2,3,5,9,10}
-261 #791 {1,2,3,5,9,10}
-114 #792 {4,5,9,10}
-204 #793 {1,4,5,9,10}
-204 #794 {2,4,5,9,10}
-314 #795 {1,2,4,5,9,10}
-151 #796 {3,4,5,9,10}
-261 #797 {1,3,4,5,9,10}
-261 #798 {2,3,4,5,9,10}
-391 #799 {1,2,3,4,5,9,10}
-90 #800 {6,9,10}
-160 #801 {1,6,9,10}
-160 #802 {2,6,9,10}
-250 #803 {1,2,6,9,10}
-107 #804 {3,6,9,10}
-197 #805 {1,3,6,9,10}
-197 #806 {2,3,6,9,10}
-307 #807 {1,2,3,6,9,10}
-160 #808 {4,6,9,10}
-250 #809 {1,4,6,9,10}
-250 #810 {2,4,6,9,10}
-360 #811 {1,2,4,6,9,10}
-197 #812 {3,4,6,9,10}
-307 #813 {1,3,4,6,9,10}
-307 #814 {2,3,4,6,9,10}
-437 #815 {1,2,3,4,6,9,10}
-114 #816 {5,6,9,10}
-204 #817 {1,5,6,9,10}
-204 #818 {2,5,6,9,10}
-314 #819 {1,2,5,6,9,10}
-151 #820 {3,5,6,9,10}
-261 #821 {1,3,5,6,9,10}
-261 #822 {2,3,5,6,9,10}
-391 #823 {1,2,3,5,6,9,10}
-204 #824 {4,5,6,9,10}
-314 #825 {1,4,5,6,9,10}
-314 #826 {2,4,5,6,9,10}
-444 #827 {1,2,4,5,6,9,10}
-261 #828 {3,4,5,6,9,10}
-391 #829 {1,3,4,5,6,9,10}
-391 #830 {2,3,4,5,6,9,10}
-541 #831 {1,2,3,4,5,6,9,10}
-24 #832 {7,9,10}
-94 #833 {1,7,9,10}
-94 #834 {2,7,9,10}
-184 #835 {1,2,7,9,10}
-41 #836 {3,7,9,10}
-131 #837 {1,3,7,9,10}
-131 #838 {2,3,7,9,10}
-241 #839 {1,2,3,7,9,10}
-94 #840 {4,7,9,10}
-184 #841 {1,4,7,9,10}
-184 #842 {2,4,7,9,10}
-294 #843 {1,2,4,7,9,10}
-131 #844 {3,4,7,9,10}
-241 #845 {1,3,4,7,9,10}
-241 #846 {2,3,4,7,9,10}
-371 #847 {1,2,3,4,7,9,10}
-48 #848 {5,7,9,10}
-138 #849 {1,5,7,9,10}
-138 #850 {2,5,7,9,10}
-248 #851 {1,2,5,7,9,10}
-124 #852 {3,5,7,9,10}
-195 #853 {1,3,5,7,9,10}
-195 #854 {2,3,5,7,9,10}
-325 #855 {1,2,3,5,7,9,10}
-138 #856 {4,5,7,9,10}
-248 #857 {1,4,5,7,9,10}
-248 #858 {2,4,5,7,9,10}
-378 #859 {1,2,4,5,7,9,10}
-221 #860 {3,4,5,7,9,10}
-325 #861 {1,3,4,5,7,9,10}
-325 #862 {2,3,4,5,7,9,10}
-475 #863 {1,2,3,4,5,7,9,10}
-94 #864 {6,7,9,10}
-184 #865 {1,6,7,9,10}
-184 #866 {2,6,7,9,10}
-294 #867 {1,2,6,7,9,10}
-131 #868 {3,6,7,9,10}
-241 #869 {1,3,6,7,9,10}
-241 #870 {2,3,6,7,9,10}
-371 #871 {1,2,3,6,7,9,10}
-184 #872 {4,6,7,9,10}
-294 #873 {1,4,6,7,9,10}
-294 #874 {2,4,6,7,9,10}
-424 #875 {1,2,4,6,7,9,10}
-241 #876 {3,4,6,7,9,10}
-371 #877 {1,3,4,6,7,9,10}
-371 #878 {2,3,4,6,7,9,10}
-521 #879 {1,2,3,4,6,7,9,10}
-138 #880 {5,6,7,9,10}
-248 #881 {1,5,6,7,9,10}
-248 #882 {2,5,6,7,9,10}
-378 #883 {1,2,5,6,7,9,10}
-230 #884 {3,5,6,7,9,10}
-325 #885 {1,3,5,6,7,9,10}
-325 #886 {2,3,5,6,7,9,10}
-475 #887 {1,2,3,5,6,7,9,10}
-248 #888 {4,5,6,7,9,10}
-378 #889 {1,4,5,6,7,9,10}
-378 #890 {2,4,5,6,7,9,10}
-528 #891 {1,2,4,5,6,7,9,10}
-347 #892 {3,4,5,6,7,9,10}
-475 #893 {1,3,4,5,6,7,9,10}
-475 #894 {2,3,4,5,6,7,9,10}
-645 #895 {1,2,3,4,5,6,7,9,10}
4 #896 {8,9,10}
-66 #897 {1,8,9,10}
-66 #898 {2,8,9,10}
-156 #899 {1,2,8,9,10}
-34 #900 {3,8,9,10}
-103 #901 {1,3,8,9,10}
-103 #902 {2,3,8,9,10}
-213 #903 {1,2,3,8,9,10}
-66 #904 {4,8,9,10}
-156 #905 {1,4,8,9,10}
-156 #906 {2,4,8,9,10}
-266 #907 {1,2,4,8,9,10}
-111 #908 {3,4,8,9,10}
-213 #909 {1,3,4,8,9,10}
-213 #910 {2,3,4,8,9,10}
-343 #911 {1,2,3,4,8,9,10}
-34 #912 {5,8,9,10}
-110 #913 {1,5,8,9,10}
-110 #914 {2,5,8,9,10}
-220 #915 {1,2,5,8,9,10}
-124 #916 {3,5,8,9,10}
-167 #917 {1,3,5,8,9,10}
-167 #918 {2,3,5,8,9,10}
-297 #919 {1,2,3,5,8,9,10}
-111 #920 {4,5,8,9,10}
-220 #921 {1,4,5,8,9,10}
-220 #922 {2,4,5,8,9,10}
-350 #923 {1,2,4,5,8,9,10}
-221 #924 {3,4,5,8,9,10}
-297 #925 {1,3,4,5,8,9,10}
-297 #926 {2,3,4,5,8,9,10}
-447 #927 {1,2,3,4,5,8,9,10}
-66 #928 {6,8,9,10}
-156 #929 {1,6,8,9,10}
-156 #930 {2,6,8,9,10}
-266 #931 {1,2,6,8,9,10}
-120 #932 {3,6,8,9,10}
-213 #933 {1,3,6,8,9,10}
-213 #934 {2,3,6,8,9,10}
-343 #935 {1,2,3,6,8,9,10}
-156 #936 {4,6,8,9,10}
-266 #937 {1,4,6,8,9,10}
-266 #938 {2,4,6,8,9,10}
-396 #939 {1,2,4,6,8,9,10}
-217 #940 {3,4,6,8,9,10}
-343 #941 {1,3,4,6,8,9,10}
-343 #942 {2,3,4,6,8,9,10}
-493 #943 {1,2,3,4,6,8,9,10}
-120 #944 {5,6,8,9,10}
-220 #945 {1,5,6,8,9,10}
-220 #946 {2,5,6,8,9,10}
-350 #947 {1,2,5,6,8,9,10}
-230 #948 {3,5,6,8,9,10}
-297 #949 {1,3,5,6,8,9,10}
-297 #950 {2,3,5,6,8,9,10}
-447 #951 {1,2,3,5,6,8,9,10}
-220 #952 {4,5,6,8,9,10}
-350 #953 {1,4,5,6,8,9,10}
-350 #954 {2,4,5,6,8,9,10}
-500 #955 {1,2,4,5,6,8,9,10}
-347 #956 {3,4,5,6,8,9,10}
-447 #957 {1,3,4,5,6,8,9,10}
-447 #958 {2,3,4,5,6,8,9,10}
-617 #959 {1,2,3,4,5,6,8,9,10}
-34 #960 {7,8,9,10}
-90 #961 {1,7,8,9,10}
-90 #962 {2,7,8,9,10}
-200 #963 {1,2,7,8,9,10}
-124 #964 {3,7,8,9,10}
-149 #965 {1,3,7,8,9,10}
-147 #966 {2,3,7,8,9,10}
-277 #967 {1,2,3,7,8,9,10}
-111 #968 {4,7,8,9,10}
-200 #969 {1,4,7,8,9,10}
-200 #970 {2,4,7,8,9,10}
-330 #971 {1,2,4,7,8,9,10}
-221 #972 {3,4,7,8,9,10}
-277 #973 {1,3,4,7,8,9,10}
-277 #974 {2,3,4,7,8,9,10}
-427 #975 {1,2,3,4,7,8,9,10}
-124 #976 {5,7,8,9,10}
-154 #977 {1,5,7,8,9,10}
-154 #978 {2,5,7,8,9,10}
-284 #979 {1,2,5,7,8,9,10}
-234 #980 {3,5,7,8,9,10}
-279 #981 {1,3,5,7,8,9,10}
-276 #982 {2,3,5,7,8,9,10}
-381 #983 {1,2,3,5,7,8,9,10}
-221 #984 {4,5,7,8,9,10}
-284 #985 {1,4,5,7,8,9,10}
-284 #986 {2,4,5,7,8,9,10}
-434 #987 {1,2,4,5,7,8,9,10}
-351 #988 {3,4,5,7,8,9,10}
-416 #989 {1,3,4,5,7,8,9,10}
-413 #990 {2,3,4,5,7,8,9,10}
-551 #991 {1,2,3,4,5,7,8,9,10}
-120 #992 {6,7,8,9,10}
-200 #993 {1,6,7,8,9,10}
-200 #994 {2,6,7,8,9,10}
-330 #995 {1,2,6,7,8,9,10}
-230 #996 {3,6,7,8,9,10}
-277 #997 {1,3,6,7,8,9,10}
-277 #998 {2,3,6,7,8,9,10}
-427 #999 {1,2,3,6,7,8,9,10}
-217 #1000 {4,6,7,8,9,10}
-330 #1001 {1,4,6,7,8,9,10}
-330 #1002 {2,4,6,7,8,9,10}
-480 #1003 {1,2,4,6,7,8,9,10}
-347 #1004 {3,4,6,7,8,9,10}
-427 #1005 {1,3,4,6,7,8,9,10}
-427 #1006 {2,3,4,6,7,8,9,10}
-597 #1007 {1,2,3,4,6,7,8,9,10}
-230 #1008 {5,6,7,8,9,10}
-284 #1009 {1,5,6,7,8,9,10}
-284 #1010 {2,5,6,7,8,9,10}
-434 #1011 {1,2,5,6,7,8,9,10}
-360 #1012 {3,5,6,7,8,9,10}
-425 #1013 {1,3,5,6,7,8,9,10}
-422 #1014 {2,3,5,6,7,8,9,10}
-551 #1015 {1,2,3,5,6,7,8,9,10}
-347 #1016 {4,5,6,7,8,9,10}
-434 #1017 {1,4,5,6,7,8,9,10}
-434 #1018 {2,4,5,6,7,8,9,10}
-604 #1019 {1,2,4,5,6,7,8,9,10}
-497 #1020 {3,4,5,6,7,8,9,10}
-582 #1021 {1,3,4,5,6,7,8,9,10}
-579 #1022 {2,3,4,5,6,7,8,9,10}
-741 #1023 {1,2,3,4,5,6,7,8,9,10}
