\relax 
\providecommand*\caption@xref[2]{\@setref\relax\@undefined{#1}}
\newlabel{figGainResSh}{{1a}{1}}
\newlabel{sub@figGainResSh}{{a}{1}}
\newlabel{figGaintaskAll}{{1b}{1}}
\newlabel{sub@figGaintaskAll}{{b}{1}}
\newlabel{figGainColPurch}{{1c}{1}}
\newlabel{sub@figGainColPurch}{{c}{1}}
\newlabel{figGainEnPurch}{{1d}{1}}
\newlabel{sub@figGainEnPurch}{{d}{1}}
\@writefile{lof}{\contentsline {figure}{\numberline {1}{\ignorespaces With deviation, heuristic: order in which agents joined the coalition\relax }}{1}}
