CSGain, CSStability 
0.0, 1.0
1696.374, 0.9941747572815534
1823.582, 0.9803921568627451
1842.322, 0.9642058165548099
1840.544, 0.9888641425389755
1834.978, 0.9777777777777777
1831.136, 0.9821826280623608
1829.04, 0.9799107142857143
1824.0, 0.9755555555555555
1826.752, 0.9799554565701559
1833.995, 0.9842696629213483
1839.854, 0.9841269841269841
1848.827, 0.9771689497716894
1861.875, 0.9699074074074074
1854.851, 0.9630484988452656
1849.487, 0.9838709677419355
