\relax 
\@writefile{lof}{\contentsline {figure}{\numberline {1}{\ignorespaces Interest vector length = 10}}{1}}
\@writefile{lof}{\contentsline {subfigure}{\numberline{(a)}{\ignorespaces {Bounded Sum}}}{1}}
\@writefile{lof}{\contentsline {subfigure}{\numberline{(b)}{\ignorespaces {Distance To Target}}}{1}}
\@writefile{lof}{\contentsline {subfigure}{\numberline{(c)}{\ignorespaces {Energy Purchasing}}}{1}}
\@writefile{lof}{\contentsline {subfigure}{\numberline{(d)}{\ignorespaces {Market Based Size Penalized}}}{1}}
