8 1000 1 MarketBasedSizePenalizedEvaluationFunction RandomStrategy 88780.0 44390.0 88780.0 1180.0 1180.0 1180.0 0.0 2 2 600000 1024 88780.0 0.0 0.0 No-deviation no-solution-selection
9 1000 1 MarketBasedSizePenalizedEvaluationFunction RandomStrategy 167160.0 113093.33333333333 167160.0 2030.0 1558.0 2030.0 0.0 6 6 600000 3296 167160.0 0.0 0.0 No-deviation no-solution-selection
10 1000 1 MarketBasedSizePenalizedEvaluationFunction RandomStrategy 183200.0 143492.72727272726 183200.0 2270.0 1929.0 2600.0 0.0 11 11 600000 6159 183200.0 0.0 0.0 No-deviation no-solution-selection
11 1000 1 MarketBasedSizePenalizedEvaluationFunction RandomStrategy 186540.0 157076.25 189110.0 2470.0 2090.6666666666665 2790.0 0.0 16 16 600000 8220 189110.0 0.0 0.0 No-deviation no-solution-selection
12 1000 1 MarketBasedSizePenalizedEvaluationFunction RandomStrategy 184780.0 164157.61904761905 191000.0 2200.0 2130.0 2790.0 0.0 21 21 600000 9409 191000.0 0.0 0.0 No-deviation no-solution-selection
13 1000 1 MarketBasedSizePenalizedEvaluationFunction RandomStrategy 187520.0 168815.76923076922 191000.0 2910.0 2209.2 2910.0 0.0 26 26 600000 10149 191000.0 0.0 0.0 No-deviation no-solution-selection
14 1000 1 MarketBasedSizePenalizedEvaluationFunction RandomStrategy 190760.0 172240.0 191830.0 3260.0 2276.3333333333335 3260.0 0.0 31 31 600000 11016 191830.0 0.0 0.0 No-deviation no-solution-selection
22 1000 1 MarketBasedSizePenalizedEvaluationFunction MixedStrategy.CoalitionValueBasedStrategy.1.0RandomStrategy.1.0 175880.0 87940.0 175880.0 1800.0 1800.0 1800.0 0.0 2 2 600000 23760 175880.0 0.0 0.0 No-deviation no-solution-selection
15 1000 1 MarketBasedSizePenalizedEvaluationFunction LocalSearchStrategy 241330.0 120665.0 241330.0 1440.0 1440.0 1440.0 0.0 2 2 600000 51260 241330.0 0.0 0.0 No-deviation no-solution-selection
1 1000 1 MarketBasedSizePenalizedEvaluationFunction CoalitionValueBasedStrategy 241330.0 120665.0 241330.0 1440.0 1440.0 1440.0 0.0 2 2 600000 51855 241330.0 0.0 0.0 No-deviation no-solution-selection
29 1000 2 MarketBasedSizePenalizedEvaluationFunction CoalitionValueBasedStrategy 240040.0 120020.0 240040.0 1270.0 1270.0 1270.0 0.0 2 2 600000 42735 240040.0 0.0 0.0 No-deviation no-solution-selection
23 1000 1 MarketBasedSizePenalizedEvaluationFunction MixedStrategy.CoalitionValueBasedStrategy.1.0RandomStrategy.1.0 229570.0 177661.66666666666 229570.0 2560.0 2276.0 2560.0 0.0 6 6 600000 97795 229570.0 0.0 0.0 No-deviation no-solution-selection
16 1000 1 MarketBasedSizePenalizedEvaluationFunction LocalSearchStrategy 265650.0 216386.66666666666 265650.0 1440.0 1440.0 1440.0 0.0 6 6 600000 194582 265650.0 0.0 0.0 No-deviation no-solution-selection
2 1000 1 MarketBasedSizePenalizedEvaluationFunction CoalitionValueBasedStrategy 265650.0 216386.66666666666 265650.0 1440.0 1440.0 1440.0 0.0 6 6 600000 194132 265650.0 0.0 0.0 No-deviation no-solution-selection
24 1000 1 MarketBasedSizePenalizedEvaluationFunction MixedStrategy.CoalitionValueBasedStrategy.1.0RandomStrategy.1.0 237830.0 204190.9090909091 237830.0 2490.0 2323.0 2560.0 0.0 11 11 600000 207481 237830.0 0.0 0.0 No-deviation no-solution-selection
30 1000 2 MarketBasedSizePenalizedEvaluationFunction CoalitionValueBasedStrategy 266570.0 217015.0 266570.0 1310.0 1302.0 1310.0 0.0 6 6 600000 187702 266570.0 0.0 0.0 No-deviation no-solution-selection
36 1000 2 MarketBasedSizePenalizedEvaluationFunction RandomStrategy 87160.0 43580.0 87160.0 990.0 990.0 990.0 0.0 2 2 600000 310 87160.0 0.0 0.0 No-deviation no-solution-selection
37 1000 2 MarketBasedSizePenalizedEvaluationFunction RandomStrategy 167400.0 114520.0 167400.0 1610.0 1516.0 1730.0 0.0 6 6 600000 873 167400.0 0.0 0.0 No-deviation no-solution-selection
38 1000 2 MarketBasedSizePenalizedEvaluationFunction RandomStrategy 185200.0 143879.0909090909 185200.0 2390.0 1889.0 2490.0 0.0 11 11 600000 1520 185200.0 0.0 0.0 No-deviation no-solution-selection
39 1000 2 MarketBasedSizePenalizedEvaluationFunction RandomStrategy 188220.0 157015.0 188820.0 2420.0 2064.6666666666665 2570.0 0.0 16 16 600000 2299 188820.0 0.0 0.0 No-deviation no-solution-selection
40 1000 2 MarketBasedSizePenalizedEvaluationFunction RandomStrategy 192020.0 164936.66666666666 192750.0 2460.0 2162.0 2610.0 0.0 21 21 600000 2783 192750.0 0.0 0.0 No-deviation no-solution-selection
41 1000 2 MarketBasedSizePenalizedEvaluationFunction RandomStrategy 188610.0 170024.23076923078 193060.0 2400.0 2223.6 2610.0 0.0 26 26 600000 3184 193060.0 0.0 0.0 No-deviation no-solution-selection
42 1000 2 MarketBasedSizePenalizedEvaluationFunction RandomStrategy 190470.0 173512.5806451613 193070.0 2600.0 2257.6666666666665 2610.0 0.0 31 31 600000 3542 193070.0 0.0 0.0 No-deviation no-solution-selection
43 1000 2 MarketBasedSizePenalizedEvaluationFunction LocalSearchStrategy 240040.0 120020.0 240040.0 1270.0 1270.0 1270.0 0.0 2 2 600000 42866 240040.0 0.0 0.0 No-deviation no-solution-selection
