\relax 
\providecommand*\caption@xref[2]{\@setref\relax\@undefined{#1}}
\newlabel{figGainResSh}{{1a}{}}
\newlabel{sub@figGainResSh}{{a}{}}
\newlabel{figGaintaskAll}{{1b}{}}
\newlabel{sub@figGaintaskAll}{{b}{}}
\newlabel{figGainColPurch}{{1c}{}}
\newlabel{sub@figGainColPurch}{{c}{}}
\newlabel{figGainEnPurch}{{1d}{}}
\newlabel{sub@figGainEnPurch}{{d}{}}
\@writefile{lof}{\contentsline {figure}{\numberline {1}{\ignorespaces No deviation\relax }}{}}
\@writefile{lof}{\contentsline {figure}{\numberline {2}{\ignorespaces GAIN, Interest vector length = 10\relax }}{}}
