2000
3
22
40
52
63
74
79
114
159
171
190
208
220
231
242
247
282
327
339
358
376
388
399
410
415
426
450
495
507
526
544
556
567
578
583
594
618
629
663
675
678
694
712
719
724
735
742
746
751
762
786
797
831
843
846
862
880
887
892
903
910
914
919
930
954
965
999
1011
1014
1030
1048
1055
1060
1071
1078
1082
1087
1098
1122
1133
1167
1170
1179
1182
1198
1212
1216
1223
1228
1239
1246
1250
1255
1266
1290
1301
1335
1338
1347
1350
1366
1380
1384
1391
1396
1407
1414
1418
1423
1434
1458
1469
1503
1506
1515
1518
1534
1548
1552
1559
1564
1575
1582
1586
1591
1602
1626
1637
1671
1674
1683
1686
1702
1716
1720
1727
1732
1743
1750
1754
1759
1770
1794
1797
1805
1839
1842
1851
1854
1870
1884
1888
1895
1900
1911
1918
1922
1927
1938
1962
1965
1973
1145,1341,84,638,572,665,967,732,1310,740,833,1135,160,1404,1982,71,137,333,1817,127,1455,1521,156,1689,324,432,411,600,660,4,828,1104,1251,1272,996,172,1164,1440,1332,340,1500,1923,844,1260,85,1012,437,55,1180,35,203,1613,727,1852,373,72,539,240,408,576,1387,113,1224,1211,1392,1555,1560,179,1728,6,540,33,201,369,223,1348,1748,1841,134,60,473,669,165,1916,129,228,68,161,463,302,641,837,396,470,809,1005,977,1173,36,297,236,329,631,465,404,497,799,564,969,743,305,501,1985,295,1908,1137,25,111,664,911,1079,279,832,1623,193,1305,756,1247,1033,1201,1369,1473,204,1481,1677,420,974,1244,1337,1639,1068,1646,1412,1505,1807,496,1740,801,407,529,697,447,1000,1641,9,1537,1705,1415,1583,1873,615,1168,783,1336,1809,372,1649,1845,588,1142,1580,1673,1975,1236,1814,575,177,951,1504,1313,1509,252,806,908,1001,1303,900,1478,1076,1169,1471,328,1572,633,239,361,1791,1959,865,1977,345,513,1751,1919,681,924,849,37,1017,1185,1092,1353,75,243,1857,492,579,768,747,915,936,1083,1608,1668,1776,1944,1836,508,1119,1672,101,96,1419,1587,1287,1840,269,264,1755,676,605,773,205,371,941,1109,1277,1445,391,1516,559,1684,707,1781,541,1949,744,912,1080,1248,1416,1428,1429,1584,1752,1920,164,332,875,500,709,1597,877,668,836,1004,1172,1340,1508,116,1045,1043,1676,1844,11,1219,1379,1723,1896,1891,347,174,14,182,350,515,147,281,518,686,854,449,683,315,62,1022,1190,851,617,230,1358,1526,785,1694,1019,1213,284,150,1187,398,1862,1742,483,1355,1910,953,253,895,43,48,566,1381,452,158,141,421,1063,211,216,734,1549,620,1121,138,306,123,589,1231,379,384,902,1717,788,1885,956,318,1547,757,1399,547,552,1070,651,291,925,1567,715,720,1238,1093,1735,883,888,1406,1596,1765,1124,486,1715,1523,69,1261,1903,1051,1056,1574,1289,474,459,642,810,1691,119,978,1146,1859,287,1314,537,819,1933,142,1883,987,309,455,627,1482,477,1650,1818,795,1986,126,38,623,294,206,791,462,630,374,1764,117,118,645,813,237,798,542,959,405,710,1127,1155,981,966,1292,654,1295,1134,1460,1932,285,1457,1149,1302,286,1463,1631,573,878,1799,1470,741,454,1967,909,1638,1046,17,1806,1214,1077,1974,1245,1382,1413,1581,54,1317,222,622,822,790,990,1550,1749,1917,390,1718,185,1485,558,958,1158,1886,353,726,1126,106,274,442,894,1653,1062,1628,77,1294,1326,1462,521,610,1230,1821,1796,245,1989,1964,1494,778,946,1114,1630,689,1282,1398,1798,1450,1618,1786,1954,1566,81,413,1966,1734,88,1902,256,424,51,219,387,963,592,555,249,581,417,1662,760,928,1096,1264,723,585,1830,857,753,1998,1432,1600,1323,1768,921,310,1936,80,248,891,1089,708,705,873,1041,1209,1131,1299,478,1467,1635,1803,1971,1059,1227,1395,1377,646,814,1563,1731,1899,82,416,584,752,920,73,1491,1088,1256,1424,1592,1760,1928,92,241,76,260,428,596,764,932,1100,1268,1436,1604,1772,1940,250,418,409,749,163,982,586,754,244,922,1090,26,1258,1426,1594,194,1762,1930,155,362,143,323,491,530,311,659,827,698,479,995,1163,866,647,1331,1499,1034,815,1667,1835,1202,983,1151,1370,1319,1487,1655,1538,1823,1991,1706,146,121,289,457,625,1874,412,58,314,793,961,108,46,226,149,214,394,317,382,276,1129,1297,1465,1633,444,876,1545,1713,1881,453,621,1025,64,485,653,821,989,1801,1157,1257,1150,580,93,261,429,597,1325,1493,1425,1318,748,916,1593,1486,1084,765,933,1101,1269,1437,1605,1661,1761,1654,1252,1420,1929,1822,1588,1773,1941,1969,1829,577,1990,1756,745,1997,550,1924,232,718,886,482,326,650,41,1054,818,1222,986,1390,913,1154,1322,494,1490,662,1558,1658,1726,154,1894,44,322,209,377,490,545,713,658,881,1049,826,1217,1385,212,1553,994,1721,1889,1162,27,1330,195,1498,124,1666,363,1834,531,13,699,181,292,349,867,517,1193,685,853,1021,1035,49,31,199,1189,1203,217,367,612,23,191,780,359,527,948,695,535,1357,1371,863,703,871,1039,1525,1207,1375,1543,1711,1879,107,1031,1116,1199,385,1284,1367,1693,1361,90,553,1539,1861,460,1452,562,721,1707,889,1057,730,1875,1225,1393,91,898,628,1620,1535,1529,1081,1697,400,1561,1788,1729,1897,1956,1703,1066,796,1234,964,1402,568,736,904,1570,128,1871,296,1738,110,259,278,1072,1906,446,427,614,148,275,1240,443,611,779,316,1408,947,1115,1283,1451,1576,1619,1787,484,1955,1744,1659,1249,917,1417,1625,1865,1912,166,464,39,334,632,207,502,800,375,968,670,543,1136,838,711,652,820,16,988,184,1006,879,352,520,1156,688,1324,167,856,1492,1024,1192,1660,1360,1828,380,1174,782,1996,1528,144,1696,1864,312,480,648,59,816,984,227,1152,1320,1488,548,950,1342,595,395,1656,563,1824,1992,731,1510,763,899,716,1118,1678,931,1067,1235,1846,1099,1403,1571,1739,884,1286,335,1454,1907,109,277,445,613,781,86,503,254,949,1117,1285,1453,422,1621,1789,590,1957,758,1585,1085,1052,1220,258,1047,1215,926,1094,671,98,67,1262,839,1430,235,1598,403,1007,1766,1934,571,1753,1253,1921,1793,1827,830,1132,1300,61,50,218,386,554,722,890,1622,1175,1058,1226,1394,1562,1730,266,1343,434,1383,331,1421,1961,1995,499,1589,998,47,1388,1898,1790,32,200,368,536,704,872,42,1040,1208,210,1376,1544,378,1712,87,1880,602,229,770,938,1106,397,1274,1442,1610,565,1778,1946,1511,546,1551,714,1679,882,1719,1050,1847,1218,24,1887,667,1757,1556,1724,1892,1826,1267,1435,733,1958,192,360,901,1386,1603,1554,1069,1722,528,1771,835,1925,1166,215,1939,1890,255,423,1237,696,864,591,1032,1200,1405,135,1368,759,1536,1704,1573,303,1872,927,471,1741,639,807,975,1909,1143,1311,157,1479,103,325,1647,271,493,1815,1003,1334,10,178,346,1468,1636,122,1983,661,1171,1502,1804,514,1972,739,682,907,136,829,1,997,169,1095,1339,1670,850,1018,1075,1186,1243,1354,1411,1579,2,170,1747,1507,1838,1522,1690,1858,1915,337,1263,505,1431,673,1165,841,304,100,1333,338,1501,1675,125,1009,472,1177,1669,1345,1599,1513,640,1681,1837,1849,808,57,225,393,1767,78,561,729,976,246,897,1065,1144,414,1233,1401,1569,1312,582,1737,1905,1935,506,674,842,70,1010,1178,238,1346,1514,1682,406,1850,268,574,436,604,1843,293,1480,1648,750,772,918,1816,1086,1254,1984,1422,1590,1758,1926,940,139,162,307,1108,475,643,1276,811,330,979,1444,1147,1315,1612,498,1483,1651,1780,1819,1987,168,336,504,112,672,280,840,448,789,1994,1948,461,66,234,402,570,738,906,616,784,952,1120,1288,1456,1624,102,270,1792,438,1960,606,774,12,942,53,221,389,180,1110,1278,348,1446,1614,516,1782,557,725,893,1061,1229,1397,1565,1733,1901,684,1950,28,852,196,1020,1008,1188,1176,1356,1344,364,1524,532,1692,1512,1860,1680,700,868,7,1036,175,1204,343,1372,511,1540,1708,679,1876,847,1848,1015,1183,1351,666,1519,1687,1855,19,187,355,523,97,265,433,95,601,769,957,1044,1125,1293,1461,1629,342,510,383,551,1304,439,1472,607,1640,775,1808,943,1976,1111,1074,1242,104,272,440,290,608,776,458,944,1112,626,1280,1448,794,1616,1784,962,1952,1130,691,859,1298,1027,1466,1195,1634,1363,1531,1802,1699,1970,1867,1410,1279,1578,1746,1914,115,937,283,1105,451,1273,619,1441,787,1609,955,1777,1123,1945,56,1291,224,392,1459,560,728,1627,896,1064,1795,1232,1400,1568,1963,1736,1904,99,145,267,313,481,435,649,603,817,985,771,1153,1321,939,1489,1657,1107,1825,1275,1993,1443,152,1611,320,1779,488,1947,656,824,1447,834,1002,1615,992,1160,1328,1496,1664,1832,2000,15,183,351,519,687,855,1023,1783,1191,1359,1527,1695,1863,94,262,430,598,766,934,1102,1270,1438,1606,1774,1942,1951,8,176,344,512,680,848,1016,1184,1352,1520,1688,1856,20,188,356,524,692,860,1028,1196,130,1364,298,1532,1700,466,1868,634,30,802,198,970,366,1138,534,1306,702,1474,870,1038,1642,1206,1810,1374,1978,1542,1710,1878,89,257,425,593,761,929,1097,1265,1433,1601,1769,1937,5,173,341,509,677,845,1013,1181,1349,1517,1685,1853,29,197,365,533,701,869,1037,1205,1373,1541,1709,1877,65,233,401,569,737,905,1073,1241,1409,1577,1745,1913,21,189,357,525,693,861,1029,1197,1365,1533,1701,1869,151,319,487,655,823,991,1159,1327,1495,1663,1831,1999,132,300,468,636,804,972,1140,1308,1476,1644,1812,1980,131,299,467,635,803,971,1139,1307,1475,1643,1811,1979,153,321,489,657,825,993,1161,1329,1497,1665,1833,45,213,381,549,717,885,1053,1221,1389,1557,1725,1893,133,301,469,637,805,973,1141,1309,1477,1645,1813,1981,34,202,370,538,706,874,1042,1210,1378,1546,1714,1882,120,288,456,624,792,960,1128,1296,1464,1632,1800,1968,18,186,354,522,690,858,1026,1194,1362,1530,1698,1866,83,251,419,587,755,923,1091,1259,1427,1595,1763,1931,263,431,599,767,935,1103,1271,1439,1607,1775,1943,105,273,441,609,777,945,1113,1281,1449,1617,1785,1953,140,308,476,644,812,980,1148,1316,1484,1652,1820,1988
