1000
3
22
40
52
61
63
90
171
190
208
220
229
231
247
258
327
339
342
358
376
388
397
399
415
426
495
507
510
526
540
544
556
565
567
578
583
594
663
675
678
694
708
712
724
733
735
746
751
762
797
831
843
846
862
876
880
892
901
903
914
919
930
954
965
969
999
589,911,421,743,253,575,740,833,134,60,473,669,165,908,129,228,68,161,463,302,641,837,396,470,236,329,631,564,404,497,799,638,572,665,967,732,806,71,239,361,9,900,974,111,160,407,529,697,36,297,137,333,809,127,25,4,305,501,977,295,193,172,177,345,865,279,328,513,156,768,75,243,411,936,579,324,340,492,508,660,676,828,996,681,84,85,773,747,941,844,447,496,101,96,849,252,757,164,332,72,500,668,836,615,664,269,264,240,783,832,437,432,420,465,588,951,1000,605,600,35,150,408,203,37,116,55,925,43,48,915,141,14,576,163,223,211,216,205,284,62,744,373,452,119,309,230,912,331,391,379,384,182,350,123,541,620,499,559,547,552,113,291,518,686,854,281,459,398,11,709,118,667,727,715,720,371,835,895,883,888,449,204,633,33,201,142,369,310,478,646,539,814,707,566,734,902,147,179,126,294,347,287,138,477,306,515,455,474,642,683,623,810,462,851,69,106,978,44,645,237,286,315,791,274,38,959,630,798,454,318,206,483,966,54,374,877,788,442,610,405,222,813,390,542,573,741,558,710,909,778,726,894,622,17,946,878,88,256,424,592,760,51,219,981,756,117,956,387,555,723,891,627,80,82,790,486,26,248,250,194,416,418,362,584,212,928,795,752,586,958,924,285,875,651,81,654,754,922,920,249,185,143,311,479,647,815,983,92,260,428,417,77,585,822,963,596,764,932,155,323,353,753,491,990,659,76,73,244,827,995,46,214,382,550,521,921,982,412,241,689,718,886,580,149,317,485,653,409,857,821,989,41,209,377,545,158,577,748,326,916,713,881,128,124,745,494,292,296,460,464,628,913,662,796,632,964,800,968,121,289,245,453,830,64,457,27,625,195,793,961,363,49,217,531,385,553,699,721,867,889,31,93,232,261,413,621,998,400,429,568,597,199,367,535,703,871,765,736,933,904,23,530,698,866,91,191,359,39,527,581,789,207,375,543,711,879,108,259,695,863,276,58,146,427,595,314,763,931,154,110,226,394,482,562,650,730,898,818,986,444,322,278,612,490,446,658,780,10,948,826,614,994,67,59,227,235,178,403,346,571,514,957,682,850,782,395,739,380,950,907,563,731,899,13,181,349,1,517,169,337,685,16,98,749,617,107,42,548,210,853,505,673,841,266,434,602,770,938,378,546,714,882,716,74,50,218,184,386,554,722,884,890,87,255,86,254,422,590,758,926,352,520,917,785,275,148,135,688,303,856,471,639,807,242,819,125,293,423,591,975,316,759,484,927,652,820,988,443,611,779,947,24,192,360,987,461,136,304,410,629,472,640,78,528,696,864,246,139,414,582,307,750,918,475,57,100,225,393,268,561,436,729,897,604,772,940,643,109,277,811,445,613,781,979,949,157,325,493,661,829,997,144,312,480,648,816,984,808,976,32,200,368,536,704,872,2,170,338,506,28,102,112,270,196,364,532,438,700,868,280,606,448,774,942,616,784,168,952,336,53,504,12,672,221,389,557,725,893,180,840,348,114,66,516,282,234,684,852,450,402,570,618,738,786,159,372,801,537,6,953,705,873,79,174,47,215,383,167,674,842,335,503,671,839,7,175,343,511,679,847,906,97,162,166,104,272,440,608,265,330,334,776,944,19,433,498,502,187,355,601,666,670,523,691,769,937,834,838,859,56,224,392,122,560,728,896,145,313,481,649,817,985,152,320,488,656,824,992,290,458,626,794,962,115,283,451,619,787,955,99,267,435,603,771,939,95,263,431,599,767,935,15,183,351,519,687,855,103,271,439,607,775,943,94,262,430,598,766,934,130,298,466,634,802,970,8,176,344,512,680,848,65,233,401,569,737,905,70,238,406,574,742,910,20,188,356,524,692,860,551,719,887,30,198,366,534,702,870,89,257,425,593,761,929,5,173,341,509,677,845,29,197,365,533,701,869,132,300,468,636,804,972,151,319,487,655,823,991,131,299,467,635,803,971,21,189,357,525,693,861,153,321,489,657,825,993,45,213,381,549,717,885,133,301,469,637,805,973,18,186,354,522,690,858,120,288,456,624,792,960,34,202,370,538,706,874,140,308,476,644,812,980,83,251,419,587,755,923,105,273,441,609,777,945
