\relax 
\providecommand*\caption@xref[2]{\@setref\relax\@undefined{#1}}
\newlabel{figGainResSh}{{1a}{}}
\newlabel{sub@figGainResSh}{{a}{}}
\newlabel{figGainEnPurch}{{1b}{}}
\newlabel{sub@figGainEnPurch}{{b}{}}
