\relax 
\providecommand*\caption@xref[2]{\@setref\relax\@undefined{#1}}
\newlabel{figGainResSh}{{1a}{}}
\newlabel{sub@figGainResSh}{{a}{}}
\newlabel{figGainEnPurch}{{1b}{}}
\newlabel{sub@figGainEnPurch}{{b}{}}
\@writefile{lof}{\contentsline {figure}{\numberline {1}{\ignorespaces With separate deviation, heuristic: order by increasing marginal contribution, with stability chooser\relax }}{}}
\@writefile{lof}{\contentsline {figure}{\numberline {2}{\ignorespaces GAIN, Interest vector length = 10\relax }}{}}
