8 1000 1 MarketBasedSizePenalizedEvaluationFunction RandomStrategy 3.108652480909E13 1.5543262404545E13 3.108652480909E13 2.39714532652E12 2.39714532652E12 2.39714532652E12 0.0 2 2 600000 1268 3.108652480909E13 0.0 0.0 No-deviation no-solution-selection
9 1000 1 MarketBasedSizePenalizedEvaluationFunction RandomStrategy 7.099425421339E13 4.5999212274551664E13 7.099425421339E13 7.88922690646E12 5.5193019297E12 8.19115602277E12 0.0 6 6 600000 3295 7.099425421339E13 0.0 0.0 No-deviation no-solution-selection
10 1000 1 MarketBasedSizePenalizedEvaluationFunction RandomStrategy 8.136370423388E13 6.347337250442455E13 8.871470777262E13 3.29362223836E12 5.163900973739E12 8.19115602277E12 0.0 11 11 600000 6384 8.871470777262E13 0.0 0.0 No-deviation no-solution-selection
11 1000 1 MarketBasedSizePenalizedEvaluationFunction RandomStrategy 1.0794648807471E14 7.544961256540812E13 1.1429210126988E14 7.17441815705E12 5.705652847920667E12 8.34757322073E12 0.0 16 16 600000 8973 1.1429210126988E14 0.0 0.0 No-deviation no-solution-selection
12 1000 1 MarketBasedSizePenalizedEvaluationFunction RandomStrategy 1.0834021698319E14 8.384248875303523E13 1.1562613971349E14 8.11632846753E12 6.140550278822E12 8.34757322073E12 0.0 21 21 600000 10630 1.1562613971349E14 0.0 0.0 No-deviation no-solution-selection
13 1000 1 MarketBasedSizePenalizedEvaluationFunction RandomStrategy 1.2546088427154E14 9.027235566137616E13 1.2546088427154E14 8.40177506286E12 6.4577940713176E12 1.144547990805E13 0.0 26 26 600000 12069 1.2546088427154E14 0.0 0.0 No-deviation no-solution-selection
14 1000 1 MarketBasedSizePenalizedEvaluationFunction RandomStrategy 1.3134917602222E14 9.524062885242612E13 1.3253026555924E14 8.24857070014E12 6.595829486412E12 1.144547990805E13 0.0 31 31 600000 12933 1.3253026555924E14 0.0 0.0 No-deviation no-solution-selection
22 1000 1 MarketBasedSizePenalizedEvaluationFunction MixedStrategy.CoalitionValueBasedStrategy.1.0RandomStrategy.1.0 1.6922921200681E14 8.4614606003405E13 1.6922921200681E14 9.25798969937E12 9.25798969937E12 9.25798969937E12 0.0 2 2 600000 26639 1.6922921200681E14 0.0 0.0 No-deviation no-solution-selection
1 1000 1 MarketBasedSizePenalizedEvaluationFunction CoalitionValueBasedStrategy 3.3121503644727E14 1.65607518223635E14 3.3121503644727E14 1.596237865022E13 1.596237865022E13 1.596237865022E13 0.0 2 2 600000 84348 3.3121503644727E14 0.0 0.0 No-deviation no-solution-selection
15 1000 1 MarketBasedSizePenalizedEvaluationFunction LocalSearchStrategy 3.3121503644727E14 1.65607518223635E14 3.3121503644727E14 1.596237865022E13 1.596237865022E13 1.596237865022E13 0.0 2 2 600000 84248 3.3121503644727E14 0.0 0.0 No-deviation no-solution-selection
23 1000 1 MarketBasedSizePenalizedEvaluationFunction MixedStrategy.CoalitionValueBasedStrategy.1.0RandomStrategy.1.0 2.4894062558659E14 1.8249956088761834E14 2.4894062558659E14 1.361226655644E13 1.2144055491534E13 1.414769886848E13 0.0 6 6 600000 144011 2.4894062558659E14 0.0 0.0 No-deviation no-solution-selection
29 1000 2 MarketBasedSizePenalizedEvaluationFunction CoalitionValueBasedStrategy 3.4905276214087E14 1.74526381070435E14 3.4905276214087E14 2.804913716136E13 2.804913716136E13 2.804913716136E13 0.0 2 2 600000 74392 3.4905276214087E14 0.0 0.0 No-deviation no-solution-selection
24 1000 1 MarketBasedSizePenalizedEvaluationFunction MixedStrategy.CoalitionValueBasedStrategy.1.0RandomStrategy.1.0 2.4296540911939E14 2.1300066999676362E14 2.670263875816E14 2.886029795491E13 1.5787326659928E13 2.886029795491E13 0.0 11 11 600000 317290 2.670263875816E14 0.0 0.0 No-deviation no-solution-selection
2 1000 1 MarketBasedSizePenalizedEvaluationFunction CoalitionValueBasedStrategy 3.621405070597E14 2.946542859713133E14 3.621405070597E14 2.678131095471E13 2.4403032799614E13 2.678131095471E13 0.0 6 6 600000 570481 3.621405070597E14 0.0 0.0 No-deviation no-solution-selection
16 1000 1 MarketBasedSizePenalizedEvaluationFunction LocalSearchStrategy 3.621405070597E14 2.946542859713133E14 3.621405070597E14 2.678131095471E13 2.4403032799614E13 2.678131095471E13 0.0 6 6 600000 572584 3.621405070597E14 0.0 0.0 No-deviation no-solution-selection
25 1000 1 MarketBasedSizePenalizedEvaluationFunction MixedStrategy.CoalitionValueBasedStrategy.1.0RandomStrategy.1.0 2.3369038478785E14 2.239688306661175E14 2.6747919946314E14 1.230717425254E13 1.5688506524997334E13 2.886029795491E13 0.0 16 16 600000 566355 2.6747919946314E14 0.0 0.0 No-deviation no-solution-selection
36 1000 2 MarketBasedSizePenalizedEvaluationFunction RandomStrategy 2.558897906489E13 1.2794489532445E13 2.558897906489E13 2.45752085942E12 2.45752085942E12 2.45752085942E12 0.0 2 2 600000 346 2.558897906489E13 0.0 0.0 No-deviation no-solution-selection
37 1000 2 MarketBasedSizePenalizedEvaluationFunction RandomStrategy 8.777447473952E13 4.8785613373836664E13 8.777447473952E13 7.08830680737E12 4.300147296822E12 7.08830680737E12 0.0 6 6 600000 874 8.777447473952E13 0.0 0.0 No-deviation no-solution-selection
38 1000 2 MarketBasedSizePenalizedEvaluationFunction RandomStrategy 9.870754531861E13 6.699367582419727E13 9.870754531861E13 6.97456984142E12 5.559187271284E12 7.08830680737E12 0.0 11 11 600000 1363 9.870754531861E13 0.0 0.0 No-deviation no-solution-selection
39 1000 2 MarketBasedSizePenalizedEvaluationFunction RandomStrategy 1.1375181886513E14 7.679044859853875E13 1.1375181886513E14 5.93537215228E12 5.440544325898E12 7.56580298213E12 0.0 16 16 600000 2179 1.1375181886513E14 0.0 0.0 No-deviation no-solution-selection
40 1000 2 MarketBasedSizePenalizedEvaluationFunction RandomStrategy 9.671590513995E13 8.413992784530095E13 1.1973001077346E14 5.2011534902E12 5.6973559524485E12 8.35138946882E12 0.0 21 21 600000 2484 1.1973001077346E14 0.0 0.0 No-deviation no-solution-selection
41 1000 2 MarketBasedSizePenalizedEvaluationFunction RandomStrategy 1.1823813509537E14 9.016900165863116E13 1.3398652206199E14 6.05042964655E12 5.788877851922E12 8.49390027559E12 0.0 26 26 600000 3011 1.3398652206199E14 0.0 0.0 No-deviation no-solution-selection
42 1000 2 MarketBasedSizePenalizedEvaluationFunction RandomStrategy 1.1705582590671E14 9.460812575090419E13 1.3398652206199E14 1.100002904979E13 6.479767200425333E12 1.220518656081E13 0.0 31 31 600000 3405 1.3398652206199E14 0.0 0.0 No-deviation no-solution-selection
43 1000 2 MarketBasedSizePenalizedEvaluationFunction LocalSearchStrategy 3.4905276214087E14 1.74526381070435E14 3.4905276214087E14 2.804913716136E13 2.804913716136E13 2.804913716136E13 0.0 2 2 600000 69314 3.4905276214087E14 0.0 0.0 No-deviation no-solution-selection
30 1000 2 MarketBasedSizePenalizedEvaluationFunction CoalitionValueBasedStrategy 3.7374244759349E14 3.053594475491067E14 3.7374244759349E14 3.041984038092E13 2.9078248612584E13 3.041984038092E13 0.0 6 6 600000 606548 3.7374244759349E14 0.0 0.0 No-deviation no-solution-selection
26 1000 1 MarketBasedSizePenalizedEvaluationFunction MixedStrategy.CoalitionValueBasedStrategy.1.0RandomStrategy.1.0 2.442659192538E14 2.3412378728102906E14 2.7702196838667E14 1.093546635863E13 1.5513280069328E13 2.886029795491E13 0.0 21 21 600000 778824 2.7702196838667E14 0.0 0.0 No-deviation no-solution-selection
27 1000 1 MarketBasedSizePenalizedEvaluationFunction MixedStrategy.CoalitionValueBasedStrategy.1.0RandomStrategy.1.0 2.5529391792105E14 2.3848553005707462E14 2.7702196838667E14 2.326891042902E13 1.59734873210844E13 2.886029795491E13 0.0 26 26 600000 933719 2.7702196838667E14 0.0 0.0 No-deviation no-solution-selection
28 1000 1 MarketBasedSizePenalizedEvaluationFunction MixedStrategy.CoalitionValueBasedStrategy.1.0RandomStrategy.1.0 2.692973970725E14 2.4305029932890806E14 2.7702196838667E14 2.457843684161E13 1.6655639834493334E13 2.886029795491E13 0.0 31 31 600000 1113993 2.7702196838667E14 0.0 0.0 No-deviation no-solution-selection
3 1000 1 MarketBasedSizePenalizedEvaluationFunction CoalitionValueBasedStrategy 3.6272680936881E14 3.255585645141418E14 3.6272680936881E14 2.678131095471E13 2.5591951375404E13 2.678131095471E13 0.0 11 11 600000 1194273 3.6272680936881E14 0.0 0.0 No-deviation no-solution-selection
17 1000 1 MarketBasedSizePenalizedEvaluationFunction LocalSearchStrategy 3.6272680936881E14 3.255585645141418E14 3.6272680936881E14 2.678131095471E13 2.5591951375404E13 2.678131095471E13 0.0 11 11 600000 1216383 3.6272680936881E14 0.0 0.0 No-deviation no-solution-selection
50 1000 2 MarketBasedSizePenalizedEvaluationFunction MixedStrategy.CoalitionValueBasedStrategy.1.0RandomStrategy.1.0 1.8753567048523E14 9.3767835242615E13 1.8753567048523E14 1.329315698914E13 1.329315698914E13 1.329315698914E13 0.0 2 2 600000 25682 1.8753567048523E14 0.0 0.0 No-deviation no-solution-selection
44 1000 2 MarketBasedSizePenalizedEvaluationFunction LocalSearchStrategy 3.7374244759349E14 3.053594475491067E14 3.7374244759349E14 3.041984038092E13 2.9078248612584E13 3.041984038092E13 0.0 6 6 600000 591291 3.7374244759349E14 0.0 0.0 No-deviation no-solution-selection
51 1000 2 MarketBasedSizePenalizedEvaluationFunction MixedStrategy.CoalitionValueBasedStrategy.1.0RandomStrategy.1.0 2.6347790239018E14 1.8497063955433E14 2.6347790239018E14 1.482098257338E13 1.2767575207042E13 1.482098257338E13 0.0 6 6 600000 137832 2.6347790239018E14 0.0 0.0 No-deviation no-solution-selection
52 1000 2 MarketBasedSizePenalizedEvaluationFunction MixedStrategy.CoalitionValueBasedStrategy.1.0RandomStrategy.1.0 2.4865904972251E14 2.1817103387082638E14 2.7193123478186E14 1.724682800761E13 1.5614489202009E13 2.297755757302E13 0.0 11 11 600000 307760 2.7193123478186E14 0.0 0.0 No-deviation no-solution-selection
31 1000 2 MarketBasedSizePenalizedEvaluationFunction CoalitionValueBasedStrategy 3.7472512640711E14 3.3683669637200906E14 3.7472512640711E14 2.983245425563E13 2.9548502620088E13 3.041984038092E13 0.0 11 11 600000 1519040 3.7472512640711E14 0.0 0.0 No-deviation no-solution-selection
53 1000 2 MarketBasedSizePenalizedEvaluationFunction MixedStrategy.CoalitionValueBasedStrategy.1.0RandomStrategy.1.0 2.5689739588194E14 2.3194341939718312E14 2.7193123478186E14 1.52069264744E13 1.572524470552E13 2.297755757302E13 0.0 16 16 600000 495146 2.7193123478186E14 0.0 0.0 No-deviation no-solution-selection
4 1000 1 MarketBasedSizePenalizedEvaluationFunction CoalitionValueBasedStrategy 3.6272874118591E14 3.371742275768206E14 3.6272874118591E14 2.678131095471E13 2.5988404568506E13 2.678131095471E13 0.0 16 16 600000 1935630 3.6272874118591E14 0.0 0.0 No-deviation no-solution-selection
57 1000 3 MarketBasedSizePenalizedEvaluationFunction CoalitionValueBasedStrategy 3.3053100235137E14 1.65265501175685E14 3.3053100235137E14 2.394035504708E13 2.394035504708E13 2.394035504708E13 0.0 2 2 600000 57925 3.3053100235137E14 0.0 0.0 No-deviation no-solution-selection
18 1000 1 MarketBasedSizePenalizedEvaluationFunction LocalSearchStrategy 3.6272874118591E14 3.371742275768206E14 3.6272874118591E14 2.678131095471E13 2.5988404568506E13 2.678131095471E13 0.0 16 16 600000 2085229 3.6272874118591E14 0.0 0.0 No-deviation no-solution-selection
45 1000 2 MarketBasedSizePenalizedEvaluationFunction LocalSearchStrategy 3.7472512640711E14 3.3683669637200906E14 3.7472512640711E14 2.983245425563E13 2.9548502620088E13 3.041984038092E13 0.0 11 11 600000 1540762 3.7472512640711E14 0.0 0.0 No-deviation no-solution-selection
54 1000 2 MarketBasedSizePenalizedEvaluationFunction MixedStrategy.CoalitionValueBasedStrategy.1.0RandomStrategy.1.0 2.5246134314047E14 2.377897223021919E14 2.7454699420069E14 1.793067037496E13 1.6065719780727E13 2.297755757302E13 0.0 21 21 600000 714677 2.7454699420069E14 0.0 0.0 No-deviation no-solution-selection
58 1000 3 MarketBasedSizePenalizedEvaluationFunction CoalitionValueBasedStrategy 3.6746923371104E14 2.9660126584706E14 3.6746923371104E14 2.226160571649E13 2.2597355582608E13 2.394035504708E13 0.0 6 6 600000 489519 3.6746923371104E14 0.0 0.0 No-deviation no-solution-selection
32 1000 2 MarketBasedSizePenalizedEvaluationFunction CoalitionValueBasedStrategy 3.7476954492805E14 3.486902293784394E14 3.7476954492805E14 2.980428743805E13 2.9636109654206E13 3.041984038092E13 0.0 16 16 600000 2354787 3.7476954492805E14 0.0 0.0 No-deviation no-solution-selection
5 1000 1 MarketBasedSizePenalizedEvaluationFunction CoalitionValueBasedStrategy 3.6272874118591E14 3.4325863557898475E14 3.6272874118591E14 2.678131095471E13 2.6186631165057E13 2.678131095471E13 0.0 21 21 600000 2588221 3.6272874118591E14 0.0 0.0 No-deviation no-solution-selection
64 1000 3 MarketBasedSizePenalizedEvaluationFunction RandomStrategy 3.946520288171E13 1.9732601440855E13 3.946520288171E13 6.93277629225E12 6.93277629225E12 6.93277629225E12 0.0 2 2 600000 457 3.946520288171E13 0.0 0.0 No-deviation no-solution-selection
65 1000 3 MarketBasedSizePenalizedEvaluationFunction RandomStrategy 8.62758430733E13 5.102694555316E13 8.62758430733E13 4.20051581714E12 4.616329805808E12 6.93277629225E12 0.0 6 6 600000 786 8.62758430733E13 0.0 0.0 No-deviation no-solution-selection
66 1000 3 MarketBasedSizePenalizedEvaluationFunction RandomStrategy 8.925799235753E13 6.732110298278909E13 1.0175467883172E14 5.20389587925E12 5.245038513397E12 7.95086700449E12 0.0 11 11 600000 1476 1.0175467883172E14 0.0 0.0 No-deviation no-solution-selection
67 1000 3 MarketBasedSizePenalizedEvaluationFunction RandomStrategy 9.673090491368E13 7.695028692038312E13 1.0380623881162E14 5.92728471928E12 5.159058365491333E12 7.95086700449E12 0.0 16 16 600000 2063 1.0380623881162E14 0.0 0.0 No-deviation no-solution-selection
68 1000 3 MarketBasedSizePenalizedEvaluationFunction RandomStrategy 1.0984792830153E14 8.394572809046953E13 1.0984792830153E14 7.38280105926E12 5.65154131419E12 7.95086700449E12 0.0 21 21 600000 2339 1.0984792830153E14 0.0 0.0 No-deviation no-solution-selection
69 1000 3 MarketBasedSizePenalizedEvaluationFunction RandomStrategy 1.2534631428239E14 9.094022392349192E13 1.2534631428239E14 7.88475929282E12 6.0794291572132E12 1.035586446961E13 0.0 26 26 600000 3193 1.2534631428239E14 0.0 0.0 No-deviation no-solution-selection
70 1000 3 MarketBasedSizePenalizedEvaluationFunction RandomStrategy 1.1449854667758E14 9.402375000536388E13 1.2534631428239E14 7.23439470801E12 6.259438437785667E12 1.035586446961E13 0.0 31 31 600000 3140 1.2534631428239E14 0.0 0.0 No-deviation no-solution-selection
71 1000 3 MarketBasedSizePenalizedEvaluationFunction LocalSearchStrategy 3.3053100235137E14 1.65265501175685E14 3.3053100235137E14 2.394035504708E13 2.394035504708E13 2.394035504708E13 0.0 2 2 600000 62363 3.3053100235137E14 0.0 0.0 No-deviation no-solution-selection
55 1000 2 MarketBasedSizePenalizedEvaluationFunction MixedStrategy.CoalitionValueBasedStrategy.1.0RandomStrategy.1.0 2.477538602205E14 2.425467868944E14 2.7857095436213E14 1.928524471804E13 1.68202525020432E13 2.297755757302E13 0.0 26 26 600000 1013742 2.7857095436213E14 0.0 0.0 No-deviation no-solution-selection
19 1000 1 MarketBasedSizePenalizedEvaluationFunction LocalSearchStrategy 3.6272874118591E14 3.4325863557898475E14 3.6272874118591E14 2.678131095471E13 2.6186631165057E13 2.678131095471E13 0.0 21 21 600000 2785318 3.6272874118591E14 0.0 0.0 No-deviation no-solution-selection
56 1000 2 MarketBasedSizePenalizedEvaluationFunction MixedStrategy.CoalitionValueBasedStrategy.1.0RandomStrategy.1.0 2.5090888481794E14 2.453574864409874E14 2.7857095436213E14 1.699111582732E13 1.6402349691242666E13 2.297755757302E13 0.0 31 31 600000 1112556 2.7857095436213E14 0.0 0.0 No-deviation no-solution-selection
46 1000 2 MarketBasedSizePenalizedEvaluationFunction LocalSearchStrategy 3.7476954492805E14 3.486902293784394E14 3.7476954492805E14 2.980428743805E13 2.9636109654206E13 3.041984038092E13 0.0 16 16 600000 2364978 3.7476954492805E14 0.0 0.0 No-deviation no-solution-selection
72 1000 3 MarketBasedSizePenalizedEvaluationFunction LocalSearchStrategy 3.6746923371104E14 2.9660126584706E14 3.6746923371104E14 2.226160571649E13 2.2597355582608E13 2.394035504708E13 0.0 6 6 600000 538941 3.6746923371104E14 0.0 0.0 No-deviation no-solution-selection
59 1000 3 MarketBasedSizePenalizedEvaluationFunction CoalitionValueBasedStrategy 3.6917198989374E14 3.2943112498287725E14 3.6917198989374E14 2.226160571649E13 2.2429480649549E13 2.394035504708E13 0.0 11 11 600000 1254513 3.6917198989374E14 0.0 0.0 No-deviation no-solution-selection
78 1000 3 MarketBasedSizePenalizedEvaluationFunction MixedStrategy.CoalitionValueBasedStrategy.1.0RandomStrategy.1.0 1.9883411549332E14 9.941705774666E13 1.9883411549332E14 1.187885777103E13 1.187885777103E13 1.187885777103E13 0.0 2 2 600000 22289 1.9883411549332E14 0.0 0.0 No-deviation no-solution-selection
6 1000 1 MarketBasedSizePenalizedEvaluationFunction CoalitionValueBasedStrategy 3.6272874118591E14 3.470028866572396E14 3.6272874118591E14 2.678131095471E13 2.63055671229876E13 2.678131095471E13 0.0 26 26 600000 3430998 3.6272874118591E14 0.0 0.0 No-deviation no-solution-selection
20 1000 1 MarketBasedSizePenalizedEvaluationFunction LocalSearchStrategy 3.6272874118591E14 3.470028866572396E14 3.6272874118591E14 2.678131095471E13 2.63055671229876E13 2.678131095471E13 0.0 26 26 600000 3462667 3.6272874118591E14 0.0 0.0 No-deviation no-solution-selection
79 1000 3 MarketBasedSizePenalizedEvaluationFunction MixedStrategy.CoalitionValueBasedStrategy.1.0RandomStrategy.1.0 2.5400374698671E14 1.9124021879239834E14 2.5400374698671E14 2.474386916692E13 1.7065594821106E13 2.474386916692E13 0.0 6 6 600000 131659 2.5400374698671E14 0.0 0.0 No-deviation no-solution-selection
33 1000 2 MarketBasedSizePenalizedEvaluationFunction CoalitionValueBasedStrategy 3.7476954492805E14 3.5489959022358475E14 3.7476954492805E14 2.980428743805E13 2.9678154100167E13 3.041984038092E13 0.0 21 21 600000 3371579 3.7476954492805E14 0.0 0.0 No-deviation no-solution-selection
80 1000 3 MarketBasedSizePenalizedEvaluationFunction MixedStrategy.CoalitionValueBasedStrategy.1.0RandomStrategy.1.0 2.5584867619506E14 2.1610906911813272E14 2.5584867619506E14 2.321377440872E13 1.9498000828862E13 2.49122229052E13 0.0 11 11 600000 317937 2.5584867619506E14 0.0 0.0 No-deviation no-solution-selection
73 1000 3 MarketBasedSizePenalizedEvaluationFunction LocalSearchStrategy 3.6917198989374E14 3.2943112498287725E14 3.6917198989374E14 2.226160571649E13 2.2429480649549E13 2.394035504708E13 0.0 11 11 600000 1245137 3.6917198989374E14 0.0 0.0 No-deviation no-solution-selection
81 1000 3 MarketBasedSizePenalizedEvaluationFunction MixedStrategy.CoalitionValueBasedStrategy.1.0RandomStrategy.1.0 2.7473170849722E14 2.3008482415994812E14 2.7542968705163E14 2.276657279191E13 1.9311794490106668E13 2.49122229052E13 0.0 16 16 600000 524853 2.7542968705163E14 0.0 0.0 No-deviation no-solution-selection
85 1000 4 MarketBasedSizePenalizedEvaluationFunction CoalitionValueBasedStrategy 3.2907200194084E14 1.6453600097042E14 3.2907200194084E14 1.197184245917E13 1.197184245917E13 1.197184245917E13 0.0 2 2 600000 57271 3.2907200194084E14 0.0 0.0 No-deviation no-solution-selection
21 1000 1 MarketBasedSizePenalizedEvaluationFunction LocalSearchStrategy 3.6272874118591E14 3.495393148070252E14 3.6272874118591E14 2.678131095471E13 2.6384857761608E13 2.678131095471E13 0.0 31 31 600000 4161409 3.6272874118591E14 0.0 0.0 No-deviation no-solution-selection
7 1000 1 MarketBasedSizePenalizedEvaluationFunction CoalitionValueBasedStrategy 3.6272874118591E14 3.495393148070252E14 3.6272874118591E14 2.678131095471E13 2.6384857761608E13 2.678131095471E13 0.0 31 31 600000 4175636 3.6272874118591E14 0.0 0.0 No-deviation no-solution-selection
60 1000 3 MarketBasedSizePenalizedEvaluationFunction CoalitionValueBasedStrategy 3.6919265271333E14 3.418556212503631E14 3.6919265271333E14 2.226160571649E13 2.2373522338529332E13 2.394035504708E13 0.0 16 16 600000 2018645 3.6919265271333E14 0.0 0.0 No-deviation no-solution-selection
82 1000 3 MarketBasedSizePenalizedEvaluationFunction MixedStrategy.CoalitionValueBasedStrategy.1.0RandomStrategy.1.0 2.7366994237089E14 2.4049913645541144E14 2.8451420467201E14 1.226599270514E13 1.9250512678439E13 2.49122229052E13 0.0 21 21 600000 757946 2.8451420467201E14 0.0 0.0 No-deviation no-solution-selection
47 1000 2 MarketBasedSizePenalizedEvaluationFunction LocalSearchStrategy 3.7476954492805E14 3.5489959022358475E14 3.7476954492805E14 2.980428743805E13 2.9678154100167E13 3.041984038092E13 0.0 21 21 600000 3331331 3.7476954492805E14 0.0 0.0 No-deviation no-solution-selection
92 1000 4 MarketBasedSizePenalizedEvaluationFunction RandomStrategy 2.47204226125E13 1.236021130625E13 2.47204226125E13 2.81347177782E12 2.81347177782E12 2.81347177782E12 0.0 2 2 600000 363 2.47204226125E13 0.0 0.0 No-deviation no-solution-selection
93 1000 4 MarketBasedSizePenalizedEvaluationFunction RandomStrategy 7.768639337416E13 4.6721107715061664E13 7.768639337416E13 6.20149590204E12 3.571567456128E12 6.20149590204E12 0.0 6 6 600000 764 7.768639337416E13 0.0 0.0 No-deviation no-solution-selection
94 1000 4 MarketBasedSizePenalizedEvaluationFunction RandomStrategy 8.916037955218E13 6.608797485421637E13 9.775116116578E13 5.58780716933E12 4.721434779879E12 6.9614202602E12 0.0 11 11 600000 1397 9.775116116578E13 0.0 0.0 No-deviation no-solution-selection
95 1000 4 MarketBasedSizePenalizedEvaluationFunction RandomStrategy 1.1278882656245E14 8.130033028854875E13 1.1733707096492E14 7.37044422243E12 6.035537312658E12 1.004693174683E13 0.0 16 16 600000 2151 1.1733707096492E14 0.0 0.0 No-deviation no-solution-selection
96 1000 4 MarketBasedSizePenalizedEvaluationFunction RandomStrategy 1.1345369602406E14 8.784085322517381E13 1.1880443154903E14 4.60610263218E12 6.2605866862935E12 1.083261863489E13 0.0 21 21 600000 2605 1.1880443154903E14 0.0 0.0 No-deviation no-solution-selection
97 1000 4 MarketBasedSizePenalizedEvaluationFunction RandomStrategy 1.1234736123866E14 9.228998920163616E13 1.2328632285195E14 6.87414339702E12 6.521585636628E12 1.083261863489E13 0.0 26 26 600000 3172 1.2328632285195E14 0.0 0.0 No-deviation no-solution-selection
98 1000 4 MarketBasedSizePenalizedEvaluationFunction RandomStrategy 1.1198591000856E14 9.54829297682671E13 1.2328632285195E14 6.93877028606E12 6.490241021564333E12 1.083261863489E13 0.0 31 31 600000 3344 1.2328632285195E14 0.0 0.0 No-deviation no-solution-selection
99 1000 4 MarketBasedSizePenalizedEvaluationFunction LocalSearchStrategy 3.2907200194084E14 1.6453600097042E14 3.2907200194084E14 1.197184245917E13 1.197184245917E13 1.197184245917E13 0.0 2 2 600000 56431 3.2907200194084E14 0.0 0.0 No-deviation no-solution-selection
86 1000 4 MarketBasedSizePenalizedEvaluationFunction CoalitionValueBasedStrategy 3.6429508047936E14 2.94170706421555E14 3.6429508047936E14 2.977695407652E13 2.4213463826484E13 2.992630751692E13 0.0 6 6 600000 484575 3.6429508047936E14 0.0 0.0 No-deviation no-solution-selection
83 1000 3 MarketBasedSizePenalizedEvaluationFunction MixedStrategy.CoalitionValueBasedStrategy.1.0RandomStrategy.1.0 2.8022174779691E14 2.439683474073523E14 2.8451420467201E14 2.517759283579E13 1.9238578551558E13 2.517759283579E13 0.0 26 26 600000 912394 2.8451420467201E14 0.0 0.0 No-deviation no-solution-selection
100 1000 4 MarketBasedSizePenalizedEvaluationFunction LocalSearchStrategy 3.6429508047936E14 2.94170706421555E14 3.6429508047936E14 2.977695407652E13 2.4213463826484E13 2.992630751692E13 0.0 6 6 600000 455752 3.6429508047936E14 0.0 0.0 No-deviation no-solution-selection
84 1000 3 MarketBasedSizePenalizedEvaluationFunction MixedStrategy.CoalitionValueBasedStrategy.1.0RandomStrategy.1.0 2.6398945598049E14 2.4689643714524484E14 2.8451420467201E14 1.972034545427E13 1.8810414261150332E13 2.517759283579E13 0.0 31 31 600000 1110151 2.8451420467201E14 0.0 0.0 No-deviation no-solution-selection
74 1000 3 MarketBasedSizePenalizedEvaluationFunction LocalSearchStrategy 3.6919265271333E14 3.418556212503631E14 3.6919265271333E14 2.226160571649E13 2.2373522338529332E13 2.394035504708E13 0.0 16 16 600000 2136583 3.6919265271333E14 0.0 0.0 No-deviation no-solution-selection
34 1000 2 MarketBasedSizePenalizedEvaluationFunction CoalitionValueBasedStrategy 3.7476954492805E14 3.587207353590589E14 3.7476954492805E14 2.980428743805E13 2.97033807677436E13 3.041984038092E13 0.0 26 26 600000 4452229 3.7476954492805E14 0.0 0.0 No-deviation no-solution-selection
106 1000 4 MarketBasedSizePenalizedEvaluationFunction MixedStrategy.CoalitionValueBasedStrategy.1.0RandomStrategy.1.0 1.8949653429201E14 9.4748267146005E13 1.8949653429201E14 1.03842689882E13 1.03842689882E13 1.03842689882E13 0.0 2 2 600000 23630 1.8949653429201E14 0.0 0.0 No-deviation no-solution-selection
87 1000 4 MarketBasedSizePenalizedEvaluationFunction CoalitionValueBasedStrategy 3.660499729021E14 3.2675768831688E14 3.660499729021E14 2.906232368002E13 2.66418123245E13 2.992630751692E13 0.0 11 11 600000 1080048 3.660499729021E14 0.0 0.0 No-deviation no-solution-selection
61 1000 3 MarketBasedSizePenalizedEvaluationFunction CoalitionValueBasedStrategy 3.6919265271333E14 3.4836443826535525E14 3.6919265271333E14 2.226160571649E13 2.23455431830195E13 2.394035504708E13 0.0 21 21 600000 2791011 3.6919265271333E14 0.0 0.0 No-deviation no-solution-selection
107 1000 4 MarketBasedSizePenalizedEvaluationFunction MixedStrategy.CoalitionValueBasedStrategy.1.0RandomStrategy.1.0 2.4311730415919E14 1.8491471542416834E14 2.4311730415919E14 1.383647009753E13 1.1906124933152E13 1.383647009753E13 0.0 6 6 600000 131181 2.4311730415919E14 0.0 0.0 No-deviation no-solution-selection
48 1000 2 MarketBasedSizePenalizedEvaluationFunction LocalSearchStrategy 3.7476954492805E14 3.587207353590589E14 3.7476954492805E14 2.980428743805E13 2.97033807677436E13 3.041984038092E13 0.0 26 26 600000 4192614 3.7476954492805E14 0.0 0.0 No-deviation no-solution-selection
108 1000 4 MarketBasedSizePenalizedEvaluationFunction MixedStrategy.CoalitionValueBasedStrategy.1.0RandomStrategy.1.0 2.6249499838707E14 2.1569145137066638E14 2.6249499838707E14 2.188974174771E13 1.4891256770767E13 2.323045453877E13 0.0 11 11 600000 355510 2.6249499838707E14 0.0 0.0 No-deviation no-solution-selection
109 1000 4 MarketBasedSizePenalizedEvaluationFunction MixedStrategy.CoalitionValueBasedStrategy.1.0RandomStrategy.1.0 2.7530109715887E14 2.3176438694085E14 2.7560062884742E14 1.901532743224E13 1.6753600059800666E13 2.528849696667E13 0.0 16 16 600000 519764 2.7560062884742E14 0.0 0.0 No-deviation no-solution-selection
35 1000 2 MarketBasedSizePenalizedEvaluationFunction CoalitionValueBasedStrategy 3.7476954492805E14 3.6130925303147675E14 3.7476954492805E14 2.980428743805E13 2.9720198546128E13 3.041984038092E13 0.0 31 31 600000 5069855 3.7476954492805E14 0.0 0.0 No-deviation no-solution-selection
101 1000 4 MarketBasedSizePenalizedEvaluationFunction LocalSearchStrategy 3.660499729021E14 3.2675768831688E14 3.660499729021E14 2.906232368002E13 2.66418123245E13 2.992630751692E13 0.0 11 11 600000 1177806 3.660499729021E14 0.0 0.0 No-deviation no-solution-selection
113 1000 5 MarketBasedSizePenalizedEvaluationFunction CoalitionValueBasedStrategy 3.3157497655783E14 1.65787488278915E14 3.3157497655783E14 2.34703385095E13 2.34703385095E13 2.34703385095E13 0.0 2 2 600000 74362 3.3157497655783E14 0.0 0.0 No-deviation no-solution-selection
75 1000 3 MarketBasedSizePenalizedEvaluationFunction LocalSearchStrategy 3.6919265271333E14 3.4836443826535525E14 3.6919265271333E14 2.226160571649E13 2.23455431830195E13 2.394035504708E13 0.0 21 21 600000 2824442 3.6919265271333E14 0.0 0.0 No-deviation no-solution-selection
110 1000 4 MarketBasedSizePenalizedEvaluationFunction MixedStrategy.CoalitionValueBasedStrategy.1.0RandomStrategy.1.0 2.5754558594043E14 2.3830341950207284E14 2.7560062884742E14 2.319329335552E13 1.7826658790087E13 2.528849696667E13 0.0 21 21 600000 693871 2.7560062884742E14 0.0 0.0 No-deviation no-solution-selection
88 1000 4 MarketBasedSizePenalizedEvaluationFunction CoalitionValueBasedStrategy 3.6605517700886E14 3.390380711407594E14 3.6605517700886E14 2.907017156845E13 2.7451265405816668E13 2.992630751692E13 0.0 16 16 600000 1830161 3.6605517700886E14 0.0 0.0 No-deviation no-solution-selection
114 1000 5 MarketBasedSizePenalizedEvaluationFunction CoalitionValueBasedStrategy 3.5697328637478E14 2.9154689764795E14 3.5697328637478E14 2.588937319634E13 2.5515489413342E13 2.616788760501E13 0.0 6 6 600000 547264 3.5697328637478E14 0.0 0.0 No-deviation no-solution-selection
120 1000 5 MarketBasedSizePenalizedEvaluationFunction RandomStrategy 3.399569433002E13 1.699784716501E13 3.399569433002E13 6.80053355717E12 6.80053355717E12 6.80053355717E12 0.0 2 2 600000 277 3.399569433002E13 0.0 0.0 No-deviation no-solution-selection
121 1000 5 MarketBasedSizePenalizedEvaluationFunction RandomStrategy 8.649830942566E13 5.2699848101065E13 8.649830942566E13 6.80400734633E12 6.27660143475E12 6.80400734633E12 0.0 6 6 600000 884 8.649830942566E13 0.0 0.0 No-deviation no-solution-selection
122 1000 5 MarketBasedSizePenalizedEvaluationFunction RandomStrategy 9.881210288638E13 6.571356013338091E13 9.881210288638E13 7.16660844409E12 5.59395563893E12 7.16660844409E12 0.0 11 11 600000 1350 9.881210288638E13 0.0 0.0 No-deviation no-solution-selection
123 1000 5 MarketBasedSizePenalizedEvaluationFunction RandomStrategy 9.921730247793E13 7.694600431495E13 1.0911063481554E14 4.49315481435E12 5.798609158213333E12 8.30259716113E12 0.0 16 16 600000 2208 1.0911063481554E14 0.0 0.0 No-deviation no-solution-selection
124 1000 5 MarketBasedSizePenalizedEvaluationFunction RandomStrategy 1.1740222374788E14 8.381440355798095E13 1.1740222374788E14 6.82614554273E12 5.992639013907E12 9.7171940504E12 0.0 21 21 600000 2761 1.1740222374788E14 0.0 0.0 No-deviation no-solution-selection
125 1000 5 MarketBasedSizePenalizedEvaluationFunction RandomStrategy 1.1868553897376E14 8.848745003669923E13 1.1868553897376E14 9.46182584802E12 6.325183625382E12 9.7171940504E12 0.0 26 26 600000 3224 1.1868553897376E14 0.0 0.0 No-deviation no-solution-selection
126 1000 5 MarketBasedSizePenalizedEvaluationFunction RandomStrategy 1.0605483399229E14 9.323403979896227E13 1.289451246817E14 5.85336232268E12 6.530558968094333E12 1.004885961902E13 0.0 31 31 600000 3803 1.289451246817E14 0.0 0.0 No-deviation no-solution-selection
49 1000 2 MarketBasedSizePenalizedEvaluationFunction LocalSearchStrategy 3.7476954492805E14 3.6130925303147675E14 3.7476954492805E14 2.980428743805E13 2.9720198546128E13 3.041984038092E13 0.0 31 31 600000 5046217 3.7476954492805E14 0.0 0.0 No-deviation no-solution-selection
62 1000 3 MarketBasedSizePenalizedEvaluationFunction CoalitionValueBasedStrategy 3.6919265271333E14 3.52369864120735E14 3.6919265271333E14 2.226160571649E13 2.23287556897136E13 2.394035504708E13 0.0 26 26 600000 3758854 3.6919265271333E14 0.0 0.0 No-deviation no-solution-selection
127 1000 5 MarketBasedSizePenalizedEvaluationFunction LocalSearchStrategy 3.3157497655783E14 1.65787488278915E14 3.3157497655783E14 2.34703385095E13 2.34703385095E13 2.34703385095E13 0.0 2 2 600000 76961 3.3157497655783E14 0.0 0.0 No-deviation no-solution-selection
111 1000 4 MarketBasedSizePenalizedEvaluationFunction MixedStrategy.CoalitionValueBasedStrategy.1.0RandomStrategy.1.0 2.5772642121524E14 2.429316759193427E14 2.7661655248635E14 1.395035904822E13 1.85353866347296E13 2.67404798161E13 0.0 26 26 600000 976863 2.7661655248635E14 0.0 0.0 No-deviation no-solution-selection
102 1000 4 MarketBasedSizePenalizedEvaluationFunction LocalSearchStrategy 3.6605517700886E14 3.390380711407594E14 3.6605517700886E14 2.907017156845E13 2.7451265405816668E13 2.992630751692E13 0.0 16 16 600000 1837571 3.6605517700886E14 0.0 0.0 No-deviation no-solution-selection
112 1000 4 MarketBasedSizePenalizedEvaluationFunction MixedStrategy.CoalitionValueBasedStrategy.1.0RandomStrategy.1.0 2.5266458821801E14 2.4480780752147484E14 2.7661655248635E14 1.601842453777E13 1.8838184407523E13 2.67404798161E13 0.0 31 31 600000 1150895 2.7661655248635E14 0.0 0.0 No-deviation no-solution-selection
89 1000 4 MarketBasedSizePenalizedEvaluationFunction CoalitionValueBasedStrategy 3.6605521983451E14 3.454707235523357E14 3.6605521983451E14 2.907017156845E13 2.7855991946475E13 2.992630751692E13 0.0 21 21 600000 2552552 3.6605521983451E14 0.0 0.0 No-deviation no-solution-selection
134 1000 5 MarketBasedSizePenalizedEvaluationFunction MixedStrategy.CoalitionValueBasedStrategy.1.0RandomStrategy.1.0 1.6920156769462E14 8.460078384731E13 1.6920156769462E14 1.239473602426E13 1.239473602426E13 1.239473602426E13 0.0 2 2 600000 22782 1.6920156769462E14 0.0 0.0 No-deviation no-solution-selection
128 1000 5 MarketBasedSizePenalizedEvaluationFunction LocalSearchStrategy 3.5697328637478E14 2.9154689764795E14 3.5697328637478E14 2.588937319634E13 2.5515489413342E13 2.616788760501E13 0.0 6 6 600000 565631 3.5697328637478E14 0.0 0.0 No-deviation no-solution-selection
115 1000 5 MarketBasedSizePenalizedEvaluationFunction CoalitionValueBasedStrategy 3.618640367558E14 3.224436495349264E14 3.618640367558E14 2.57967090649E13 2.5655676763586E13 2.616788760501E13 0.0 11 11 600000 1194374 3.618640367558E14 0.0 0.0 No-deviation no-solution-selection
76 1000 3 MarketBasedSizePenalizedEvaluationFunction LocalSearchStrategy 3.6919265271333E14 3.52369864120735E14 3.6919265271333E14 2.226160571649E13 2.23287556897136E13 2.394035504708E13 0.0 26 26 600000 3714091 3.6919265271333E14 0.0 0.0 No-deviation no-solution-selection
63 1000 3 MarketBasedSizePenalizedEvaluationFunction CoalitionValueBasedStrategy 3.6919265271333E14 3.550832171195406E14 3.6919265271333E14 2.226160571649E13 2.2317564027509668E13 2.394035504708E13 0.0 31 31 600000 4363084 3.6919265271333E14 0.0 0.0 No-deviation no-solution-selection
135 1000 5 MarketBasedSizePenalizedEvaluationFunction MixedStrategy.CoalitionValueBasedStrategy.1.0RandomStrategy.1.0 2.352847258407E14 1.8028269943579834E14 2.4969259767755E14 2.449952639321E13 1.5618804267638E13 2.449952639321E13 0.0 6 6 600000 137090 2.4969259767755E14 0.0 0.0 No-deviation no-solution-selection
90 1000 4 MarketBasedSizePenalizedEvaluationFunction CoalitionValueBasedStrategy 3.6605521983451E14 3.4942928052967694E14 3.6605521983451E14 2.907017156845E13 2.809882787087E13 2.992630751692E13 0.0 26 26 600000 2852113 3.6605521983451E14 0.0 0.0 No-deviation no-solution-selection
136 1000 5 MarketBasedSizePenalizedEvaluationFunction MixedStrategy.CoalitionValueBasedStrategy.1.0RandomStrategy.1.0 2.6141640294821E14 2.1465002509076638E14 2.6558394420084E14 1.356091674873E13 1.747747362653E13 2.449952639321E13 0.0 11 11 600000 315120 2.6558394420084E14 0.0 0.0 No-deviation no-solution-selection
141 1000 6 MarketBasedSizePenalizedEvaluationFunction CoalitionValueBasedStrategy 3.285992801361E14 1.6429964006805E14 3.285992801361E14 2.715228036333E13 2.715228036333E13 2.715228036333E13 0.0 2 2 600000 63074 3.285992801361E14 0.0 0.0 No-deviation no-solution-selection
103 1000 4 MarketBasedSizePenalizedEvaluationFunction LocalSearchStrategy 3.6605521983451E14 3.454707235523357E14 3.6605521983451E14 2.907017156845E13 2.7855991946475E13 2.992630751692E13 0.0 21 21 600000 2376536 3.6605521983451E14 0.0 0.0 No-deviation no-solution-selection
129 1000 5 MarketBasedSizePenalizedEvaluationFunction LocalSearchStrategy 3.618640367558E14 3.224436495349264E14 3.618640367558E14 2.57967090649E13 2.5655676763586E13 2.616788760501E13 0.0 11 11 600000 1105141 3.618640367558E14 0.0 0.0 No-deviation no-solution-selection
137 1000 5 MarketBasedSizePenalizedEvaluationFunction MixedStrategy.CoalitionValueBasedStrategy.1.0RandomStrategy.1.0 2.5566680991108E14 2.2698676615338E14 2.6558394420084E14 1.519127351118E13 1.6692881565109334E13 2.449952639321E13 0.0 16 16 600000 538750 2.6558394420084E14 0.0 0.0 No-deviation no-solution-selection
116 1000 5 MarketBasedSizePenalizedEvaluationFunction CoalitionValueBasedStrategy 3.6261834910197E14 3.34950320649215E14 3.6261834910197E14 2.633394125061E13 2.5845459896152668E13 2.633394125061E13 0.0 16 16 600000 1840828 3.6261834910197E14 0.0 0.0 No-deviation no-solution-selection
142 1000 6 MarketBasedSizePenalizedEvaluationFunction CoalitionValueBasedStrategy 3.6014947935755E14 2.923336283832067E14 3.6014947935755E14 3.116018145731E13 2.9872118709974E13 3.132488877661E13 0.0 6 6 600000 447997 3.6014947935755E14 0.0 0.0 No-deviation no-solution-selection
148 1000 6 MarketBasedSizePenalizedEvaluationFunction RandomStrategy 3.236727428365E13 1.6183637141825E13 3.236727428365E13 6.86436115281E12 6.86436115281E12 6.86436115281E12 0.0 2 2 600000 488 3.236727428365E13 0.0 0.0 No-deviation no-solution-selection
149 1000 6 MarketBasedSizePenalizedEvaluationFunction RandomStrategy 7.88815694874E13 4.9247437458455E13 7.88815694874E13 4.73055429937E12 6.473979136014E12 7.04588981791E12 0.0 6 6 600000 942 7.88815694874E13 0.0 0.0 No-deviation no-solution-selection
150 1000 6 MarketBasedSizePenalizedEvaluationFunction RandomStrategy 8.909569279827E13 6.732775514931273E13 1.008525233645E14 5.59004787659E12 6.061373209265E12 7.04588981791E12 0.0 11 11 600000 1526 1.008525233645E14 0.0 0.0 No-deviation no-solution-selection
151 1000 6 MarketBasedSizePenalizedEvaluationFunction RandomStrategy 1.0212116793692E14 7.713265127091438E13 1.0947893119275E14 6.69999610787E12 6.084226683622667E12 9.23298817258E12 0.0 16 16 600000 2180 1.0947893119275E14 0.0 0.0 No-deviation no-solution-selection
152 1000 6 MarketBasedSizePenalizedEvaluationFunction RandomStrategy 1.2178048626379E14 8.653985578740047E13 1.2639650465443E14 1.076401168161E13 6.5209429759095E12 1.076401168161E13 0.0 21 21 600000 2347 1.2639650465443E14 0.0 0.0 No-deviation no-solution-selection
153 1000 6 MarketBasedSizePenalizedEvaluationFunction RandomStrategy 1.1312308871268E14 9.195468453320692E13 1.2639650465443E14 6.47228500657E12 6.762030680208E12 1.076401168161E13 0.0 26 26 600000 2980 1.2639650465443E14 0.0 0.0 No-deviation no-solution-selection
154 1000 6 MarketBasedSizePenalizedEvaluationFunction RandomStrategy 1.3607911512573E14 9.683530701881227E13 1.3607911512573E14 1.16905592289E13 6.971203629357667E12 1.16905592289E13 0.0 31 31 600000 3543 1.3607911512573E14 0.0 0.0 No-deviation no-solution-selection
138 1000 5 MarketBasedSizePenalizedEvaluationFunction MixedStrategy.CoalitionValueBasedStrategy.1.0RandomStrategy.1.0 2.6108169147318E14 2.3347306402776047E14 2.6558394420084E14 1.455184323233E13 1.75021549477355E13 2.556073790065E13 0.0 21 21 600000 725985 2.6558394420084E14 0.0 0.0 No-deviation no-solution-selection
155 1000 6 MarketBasedSizePenalizedEvaluationFunction LocalSearchStrategy 3.285992801361E14 1.6429964006805E14 3.285992801361E14 2.715228036333E13 2.715228036333E13 2.715228036333E13 0.0 2 2 600000 58832 3.285992801361E14 0.0 0.0 No-deviation no-solution-selection
77 1000 3 MarketBasedSizePenalizedEvaluationFunction LocalSearchStrategy 3.6919265271333E14 3.550832171195406E14 3.6919265271333E14 2.226160571649E13 2.2317564027509668E13 2.394035504708E13 0.0 31 31 600000 4560610 3.6919265271333E14 0.0 0.0 No-deviation no-solution-selection
139 1000 5 MarketBasedSizePenalizedEvaluationFunction MixedStrategy.CoalitionValueBasedStrategy.1.0RandomStrategy.1.0 2.7945942134312E14 2.4000470095545538E14 2.7945942134312E14 2.352993601156E13 1.74579381624016E13 2.556073790065E13 0.0 26 26 600000 918684 2.7945942134312E14 0.0 0.0 No-deviation no-solution-selection
130 1000 5 MarketBasedSizePenalizedEvaluationFunction LocalSearchStrategy 3.6261834910197E14 3.34950320649215E14 3.6261834910197E14 2.633394125061E13 2.5845459896152668E13 2.633394125061E13 0.0 16 16 600000 1723150 3.6261834910197E14 0.0 0.0 No-deviation no-solution-selection
156 1000 6 MarketBasedSizePenalizedEvaluationFunction LocalSearchStrategy 3.6014947935755E14 2.923336283832067E14 3.6014947935755E14 3.116018145731E13 2.9872118709974E13 3.132488877661E13 0.0 6 6 600000 437339 3.6014947935755E14 0.0 0.0 No-deviation no-solution-selection
140 1000 5 MarketBasedSizePenalizedEvaluationFunction MixedStrategy.CoalitionValueBasedStrategy.1.0RandomStrategy.1.0 2.642288479748E14 2.441434567207129E14 2.814347698419E14 2.173367172584E13 1.764262427643E13 2.556073790065E13 0.0 31 31 600000 1152057 2.814347698419E14 0.0 0.0 No-deviation no-solution-selection
104 1000 4 MarketBasedSizePenalizedEvaluationFunction LocalSearchStrategy 3.6605521983451E14 3.4942928052967694E14 3.6605521983451E14 2.907017156845E13 2.809882787087E13 2.992630751692E13 0.0 26 26 600000 3204982 3.6605521983451E14 0.0 0.0 No-deviation no-solution-selection
162 1000 6 MarketBasedSizePenalizedEvaluationFunction MixedStrategy.CoalitionValueBasedStrategy.1.0RandomStrategy.1.0 1.8054179664194E14 9.027089832097E13 1.8054179664194E14 1.003341607106E13 1.003341607106E13 1.003341607106E13 0.0 2 2 600000 21052 1.8054179664194E14 0.0 0.0 No-deviation no-solution-selection
91 1000 4 MarketBasedSizePenalizedEvaluationFunction CoalitionValueBasedStrategy 3.6605521983451E14 3.521108836433597E14 3.6605521983451E14 2.907017156845E13 2.8260718487133332E13 2.992630751692E13 0.0 31 31 600000 3862347 3.6605521983451E14 0.0 0.0 No-deviation no-solution-selection
163 1000 6 MarketBasedSizePenalizedEvaluationFunction MixedStrategy.CoalitionValueBasedStrategy.1.0RandomStrategy.1.0 2.6604560879814E14 1.87267780943125E14 2.6604560879814E14 1.559208154305E13 1.7122944830598E13 2.288828683483E13 0.0 6 6 600000 145794 2.6604560879814E14 0.0 0.0 No-deviation no-solution-selection
164 1000 6 MarketBasedSizePenalizedEvaluationFunction MixedStrategy.CoalitionValueBasedStrategy.1.0RandomStrategy.1.0 2.5140384692881E14 2.1756050014463E14 2.6604560879814E14 1.305685552875E13 1.6189087047949E13 2.288828683483E13 0.0 11 11 600000 295568 2.6604560879814E14 0.0 0.0 No-deviation no-solution-selection
117 1000 5 MarketBasedSizePenalizedEvaluationFunction CoalitionValueBasedStrategy 3.6294175421053E14 3.4158283032992475E14 3.6294175421053E14 2.63265979897E13 2.59664787456305E13 2.633394125061E13 0.0 21 21 600000 2561033 3.6294175421053E14 0.0 0.0 No-deviation no-solution-selection
143 1000 6 MarketBasedSizePenalizedEvaluationFunction CoalitionValueBasedStrategy 3.6447250615111E14 3.246153055188518E14 3.6447250615111E14 3.031593902241E13 2.9839895235224E13 3.132488877661E13 0.0 11 11 600000 1222339 3.6447250615111E14 0.0 0.0 No-deviation no-solution-selection
169 1000 7 MarketBasedSizePenalizedEvaluationFunction CoalitionValueBasedStrategy 3.4640439993185E14 1.73202199965925E14 3.4640439993185E14 2.606927236656E13 2.606927236656E13 2.606927236656E13 0.0 2 2 600000 66481 3.4640439993185E14 0.0 0.0 No-deviation no-solution-selection
165 1000 6 MarketBasedSizePenalizedEvaluationFunction MixedStrategy.CoalitionValueBasedStrategy.1.0RandomStrategy.1.0 2.5463398025264E14 2.3155881848912438E14 2.7822210259625E14 1.576022515124E13 1.6655575202142666E13 2.540272465282E13 0.0 16 16 600000 504577 2.7822210259625E14 0.0 0.0 No-deviation no-solution-selection
131 1000 5 MarketBasedSizePenalizedEvaluationFunction LocalSearchStrategy 3.6294175421053E14 3.4158283032992475E14 3.6294175421053E14 2.63265979897E13 2.59664787456305E13 2.633394125061E13 0.0 21 21 600000 2356734 3.6294175421053E14 0.0 0.0 No-deviation no-solution-selection
105 1000 4 MarketBasedSizePenalizedEvaluationFunction LocalSearchStrategy 3.6605521983451E14 3.521108836433597E14 3.6605521983451E14 2.907017156845E13 2.8260718487133332E13 2.992630751692E13 0.0 31 31 600000 3840108 3.6605521983451E14 0.0 0.0 No-deviation no-solution-selection
157 1000 6 MarketBasedSizePenalizedEvaluationFunction LocalSearchStrategy 3.6447250615111E14 3.246153055188518E14 3.6447250615111E14 3.031593902241E13 2.9839895235224E13 3.132488877661E13 0.0 11 11 600000 1241711 3.6447250615111E14 0.0 0.0 No-deviation no-solution-selection
170 1000 7 MarketBasedSizePenalizedEvaluationFunction CoalitionValueBasedStrategy 3.7453263008677E14 3.052071347666417E14 3.7453263008677E14 3.108898239373E13 2.897280937968E13 3.108898239373E13 0.0 6 6 600000 507696 3.7453263008677E14 0.0 0.0 No-deviation no-solution-selection
166 1000 6 MarketBasedSizePenalizedEvaluationFunction MixedStrategy.CoalitionValueBasedStrategy.1.0RandomStrategy.1.0 2.6109892319707E14 2.3709840965523525E14 2.7822210259625E14 1.428114072233E13 1.65444059375095E13 2.540272465282E13 0.0 21 21 600000 771667 2.7822210259625E14 0.0 0.0 No-deviation no-solution-selection
176 1000 7 MarketBasedSizePenalizedEvaluationFunction RandomStrategy 2.51137504928E13 1.25568752464E13 2.51137504928E13 1.78883067017E12 1.78883067017E12 1.78883067017E12 0.0 2 2 600000 326 2.51137504928E13 0.0 0.0 No-deviation no-solution-selection
177 1000 7 MarketBasedSizePenalizedEvaluationFunction RandomStrategy 7.544495089009E13 4.5785141855403336E13 7.544495089009E13 3.96849453166E12 3.228414349734E12 3.96849453166E12 0.0 6 6 600000 856 7.544495089009E13 0.0 0.0 No-deviation no-solution-selection
178 1000 7 MarketBasedSizePenalizedEvaluationFunction RandomStrategy 8.932343006231E13 6.347311175295182E13 9.168026648708E13 5.229947542E12 4.573328729765E12 9.23721992335E12 0.0 11 11 600000 1639 9.168026648708E13 0.0 0.0 No-deviation no-solution-selection
179 1000 7 MarketBasedSizePenalizedEvaluationFunction RandomStrategy 9.834492582115E13 7.540101851283375E13 1.1085882060235E14 3.14946680952E12 4.992107289561333E12 9.23721992335E12 0.0 16 16 600000 1985 1.1085882060235E14 0.0 0.0 No-deviation no-solution-selection
180 1000 7 MarketBasedSizePenalizedEvaluationFunction RandomStrategy 1.0656635044448E14 8.170461265962E13 1.1085882060235E14 6.12947488645E12 5.400472842457E12 9.23721992335E12 0.0 21 21 600000 2647 1.1085882060235E14 0.0 0.0 No-deviation no-solution-selection
181 1000 7 MarketBasedSizePenalizedEvaluationFunction RandomStrategy 1.0966986910928E14 8.699828967734E13 1.1473225073946E14 4.23852508336E12 5.3304868286616E12 9.23721992335E12 0.0 26 26 600000 2921 1.1473225073946E14 0.0 0.0 No-deviation no-solution-selection
182 1000 7 MarketBasedSizePenalizedEvaluationFunction RandomStrategy 1.3289910988928E14 9.172229251327936E13 1.3289910988928E14 6.75462124094E12 5.462454814083E12 9.23721992335E12 0.0 31 31 600000 3735 1.3289910988928E14 0.0 0.0 No-deviation no-solution-selection
183 1000 7 MarketBasedSizePenalizedEvaluationFunction LocalSearchStrategy 3.4640439993185E14 1.73202199965925E14 3.4640439993185E14 2.606927236656E13 2.606927236656E13 2.606927236656E13 0.0 2 2 600000 65033 3.4640439993185E14 0.0 0.0 No-deviation no-solution-selection
118 1000 5 MarketBasedSizePenalizedEvaluationFunction CoalitionValueBasedStrategy 3.6294189270561E14 3.4569033254549344E14 3.6294189270561E14 2.63265979897E13 2.60385025944444E13 2.633394125061E13 0.0 26 26 600000 3326438 3.6294189270561E14 0.0 0.0 No-deviation no-solution-selection
144 1000 6 MarketBasedSizePenalizedEvaluationFunction CoalitionValueBasedStrategy 3.6450403117327E14 3.370784639839256E14 3.6450403117327E14 3.031593902241E13 2.9998696889188668E13 3.132488877661E13 0.0 16 16 600000 2101695 3.6450403117327E14 0.0 0.0 No-deviation no-solution-selection
167 1000 6 MarketBasedSizePenalizedEvaluationFunction MixedStrategy.CoalitionValueBasedStrategy.1.0RandomStrategy.1.0 2.7130484109718E14 2.4289321822654694E14 2.7822210259625E14 2.257491904729E13 1.72669964504564E13 2.540272465282E13 0.0 26 26 600000 993174 2.7822210259625E14 0.0 0.0 No-deviation no-solution-selection
132 1000 5 MarketBasedSizePenalizedEvaluationFunction LocalSearchStrategy 3.6294189270561E14 3.4569033254549344E14 3.6294189270561E14 2.63265979897E13 2.60385025944444E13 2.633394125061E13 0.0 26 26 600000 3006086 3.6294189270561E14 0.0 0.0 No-deviation no-solution-selection
184 1000 7 MarketBasedSizePenalizedEvaluationFunction LocalSearchStrategy 3.7453263008677E14 3.052071347666417E14 3.7453263008677E14 3.108898239373E13 2.897280937968E13 3.108898239373E13 0.0 6 6 600000 512876 3.7453263008677E14 0.0 0.0 No-deviation no-solution-selection
168 1000 6 MarketBasedSizePenalizedEvaluationFunction MixedStrategy.CoalitionValueBasedStrategy.1.0RandomStrategy.1.0 2.699549218783E14 2.4525497206361162E14 2.7822210259625E14 1.484989346718E13 1.6904375498297334E13 2.540272465282E13 0.0 31 31 600000 1221768 2.7822210259625E14 0.0 0.0 No-deviation no-solution-selection
190 1000 7 MarketBasedSizePenalizedEvaluationFunction MixedStrategy.CoalitionValueBasedStrategy.1.0RandomStrategy.1.0 1.5424900225241E14 7.7124501126205E13 1.5424900225241E14 7.45056179613E12 7.45056179613E12 7.45056179613E12 0.0 2 2 600000 23016 1.5424900225241E14 0.0 0.0 No-deviation no-solution-selection
119 1000 5 MarketBasedSizePenalizedEvaluationFunction CoalitionValueBasedStrategy 3.6294189270561E14 3.4847284224873806E14 3.6294189270561E14 2.63265979897E13 2.6086518493653668E13 2.633394125061E13 0.0 31 31 600000 3710753 3.6294189270561E14 0.0 0.0 No-deviation no-solution-selection
191 1000 7 MarketBasedSizePenalizedEvaluationFunction MixedStrategy.CoalitionValueBasedStrategy.1.0RandomStrategy.1.0 2.3759974413101E14 1.7691594576217834E14 2.3759974413101E14 1.10955363898E13 1.4590215862128E13 2.55554677053E13 0.0 6 6 600000 135277 2.3759974413101E14 0.0 0.0 No-deviation no-solution-selection
158 1000 6 MarketBasedSizePenalizedEvaluationFunction LocalSearchStrategy 3.6450403117327E14 3.370784639839256E14 3.6450403117327E14 3.031593902241E13 2.9998696889188668E13 3.132488877661E13 0.0 16 16 600000 2119122 3.6450403117327E14 0.0 0.0 No-deviation no-solution-selection
171 1000 7 MarketBasedSizePenalizedEvaluationFunction CoalitionValueBasedStrategy 3.7502014622954E14 3.369025547096264E14 3.7502014622954E14 3.104765711746E13 3.0015642686177E13 3.108923618405E13 0.0 11 11 600000 1301440 3.7502014622954E14 0.0 0.0 No-deviation no-solution-selection
192 1000 7 MarketBasedSizePenalizedEvaluationFunction MixedStrategy.CoalitionValueBasedStrategy.1.0RandomStrategy.1.0 2.6277458973935E14 2.129712152909809E14 2.6890498992891E14 2.462813762638E13 1.7901595838878E13 2.643921143638E13 0.0 11 11 600000 341395 2.6890498992891E14 0.0 0.0 No-deviation no-solution-selection
145 1000 6 MarketBasedSizePenalizedEvaluationFunction CoalitionValueBasedStrategy 3.6450403117327E14 3.436083609337695E14 3.6450403117327E14 3.031593902241E13 3.0078007422494E13 3.132488877661E13 0.0 21 21 600000 2784249 3.6450403117327E14 0.0 0.0 No-deviation no-solution-selection
197 1000 8 MarketBasedSizePenalizedEvaluationFunction CoalitionValueBasedStrategy 3.341601704165E14 1.6708008520825E14 3.341601704165E14 2.401280641874E13 2.401280641874E13 2.401280641874E13 0.0 2 2 600000 57947 3.341601704165E14 0.0 0.0 No-deviation no-solution-selection
193 1000 7 MarketBasedSizePenalizedEvaluationFunction MixedStrategy.CoalitionValueBasedStrategy.1.0RandomStrategy.1.0 2.5431782322341E14 2.2536962390991938E14 2.7673855123036E14 1.73690783539E13 1.8058540893998E13 2.643921143638E13 0.0 16 16 600000 517937 2.7673855123036E14 0.0 0.0 No-deviation no-solution-selection
185 1000 7 MarketBasedSizePenalizedEvaluationFunction LocalSearchStrategy 3.7502014622954E14 3.369025547096264E14 3.7502014622954E14 3.104765711746E13 3.0015642686177E13 3.108923618405E13 0.0 11 11 600000 1289137 3.7502014622954E14 0.0 0.0 No-deviation no-solution-selection
133 1000 5 MarketBasedSizePenalizedEvaluationFunction LocalSearchStrategy 3.6294189270561E14 3.4847284224873806E14 3.6294189270561E14 2.63265979897E13 2.6086518493653668E13 2.633394125061E13 0.0 31 31 600000 3957076 3.6294189270561E14 0.0 0.0 No-deviation no-solution-selection
194 1000 7 MarketBasedSizePenalizedEvaluationFunction MixedStrategy.CoalitionValueBasedStrategy.1.0RandomStrategy.1.0 2.7063783623275E14 2.346403381575081E14 2.940817818068E14 1.87791548128E13 1.90892776048835E13 2.754541730772E13 0.0 21 21 600000 722293 2.940817818068E14 0.0 0.0 No-deviation no-solution-selection
198 1000 8 MarketBasedSizePenalizedEvaluationFunction CoalitionValueBasedStrategy 3.6006926483178E14 2.9293066193726E14 3.6006926483178E14 2.729062752254E13 2.6107737265924E13 2.729062752254E13 0.0 6 6 600000 492594 3.6006926483178E14 0.0 0.0 No-deviation no-solution-selection
159 1000 6 MarketBasedSizePenalizedEvaluationFunction LocalSearchStrategy 3.6450403117327E14 3.436083609337695E14 3.6450403117327E14 3.031593902241E13 3.0078007422494E13 3.132488877661E13 0.0 21 21 600000 2897203 3.6450403117327E14 0.0 0.0 No-deviation no-solution-selection
204 1000 8 MarketBasedSizePenalizedEvaluationFunction RandomStrategy 2.016790866784E13 1.008395433392E13 2.016790866784E13 1.18117660051E12 1.18117660051E12 1.18117660051E12 0.0 2 2 600000 336 2.016790866784E13 0.0 0.0 No-deviation no-solution-selection
205 1000 8 MarketBasedSizePenalizedEvaluationFunction RandomStrategy 7.807194189311E13 4.3017051077696664E13 7.807194189311E13 4.03245575369E12 2.753207120764E12 4.03245575369E12 0.0 6 6 600000 771 7.807194189311E13 0.0 0.0 No-deviation no-solution-selection
206 1000 8 MarketBasedSizePenalizedEvaluationFunction RandomStrategy 9.541170068593E13 6.389857381465E13 9.860586535893E13 5.88747228076E12 4.223075575159E12 8.69800845606E12 0.0 11 11 600000 1452 9.860586535893E13 0.0 0.0 No-deviation no-solution-selection
207 1000 8 MarketBasedSizePenalizedEvaluationFunction RandomStrategy 1.164388906763E14 7.781582296600625E13 1.164388906763E14 7.59075876655E12 5.593154597946E12 1.215472739601E13 0.0 16 16 600000 2349 1.164388906763E14 0.0 0.0 No-deviation no-solution-selection
208 1000 8 MarketBasedSizePenalizedEvaluationFunction RandomStrategy 1.0298533431346E14 8.593108432657047E13 1.2222606823124E14 6.98095834069E12 5.870978853352E12 1.215472739601E13 0.0 21 21 600000 2574 1.2222606823124E14 0.0 0.0 No-deviation no-solution-selection
209 1000 8 MarketBasedSizePenalizedEvaluationFunction RandomStrategy 1.1254557178475E14 8.976390390267269E13 1.2222606823124E14 6.03307176118E12 5.8465467165988E12 1.215472739601E13 0.0 26 26 600000 2843 1.2222606823124E14 0.0 0.0 No-deviation no-solution-selection
210 1000 8 MarketBasedSizePenalizedEvaluationFunction RandomStrategy 1.2171050484326E14 9.492297078437227E13 1.289112919441E14 6.24502120908E12 6.279963749614333E12 1.215472739601E13 0.0 31 31 600000 3858 1.289112919441E14 0.0 0.0 No-deviation no-solution-selection
211 1000 8 MarketBasedSizePenalizedEvaluationFunction LocalSearchStrategy 3.341601704165E14 1.6708008520825E14 3.341601704165E14 2.401280641874E13 2.401280641874E13 2.401280641874E13 0.0 2 2 600000 54640 3.341601704165E14 0.0 0.0 No-deviation no-solution-selection
172 1000 7 MarketBasedSizePenalizedEvaluationFunction CoalitionValueBasedStrategy 3.7503098370122E14 3.488172696355169E14 3.7503098370122E14 3.104745721726E13 3.0359580863204668E13 3.108923618405E13 0.0 16 16 600000 2101071 3.7503098370122E14 0.0 0.0 No-deviation no-solution-selection
195 1000 7 MarketBasedSizePenalizedEvaluationFunction MixedStrategy.CoalitionValueBasedStrategy.1.0RandomStrategy.1.0 2.5675950343946E14 2.392947485897677E14 2.940817818068E14 1.555563776817E13 1.91485579675856E13 2.754541730772E13 0.0 26 26 600000 925045 2.940817818068E14 0.0 0.0 No-deviation no-solution-selection
146 1000 6 MarketBasedSizePenalizedEvaluationFunction CoalitionValueBasedStrategy 3.6450403117327E14 3.476267590567504E14 3.6450403117327E14 3.031593902241E13 3.01255937424772E13 3.132488877661E13 0.0 26 26 600000 3745946 3.6450403117327E14 0.0 0.0 No-deviation no-solution-selection
196 1000 7 MarketBasedSizePenalizedEvaluationFunction MixedStrategy.CoalitionValueBasedStrategy.1.0RandomStrategy.1.0 2.6119635574648E14 2.4227727514212066E14 2.940817818068E14 2.103313145452E13 1.8591865719748668E13 2.754541730772E13 0.0 31 31 600000 1118324 2.940817818068E14 0.0 0.0 No-deviation no-solution-selection
186 1000 7 MarketBasedSizePenalizedEvaluationFunction LocalSearchStrategy 3.7503098370122E14 3.488172696355169E14 3.7503098370122E14 3.104745721726E13 3.0359580863204668E13 3.108923618405E13 0.0 16 16 600000 1984228 3.7503098370122E14 0.0 0.0 No-deviation no-solution-selection
212 1000 8 MarketBasedSizePenalizedEvaluationFunction LocalSearchStrategy 3.6006926483178E14 2.9293066193726E14 3.6006926483178E14 2.729062752254E13 2.6107737265924E13 2.729062752254E13 0.0 6 6 600000 540482 3.6006926483178E14 0.0 0.0 No-deviation no-solution-selection
218 1000 8 MarketBasedSizePenalizedEvaluationFunction MixedStrategy.CoalitionValueBasedStrategy.1.0RandomStrategy.1.0 1.8911714509595E14 9.4558572547975E13 1.8911714509595E14 1.405545763067E13 1.405545763067E13 1.405545763067E13 0.0 2 2 600000 23123 1.8911714509595E14 0.0 0.0 No-deviation no-solution-selection
219 1000 8 MarketBasedSizePenalizedEvaluationFunction MixedStrategy.CoalitionValueBasedStrategy.1.0RandomStrategy.1.0 2.4312632518019E14 1.8649098461775E14 2.4312632518019E14 1.247180026971E13 1.2209698074664E13 1.405545763067E13 0.0 6 6 600000 147073 2.4312632518019E14 0.0 0.0 No-deviation no-solution-selection
199 1000 8 MarketBasedSizePenalizedEvaluationFunction CoalitionValueBasedStrategy 3.6194359160419E14 3.2412120748261094E14 3.6194359160419E14 2.722598205505E13 2.6673582494454E13 2.730220356283E13 0.0 11 11 600000 1309985 3.6194359160419E14 0.0 0.0 No-deviation no-solution-selection
173 1000 7 MarketBasedSizePenalizedEvaluationFunction CoalitionValueBasedStrategy 3.7503102068816E14 3.5505863893376525E14 3.7503102068816E14 3.104745721726E13 3.05315499517185E13 3.108923618405E13 0.0 21 21 600000 2903121 3.7503102068816E14 0.0 0.0 No-deviation no-solution-selection
220 1000 8 MarketBasedSizePenalizedEvaluationFunction MixedStrategy.CoalitionValueBasedStrategy.1.0RandomStrategy.1.0 2.4054725415152E14 2.0811287993357272E14 2.4444801009734E14 1.676733489109E13 1.2765583610685E13 1.676733489109E13 0.0 11 11 600000 295138 2.4444801009734E14 0.0 0.0 No-deviation no-solution-selection
160 1000 6 MarketBasedSizePenalizedEvaluationFunction LocalSearchStrategy 3.6450403117327E14 3.476267590567504E14 3.6450403117327E14 3.031593902241E13 3.01255937424772E13 3.132488877661E13 0.0 26 26 600000 3942504 3.6450403117327E14 0.0 0.0 No-deviation no-solution-selection
147 1000 6 MarketBasedSizePenalizedEvaluationFunction CoalitionValueBasedStrategy 3.6450403117327E14 3.503488997207052E14 3.6450403117327E14 3.031593902241E13 3.0157317955799332E13 3.132488877661E13 0.0 31 31 600000 4440830 3.6450403117327E14 0.0 0.0 No-deviation no-solution-selection
225 1000 9 MarketBasedSizePenalizedEvaluationFunction CoalitionValueBasedStrategy 3.3590728430896E14 1.6795364215448E14 3.3590728430896E14 2.627531231003E13 2.627531231003E13 2.627531231003E13 0.0 2 2 600000 67387 3.3590728430896E14 0.0 0.0 No-deviation no-solution-selection
213 1000 8 MarketBasedSizePenalizedEvaluationFunction LocalSearchStrategy 3.6194359160419E14 3.2412120748261094E14 3.6194359160419E14 2.722598205505E13 2.6673582494454E13 2.730220356283E13 0.0 11 11 600000 1277336 3.6194359160419E14 0.0 0.0 No-deviation no-solution-selection
221 1000 8 MarketBasedSizePenalizedEvaluationFunction MixedStrategy.CoalitionValueBasedStrategy.1.0RandomStrategy.1.0 2.461912537008E14 2.2326577925288312E14 2.665592051285E14 2.063171003136E13 1.5798378350492666E13 2.713479009659E13 0.0 16 16 600000 480910 2.665592051285E14 0.0 0.0 No-deviation no-solution-selection
187 1000 7 MarketBasedSizePenalizedEvaluationFunction LocalSearchStrategy 3.7503102068816E14 3.5505863893376525E14 3.7503102068816E14 3.104745721726E13 3.05315499517185E13 3.108923618405E13 0.0 21 21 600000 2889946 3.7503102068816E14 0.0 0.0 No-deviation no-solution-selection
222 1000 8 MarketBasedSizePenalizedEvaluationFunction MixedStrategy.CoalitionValueBasedStrategy.1.0RandomStrategy.1.0 2.5630557193806E14 2.3056089645974666E14 2.665592051285E14 1.204360927319E13 1.575057685434E13 2.713479009659E13 0.0 21 21 600000 753614 2.665592051285E14 0.0 0.0 No-deviation no-solution-selection
200 1000 8 MarketBasedSizePenalizedEvaluationFunction CoalitionValueBasedStrategy 3.6194734901335E14 3.3594183041583375E14 3.6194734901335E14 2.722598205505E13 2.6857715681319332E13 2.730220356283E13 0.0 16 16 600000 1990312 3.6194734901335E14 0.0 0.0 No-deviation no-solution-selection
226 1000 9 MarketBasedSizePenalizedEvaluationFunction CoalitionValueBasedStrategy 3.6083867328813E14 2.947062514989767E14 3.6083867328813E14 2.490611042E13 2.5155393079648E13 2.627531231003E13 0.0 6 6 600000 484595 3.6083867328813E14 0.0 0.0 No-deviation no-solution-selection
232 1000 9 MarketBasedSizePenalizedEvaluationFunction RandomStrategy 2.574870237269E13 1.2874351186345E13 2.574870237269E13 2.33843775255E12 2.33843775255E12 2.33843775255E12 0.0 2 2 600000 334 2.574870237269E13 0.0 0.0 No-deviation no-solution-selection
233 1000 9 MarketBasedSizePenalizedEvaluationFunction RandomStrategy 9.84474648006E13 4.9626246557455E13 9.84474648006E13 7.55713809922E12 4.853077038616E12 8.25267586345E12 0.0 6 6 600000 815 9.84474648006E13 0.0 0.0 No-deviation no-solution-selection
234 1000 9 MarketBasedSizePenalizedEvaluationFunction RandomStrategy 1.0412386081483E14 6.758132922256273E13 1.0412386081483E14 9.20410637027E12 6.210643612869E12 9.20410637027E12 0.0 11 11 600000 1530 1.0412386081483E14 0.0 0.0 No-deviation no-solution-selection
235 1000 9 MarketBasedSizePenalizedEvaluationFunction RandomStrategy 1.1108461336341E14 7.607019769830438E13 1.1108461336341E14 8.76405695798E12 6.288123671644E12 1.206469816326E13 0.0 16 16 600000 2272 1.1108461336341E14 0.0 0.0 No-deviation no-solution-selection
236 1000 9 MarketBasedSizePenalizedEvaluationFunction RandomStrategy 1.0724512777234E14 8.46963967947119E13 1.2534400972908E14 6.45374599925E12 6.43458095607E12 1.206469816326E13 0.0 21 21 600000 2605 1.2534400972908E14 0.0 0.0 No-deviation no-solution-selection
237 1000 9 MarketBasedSizePenalizedEvaluationFunction RandomStrategy 1.1174335739656E14 9.001681195193039E13 1.2534400972908E14 9.01391102293E12 6.9229269296516E12 1.206469816326E13 0.0 26 26 600000 3130 1.2534400972908E14 0.0 0.0 No-deviation no-solution-selection
238 1000 9 MarketBasedSizePenalizedEvaluationFunction RandomStrategy 1.2405412911792E14 9.57053453902813E13 1.3623421549314E14 8.63577572047E12 7.118977407542E12 1.433954845927E13 0.0 31 31 600000 3366 1.3623421549314E14 0.0 0.0 No-deviation no-solution-selection
174 1000 7 MarketBasedSizePenalizedEvaluationFunction CoalitionValueBasedStrategy 3.7503102068816E14 3.588994815788411E14 3.7503102068816E14 3.104745721726E13 3.06347314048268E13 3.108923618405E13 0.0 26 26 600000 3654148 3.7503102068816E14 0.0 0.0 No-deviation no-solution-selection
239 1000 9 MarketBasedSizePenalizedEvaluationFunction LocalSearchStrategy 3.3590728430896E14 1.6795364215448E14 3.3590728430896E14 2.627531231003E13 2.627531231003E13 2.627531231003E13 0.0 2 2 600000 64651 3.3590728430896E14 0.0 0.0 No-deviation no-solution-selection
161 1000 6 MarketBasedSizePenalizedEvaluationFunction LocalSearchStrategy 3.6450403117327E14 3.503488997207052E14 3.6450403117327E14 3.031593902241E13 3.0157317955799332E13 3.132488877661E13 0.0 31 31 600000 4670429 3.6450403117327E14 0.0 0.0 No-deviation no-solution-selection
223 1000 8 MarketBasedSizePenalizedEvaluationFunction MixedStrategy.CoalitionValueBasedStrategy.1.0RandomStrategy.1.0 2.6588044555221E14 2.3591376419480616E14 2.665592051285E14 1.613932015251E13 1.55361750818652E13 2.713479009659E13 0.0 26 26 600000 942375 2.665592051285E14 0.0 0.0 No-deviation no-solution-selection
188 1000 7 MarketBasedSizePenalizedEvaluationFunction LocalSearchStrategy 3.7503102068816E14 3.588994815788411E14 3.7503102068816E14 3.104745721726E13 3.06347314048268E13 3.108923618405E13 0.0 26 26 600000 3487297 3.7503102068816E14 0.0 0.0 No-deviation no-solution-selection
214 1000 8 MarketBasedSizePenalizedEvaluationFunction LocalSearchStrategy 3.6194734901335E14 3.3594183041583375E14 3.6194734901335E14 2.722598205505E13 2.6857715681319332E13 2.730220356283E13 0.0 16 16 600000 2144203 3.6194734901335E14 0.0 0.0 No-deviation no-solution-selection
240 1000 9 MarketBasedSizePenalizedEvaluationFunction LocalSearchStrategy 3.6083867328813E14 2.947062514989767E14 3.6083867328813E14 2.490611042E13 2.5155393079648E13 2.627531231003E13 0.0 6 6 600000 447934 3.6083867328813E14 0.0 0.0 No-deviation no-solution-selection
224 1000 8 MarketBasedSizePenalizedEvaluationFunction MixedStrategy.CoalitionValueBasedStrategy.1.0RandomStrategy.1.0 2.5297221346602E14 2.3723442252631097E14 2.665592051285E14 1.658567698326E13 1.5572515011234666E13 2.713479009659E13 0.0 31 31 600000 1046602 2.665592051285E14 0.0 0.0 No-deviation no-solution-selection
246 1000 9 MarketBasedSizePenalizedEvaluationFunction MixedStrategy.CoalitionValueBasedStrategy.1.0RandomStrategy.1.0 1.9637997530015E14 9.8189987650075E13 1.9637997530015E14 1.470563259578E13 1.470563259578E13 1.470563259578E13 0.0 2 2 600000 24455 1.9637997530015E14 0.0 0.0 No-deviation no-solution-selection
227 1000 9 MarketBasedSizePenalizedEvaluationFunction CoalitionValueBasedStrategy 3.6106474010743E14 3.248641928933182E14 3.6106474010743E14 2.484983484624E13 2.5001109235458E13 2.627531231003E13 0.0 11 11 600000 1034149 3.6106474010743E14 0.0 0.0 No-deviation no-solution-selection
247 1000 9 MarketBasedSizePenalizedEvaluationFunction MixedStrategy.CoalitionValueBasedStrategy.1.0RandomStrategy.1.0 2.2782647810081E14 1.90175068849825E14 2.4601739190205E14 1.333338764708E13 1.8679461696942E13 2.445535796947E13 0.0 6 6 600000 155963 2.4601739190205E14 0.0 0.0 No-deviation no-solution-selection
175 1000 7 MarketBasedSizePenalizedEvaluationFunction CoalitionValueBasedStrategy 3.7503102068816E14 3.615013427255055E14 3.7503102068816E14 3.104745721726E13 3.0703519040232332E13 3.108923618405E13 0.0 31 31 600000 4250451 3.7503102068816E14 0.0 0.0 No-deviation no-solution-selection
248 1000 9 MarketBasedSizePenalizedEvaluationFunction MixedStrategy.CoalitionValueBasedStrategy.1.0RandomStrategy.1.0 2.5059411043658E14 2.1604868132626547E14 2.5556063978494E14 2.321895795115E13 1.7425320048364E13 2.445535796947E13 0.0 11 11 600000 317841 2.5556063978494E14 0.0 0.0 No-deviation no-solution-selection
201 1000 8 MarketBasedSizePenalizedEvaluationFunction CoalitionValueBasedStrategy 3.6194734901335E14 3.421336205580995E14 3.6194734901335E14 2.722598205505E13 2.6949782274752E13 2.730220356283E13 0.0 21 21 600000 2897895 3.6194734901335E14 0.0 0.0 No-deviation no-solution-selection
253 1000 10 MarketBasedSizePenalizedEvaluationFunction CoalitionValueBasedStrategy 3.330646854363E14 1.6653234271815E14 3.330646854363E14 2.33504345292E13 2.33504345292E13 2.33504345292E13 0.0 2 2 600000 57484 3.330646854363E14 0.0 0.0 No-deviation no-solution-selection
249 1000 9 MarketBasedSizePenalizedEvaluationFunction MixedStrategy.CoalitionValueBasedStrategy.1.0RandomStrategy.1.0 2.380494796921E14 2.2806249434089125E14 2.7014322245815E14 1.430885477748E13 1.7635331690448E13 2.445535796947E13 0.0 16 16 600000 537729 2.7014322245815E14 0.0 0.0 No-deviation no-solution-selection
241 1000 9 MarketBasedSizePenalizedEvaluationFunction LocalSearchStrategy 3.6106474010743E14 3.248641928933182E14 3.6106474010743E14 2.484983484624E13 2.5001109235458E13 2.627531231003E13 0.0 11 11 600000 1048571 3.6106474010743E14 0.0 0.0 No-deviation no-solution-selection
228 1000 9 MarketBasedSizePenalizedEvaluationFunction CoalitionValueBasedStrategy 3.6106479509933E14 3.361768803118375E14 3.6106479509933E14 2.484983484624E13 2.4950684439052E13 2.627531231003E13 0.0 16 16 600000 1605584 3.6106479509933E14 0.0 0.0 No-deviation no-solution-selection
250 1000 9 MarketBasedSizePenalizedEvaluationFunction MixedStrategy.CoalitionValueBasedStrategy.1.0RandomStrategy.1.0 2.5661428947938E14 2.3599884924248094E14 2.7377190536637E14 1.562888509563E13 1.6909183110713E13 2.445535796947E13 0.0 21 21 600000 718032 2.7377190536637E14 0.0 0.0 No-deviation no-solution-selection
189 1000 7 MarketBasedSizePenalizedEvaluationFunction LocalSearchStrategy 3.7503102068816E14 3.615013427255055E14 3.7503102068816E14 3.104745721726E13 3.0703519040232332E13 3.108923618405E13 0.0 31 31 600000 4329994 3.7503102068816E14 0.0 0.0 No-deviation no-solution-selection
254 1000 10 MarketBasedSizePenalizedEvaluationFunction CoalitionValueBasedStrategy 3.6676687155969E14 2.975947282437633E14 3.6676687155969E14 2.895455575336E13 2.8026455640728E13 2.960754625699E13 0.0 6 6 600000 518069 3.6676687155969E14 0.0 0.0 No-deviation no-solution-selection
260 1000 10 MarketBasedSizePenalizedEvaluationFunction RandomStrategy 2.961753880938E13 1.480876940469E13 2.961753880938E13 1.56591913618E12 1.56591913618E12 1.56591913618E12 0.0 2 2 600000 421 2.961753880938E13 0.0 0.0 No-deviation no-solution-selection
261 1000 10 MarketBasedSizePenalizedEvaluationFunction RandomStrategy 7.59496881365E13 4.6498850192613336E13 7.59496881365E13 6.24786151904E12 3.865413795534E12 6.24786151904E12 0.0 6 6 600000 800 7.59496881365E13 0.0 0.0 No-deviation no-solution-selection
262 1000 10 MarketBasedSizePenalizedEvaluationFunction RandomStrategy 9.222661070497E13 6.606567280262182E13 9.604735947936E13 4.52681710351E12 4.241771174253E12 6.86436115281E12 0.0 11 11 600000 1517 9.604735947936E13 0.0 0.0 No-deviation no-solution-selection
263 1000 10 MarketBasedSizePenalizedEvaluationFunction RandomStrategy 1.1045541562354E14 7.69196149630575E13 1.1045541562354E14 7.01472020013E12 5.072825196256E12 9.20276514108E12 0.0 16 16 600000 2125 1.1045541562354E14 0.0 0.0 No-deviation no-solution-selection
264 1000 10 MarketBasedSizePenalizedEvaluationFunction RandomStrategy 9.802634716663E13 8.481839867521047E13 1.2506102953318E14 3.33200083649E12 5.3576031276005E12 9.20276514108E12 0.0 21 21 600000 2546 1.2506102953318E14 0.0 0.0 No-deviation no-solution-selection
265 1000 10 MarketBasedSizePenalizedEvaluationFunction RandomStrategy 1.1141906285031E14 9.0373629762855E13 1.2506102953318E14 7.39125630576E12 5.7175133134316E12 9.20276514108E12 0.0 26 26 600000 2861 1.2506102953318E14 0.0 0.0 No-deviation no-solution-selection
266 1000 10 MarketBasedSizePenalizedEvaluationFunction RandomStrategy 1.2204454451897E14 9.482265855563484E13 1.2644449454066E14 1.038143117854E13 6.024689700908333E12 1.038143117854E13 0.0 31 31 600000 3471 1.2644449454066E14 0.0 0.0 No-deviation no-solution-selection
267 1000 10 MarketBasedSizePenalizedEvaluationFunction LocalSearchStrategy 3.330646854363E14 1.6653234271815E14 3.330646854363E14 2.33504345292E13 2.33504345292E13 2.33504345292E13 0.0 2 2 600000 66843 3.330646854363E14 0.0 0.0 No-deviation no-solution-selection
251 1000 9 MarketBasedSizePenalizedEvaluationFunction MixedStrategy.CoalitionValueBasedStrategy.1.0RandomStrategy.1.0 2.2415018396691E14 2.3818814323786962E14 2.7377190536637E14 1.285744172214E13 1.67884903758432E13 2.445535796947E13 0.0 26 26 600000 925560 2.7377190536637E14 0.0 0.0 No-deviation no-solution-selection
215 1000 8 MarketBasedSizePenalizedEvaluationFunction LocalSearchStrategy 3.6194734901335E14 3.421336205580995E14 3.6194734901335E14 2.722598205505E13 2.6949782274752E13 2.730220356283E13 0.0 21 21 600000 3013093 3.6194734901335E14 0.0 0.0 No-deviation no-solution-selection
202 1000 8 MarketBasedSizePenalizedEvaluationFunction CoalitionValueBasedStrategy 3.6194734901335E14 3.4594395295334E14 3.6194734901335E14 2.722598205505E13 2.70050222308116E13 2.730220356283E13 0.0 26 26 600000 3622858 3.6194734901335E14 0.0 0.0 No-deviation no-solution-selection
242 1000 9 MarketBasedSizePenalizedEvaluationFunction LocalSearchStrategy 3.6106479509933E14 3.361768803118375E14 3.6106479509933E14 2.484983484624E13 2.4950684439052E13 2.627531231003E13 0.0 16 16 600000 1594360 3.6106479509933E14 0.0 0.0 No-deviation no-solution-selection
252 1000 9 MarketBasedSizePenalizedEvaluationFunction MixedStrategy.CoalitionValueBasedStrategy.1.0RandomStrategy.1.0 2.4808503850976E14 2.4021369538709516E14 2.7377190536637E14 2.10286687059E13 1.7069372725435E13 2.445535796947E13 0.0 31 31 600000 1120775 2.7377190536637E14 0.0 0.0 No-deviation no-solution-selection
229 1000 9 MarketBasedSizePenalizedEvaluationFunction CoalitionValueBasedStrategy 3.6106479509933E14 3.421025743088595E14 3.6106479509933E14 2.484983484624E13 2.4925472040849E13 2.627531231003E13 0.0 21 21 600000 2266539 3.6106479509933E14 0.0 0.0 No-deviation no-solution-selection
274 1000 10 MarketBasedSizePenalizedEvaluationFunction MixedStrategy.CoalitionValueBasedStrategy.1.0RandomStrategy.1.0 1.7665104621023E14 8.8325523105115E13 1.7665104621023E14 9.89169306741E12 9.89169306741E12 9.89169306741E12 0.0 2 2 600000 20883 1.7665104621023E14 0.0 0.0 No-deviation no-solution-selection
268 1000 10 MarketBasedSizePenalizedEvaluationFunction LocalSearchStrategy 3.6676687155969E14 2.975947282437633E14 3.6676687155969E14 2.895455575336E13 2.8026455640728E13 2.960754625699E13 0.0 6 6 600000 536283 3.6676687155969E14 0.0 0.0 No-deviation no-solution-selection
275 1000 10 MarketBasedSizePenalizedEvaluationFunction MixedStrategy.CoalitionValueBasedStrategy.1.0RandomStrategy.1.0 2.4362206739801E14 1.7147079425492666E14 2.4362206739801E14 1.779745933041E13 1.222986519569E13 1.779745933041E13 0.0 6 6 600000 133161 2.4362206739801E14 0.0 0.0 No-deviation no-solution-selection
216 1000 8 MarketBasedSizePenalizedEvaluationFunction LocalSearchStrategy 3.6194734901335E14 3.4594395295334E14 3.6194734901335E14 2.722598205505E13 2.70050222308116E13 2.730220356283E13 0.0 26 26 600000 3572672 3.6194734901335E14 0.0 0.0 No-deviation no-solution-selection
255 1000 10 MarketBasedSizePenalizedEvaluationFunction CoalitionValueBasedStrategy 3.672665315515E14 3.2923773371569544E14 3.672665315515E14 2.891198309392E13 2.8469885268476E13 2.960754625699E13 0.0 11 11 600000 1277390 3.672665315515E14 0.0 0.0 No-deviation no-solution-selection
243 1000 9 MarketBasedSizePenalizedEvaluationFunction LocalSearchStrategy 3.6106479509933E14 3.421025743088595E14 3.6106479509933E14 2.484983484624E13 2.4925472040849E13 2.627531231003E13 0.0 21 21 600000 2221279 3.6106479509933E14 0.0 0.0 No-deviation no-solution-selection
276 1000 10 MarketBasedSizePenalizedEvaluationFunction MixedStrategy.CoalitionValueBasedStrategy.1.0RandomStrategy.1.0 2.4911611479803E14 2.0328287576397547E14 2.5823500664233E14 1.613321409515E13 1.4541788634573E13 2.188187683083E13 0.0 11 11 600000 328668 2.5823500664233E14 0.0 0.0 No-deviation no-solution-selection
277 1000 10 MarketBasedSizePenalizedEvaluationFunction MixedStrategy.CoalitionValueBasedStrategy.1.0RandomStrategy.1.0 2.5141720351609E14 2.2073612175538938E14 2.6632105338832E14 1.584723156563E13 1.6559750627421334E13 2.845181338691E13 0.0 16 16 600000 521602 2.6632105338832E14 0.0 0.0 No-deviation no-solution-selection
203 1000 8 MarketBasedSizePenalizedEvaluationFunction CoalitionValueBasedStrategy 3.6194734901335E14 3.485251458662448E14 3.6194734901335E14 2.722598205505E13 2.7041848868184668E13 2.730220356283E13 0.0 31 31 600000 4510195 3.6194734901335E14 0.0 0.0 No-deviation no-solution-selection
230 1000 9 MarketBasedSizePenalizedEvaluationFunction CoalitionValueBasedStrategy 3.6106479509933E14 3.457491552301039E14 3.6106479509933E14 2.484983484624E13 2.49103446019272E13 2.627531231003E13 0.0 26 26 600000 2867839 3.6106479509933E14 0.0 0.0 No-deviation no-solution-selection
269 1000 10 MarketBasedSizePenalizedEvaluationFunction LocalSearchStrategy 3.672665315515E14 3.2923773371569544E14 3.672665315515E14 2.891198309392E13 2.8469885268476E13 2.960754625699E13 0.0 11 11 600000 1179403 3.672665315515E14 0.0 0.0 No-deviation no-solution-selection
278 1000 10 MarketBasedSizePenalizedEvaluationFunction MixedStrategy.CoalitionValueBasedStrategy.1.0RandomStrategy.1.0 2.4916682762966E14 2.286749223346919E14 2.6632105338832E14 1.528480226368E13 1.7436181968298E13 2.845181338691E13 0.0 21 21 600000 710856 2.6632105338832E14 0.0 0.0 No-deviation no-solution-selection
244 1000 9 MarketBasedSizePenalizedEvaluationFunction LocalSearchStrategy 3.6106479509933E14 3.457491552301039E14 3.6106479509933E14 2.484983484624E13 2.49103446019272E13 2.627531231003E13 0.0 26 26 600000 2617165 3.6106479509933E14 0.0 0.0 No-deviation no-solution-selection
256 1000 10 MarketBasedSizePenalizedEvaluationFunction CoalitionValueBasedStrategy 3.6728726803094E14 3.411279911770019E14 3.6728726803094E14 2.891198309392E13 2.8617251210290668E13 2.960754625699E13 0.0 16 16 600000 1917175 3.6728726803094E14 0.0 0.0 No-deviation no-solution-selection
279 1000 10 MarketBasedSizePenalizedEvaluationFunction MixedStrategy.CoalitionValueBasedStrategy.1.0RandomStrategy.1.0 2.724104807621E14 2.361670688304277E14 2.8510634974598E14 1.728766583208E13 1.84189253955276E13 3.004450155832E13 0.0 26 26 600000 730000 2.8510634974598E14 0.0 0.0 No-deviation no-solution-selection
231 1000 9 MarketBasedSizePenalizedEvaluationFunction CoalitionValueBasedStrategy 3.6106479509933E14 3.482194197251403E14 3.6106479509933E14 2.484983484624E13 2.4900259642646E13 2.627531231003E13 0.0 31 31 600000 3208578 3.6106479509933E14 0.0 0.0 No-deviation no-solution-selection
217 1000 8 MarketBasedSizePenalizedEvaluationFunction LocalSearchStrategy 3.6194734901335E14 3.485251458662448E14 3.6194734901335E14 2.722598205505E13 2.7041848868184668E13 2.730220356283E13 0.0 31 31 600000 4500613 3.6194734901335E14 0.0 0.0 No-deviation no-solution-selection
280 1000 10 MarketBasedSizePenalizedEvaluationFunction MixedStrategy.CoalitionValueBasedStrategy.1.0RandomStrategy.1.0 2.5834175769048E14 2.3957376842212128E14 2.8510634974598E14 1.630511894669E13 1.8310730445371E13 3.004450155832E13 0.0 31 31 600000 972099 2.8510634974598E14 0.0 0.0 No-deviation no-solution-selection
270 1000 10 MarketBasedSizePenalizedEvaluationFunction LocalSearchStrategy 3.6728726803094E14 3.411279911770019E14 3.6728726803094E14 2.891198309392E13 2.8617251210290668E13 2.960754625699E13 0.0 16 16 600000 1782642 3.6728726803094E14 0.0 0.0 No-deviation no-solution-selection
257 1000 10 MarketBasedSizePenalizedEvaluationFunction CoalitionValueBasedStrategy 3.6728726803094E14 3.473563904279395E14 3.6728726803094E14 2.891198309392E13 2.8690934181198E13 2.960754625699E13 0.0 21 21 600000 2392438 3.6728726803094E14 0.0 0.0 No-deviation no-solution-selection
245 1000 9 MarketBasedSizePenalizedEvaluationFunction LocalSearchStrategy 3.6106479509933E14 3.482194197251403E14 3.6106479509933E14 2.484983484624E13 2.4900259642646E13 2.627531231003E13 0.0 31 31 600000 3130462 3.6106479509933E14 0.0 0.0 No-deviation no-solution-selection
271 1000 10 MarketBasedSizePenalizedEvaluationFunction LocalSearchStrategy 3.6728726803094E14 3.473563904279395E14 3.6728726803094E14 2.891198309392E13 2.8690934181198E13 2.960754625699E13 0.0 21 21 600000 2052731 3.6728726803094E14 0.0 0.0 No-deviation no-solution-selection
258 1000 10 MarketBasedSizePenalizedEvaluationFunction CoalitionValueBasedStrategy 3.6728726803094E14 3.511892515054396E14 3.6728726803094E14 2.891198309392E13 2.87351439637424E13 2.960754625699E13 0.0 26 26 600000 2587080 3.6728726803094E14 0.0 0.0 No-deviation no-solution-selection
272 1000 10 MarketBasedSizePenalizedEvaluationFunction LocalSearchStrategy 3.6728726803094E14 3.511892515054396E14 3.6728726803094E14 2.891198309392E13 2.87351439637424E13 2.960754625699E13 0.0 26 26 600000 2276977 3.6728726803094E14 0.0 0.0 No-deviation no-solution-selection
259 1000 10 MarketBasedSizePenalizedEvaluationFunction CoalitionValueBasedStrategy 3.6728726803094E14 3.537857057837461E14 3.6728726803094E14 2.891198309392E13 2.8764617152105332E13 2.960754625699E13 0.0 31 31 600000 2745678 3.6728726803094E14 0.0 0.0 No-deviation no-solution-selection
273 1000 10 MarketBasedSizePenalizedEvaluationFunction LocalSearchStrategy 3.6728726803094E14 3.537857057837461E14 3.6728726803094E14 2.891198309392E13 2.8764617152105332E13 2.960754625699E13 0.0 31 31 600000 2483563 3.6728726803094E14 0.0 0.0 No-deviation no-solution-selection
