8 1000 1 EnergyPurchasingEvaluationFunction RandomStrategy -8.658411931E9 -8.6606807705E9 -8.658411931E9 -10.0 -10.0 -10.0 -8.66294961E9 2 2 600000 1185 4537679.0 0.0 0.0 No-deviation no-solution-selection
9 1000 1 EnergyPurchasingEvaluationFunction RandomStrategy -8.65335002E9 -8.656821376166666E9 -8.65335002E9 -10.0 -10.0 -10.0 -8.66294961E9 6 6 600000 2908 9599590.0 0.0 0.0 No-deviation no-solution-selection
10 1000 1 EnergyPurchasingEvaluationFunction RandomStrategy -8.65130817E9 -8.654661455181818E9 -8.651299354E9 -171716.0 -70197.5 -10.0 -8.66294961E9 11 11 600000 4778 1.1650256E7 0.0 0.0 No-deviation no-solution-selection
11 1000 1 EnergyPurchasingEvaluationFunction RandomStrategy -8.650425419E9 -8.653572764875E9 -8.650425419E9 -219582.0 -135345.2 -10.0 -8.66294961E9 16 16 600000 6135 1.2524191E7 0.0 0.0 No-deviation no-solution-selection
12 1000 1 EnergyPurchasingEvaluationFunction RandomStrategy -8.648770883E9 -8.652613072142857E9 -8.648252534E9 -10.0 -174952.75 -10.0 -8.66294961E9 21 21 600000 6989 1.4697076E7 0.0 0.0 No-deviation no-solution-selection
13 1000 1 EnergyPurchasingEvaluationFunction RandomStrategy -8.649297364E9 -8.651899922038462E9 -8.645921141E9 -235380.0 -212171.84 -10.0 -8.66294961E9 26 26 600000 7876 1.7028469E7 0.0 0.0 No-deviation no-solution-selection
14 1000 1 EnergyPurchasingEvaluationFunction RandomStrategy -8.648982225E9 -8.651475033967741E9 -8.645921141E9 -206882.0 -254551.83333333334 -10.0 -8.66294961E9 31 31 600000 9167 1.7028469E7 0.0 0.0 No-deviation no-solution-selection
22 1000 1 EnergyPurchasingEvaluationFunction MixedStrategy.CoalitionValueBasedStrategy.1.0RandomStrategy.1.0 -8.640464419E9 -8.6517070145E9 -8.640464419E9 -10.0 -10.0 -10.0 -8.66294961E9 2 2 600000 24354 2.2485191E7 0.0 0.0 No-deviation no-solution-selection
15 1000 1 EnergyPurchasingEvaluationFunction LocalSearchStrategy -8.632302195E9 -8.6476259025E9 -8.632302195E9 -10.0 -10.0 -10.0 -8.66294961E9 2 2 600000 56054 3.0647415E7 0.0 0.0 No-deviation no-solution-selection
1 1000 1 EnergyPurchasingEvaluationFunction CoalitionValueBasedStrategy -8.632302195E9 -8.6476259025E9 -8.632302195E9 -10.0 -10.0 -10.0 -8.66294961E9 2 2 600000 61843 3.0647415E7 0.0 0.0 No-deviation no-solution-selection
29 1000 2 EnergyPurchasingEvaluationFunction CoalitionValueBasedStrategy -8.632397799E9 -8.6476737045E9 -8.632397799E9 -10.0 -10.0 -10.0 -8.66294961E9 2 2 600000 55522 3.0551811E7 0.0 0.0 No-deviation no-solution-selection
23 1000 1 EnergyPurchasingEvaluationFunction MixedStrategy.CoalitionValueBasedStrategy.1.0RandomStrategy.1.0 -8.635336627E9 -8.641506063666666E9 -8.635336627E9 -10.0 -10.0 -10.0 -8.66294961E9 6 6 600000 124490 2.7612983E7 0.0 0.0 No-deviation no-solution-selection
16 1000 1 EnergyPurchasingEvaluationFunction LocalSearchStrategy -8.632234384E9 -8.637364903666666E9 -8.632234384E9 -10.0 -10.0 -10.0 -8.66294961E9 6 6 600000 192593 3.0715226E7 0.0 0.0 No-deviation no-solution-selection
2 1000 1 EnergyPurchasingEvaluationFunction CoalitionValueBasedStrategy -8.632234384E9 -8.637364903666666E9 -8.632234384E9 -10.0 -10.0 -10.0 -8.66294961E9 6 6 600000 194422 3.0715226E7 0.0 0.0 No-deviation no-solution-selection
24 1000 1 EnergyPurchasingEvaluationFunction MixedStrategy.CoalitionValueBasedStrategy.1.0RandomStrategy.1.0 -8.633901149E9 -8.63860888209091E9 -8.633899323E9 -10.0 -10.0 -10.0 -8.66294961E9 11 11 600000 256017 2.9050287E7 0.0 0.0 No-deviation no-solution-selection
30 1000 2 EnergyPurchasingEvaluationFunction CoalitionValueBasedStrategy -8.632234483E9 -8.637380909833334E9 -8.632234483E9 -10.0 -10.0 -10.0 -8.66294961E9 6 6 600000 207453 3.0715127E7 0.0 0.0 No-deviation no-solution-selection
36 1000 2 EnergyPurchasingEvaluationFunction RandomStrategy -8.658241218E9 -8.660595414E9 -8.658241218E9 -10.0 -10.0 -10.0 -8.66294961E9 2 2 600000 332 4708392.0 0.0 0.0 No-deviation no-solution-selection
37 1000 2 EnergyPurchasingEvaluationFunction RandomStrategy -8.65323674E9 -8.656294660166666E9 -8.653126064E9 -10.0 -10.0 -10.0 -8.66294961E9 6 6 600000 837 9823546.0 0.0 0.0 No-deviation no-solution-selection
38 1000 2 EnergyPurchasingEvaluationFunction RandomStrategy -8.651238798E9 -8.653976769E9 -8.650221407E9 -10.0 -9244.3 -10.0 -8.66294961E9 11 11 600000 1465 1.2728203E7 0.0 0.0 No-deviation no-solution-selection
39 1000 2 EnergyPurchasingEvaluationFunction RandomStrategy -8.64820048E9 -8.6525546211875E9 -8.64820048E9 -429972.0 -81662.86666666667 -10.0 -8.66294961E9 16 16 600000 1974 1.474913E7 0.0 0.0 No-deviation no-solution-selection
40 1000 2 EnergyPurchasingEvaluationFunction RandomStrategy -8.650228566E9 -8.651904210714285E9 -8.64820048E9 -285326.0 -123438.8 -10.0 -8.66294961E9 21 21 600000 2548 1.474913E7 0.0 0.0 No-deviation no-solution-selection
41 1000 2 EnergyPurchasingEvaluationFunction RandomStrategy -8.650530703E9 -8.651553044807692E9 -8.64820048E9 -10.0 -156232.28 -10.0 -8.66294961E9 26 26 600000 2930 1.474913E7 0.0 0.0 No-deviation no-solution-selection
42 1000 2 EnergyPurchasingEvaluationFunction RandomStrategy -8.649683982E9 -8.651185034483871E9 -8.647515427E9 -10.0 -149541.46666666667 -10.0 -8.66294961E9 31 31 600000 3598 1.5434183E7 0.0 0.0 No-deviation no-solution-selection
43 1000 2 EnergyPurchasingEvaluationFunction LocalSearchStrategy -8.632397799E9 -8.6476737045E9 -8.632397799E9 -10.0 -10.0 -10.0 -8.66294961E9 2 2 600000 50412 3.0551811E7 0.0 0.0 No-deviation no-solution-selection
17 1000 1 EnergyPurchasingEvaluationFunction LocalSearchStrategy -8.632234384E9 -8.635032849272728E9 -8.632234384E9 -10.0 -10.0 -10.0 -8.66294961E9 11 11 600000 368796 3.0715226E7 0.0 0.0 No-deviation no-solution-selection
3 1000 1 EnergyPurchasingEvaluationFunction CoalitionValueBasedStrategy -8.632234384E9 -8.635032849272728E9 -8.632234384E9 -10.0 -10.0 -10.0 -8.66294961E9 11 11 600000 384325 3.0715226E7 0.0 0.0 No-deviation no-solution-selection
25 1000 1 EnergyPurchasingEvaluationFunction MixedStrategy.CoalitionValueBasedStrategy.1.0RandomStrategy.1.0 -8.63583821E9 -8.6377452564375E9 -8.633899323E9 -10.0 -10.0 -10.0 -8.66294961E9 16 16 600000 384743 2.9050287E7 0.0 0.0 No-deviation no-solution-selection
31 1000 2 EnergyPurchasingEvaluationFunction CoalitionValueBasedStrategy -8.63223448E9 -8.635041623636364E9 -8.63223448E9 -10.0 -10.0 -10.0 -8.66294961E9 11 11 600000 399213 3.071513E7 0.0 0.0 No-deviation no-solution-selection
18 1000 1 EnergyPurchasingEvaluationFunction LocalSearchStrategy -8.632234384E9 -8.634158328875E9 -8.632234384E9 -10.0 -10.0 -10.0 -8.66294961E9 16 16 600000 524110 3.0715226E7 0.0 0.0 No-deviation no-solution-selection
44 1000 2 EnergyPurchasingEvaluationFunction LocalSearchStrategy -8.632234483E9 -8.637380909833334E9 -8.632234483E9 -10.0 -10.0 -10.0 -8.66294961E9 6 6 600000 222147 3.0715127E7 0.0 0.0 No-deviation no-solution-selection
4 1000 1 EnergyPurchasingEvaluationFunction CoalitionValueBasedStrategy -8.632234384E9 -8.634158328875E9 -8.632234384E9 -10.0 -10.0 -10.0 -8.66294961E9 16 16 600000 578732 3.0715226E7 0.0 0.0 No-deviation no-solution-selection
50 1000 2 EnergyPurchasingEvaluationFunction MixedStrategy.CoalitionValueBasedStrategy.1.0RandomStrategy.1.0 -8.640173401E9 -8.6515615055E9 -8.640173401E9 -10.0 -10.0 -10.0 -8.66294961E9 2 2 600000 23947 2.2776209E7 0.0 0.0 No-deviation no-solution-selection
26 1000 1 EnergyPurchasingEvaluationFunction MixedStrategy.CoalitionValueBasedStrategy.1.0RandomStrategy.1.0 -8.633448119E9 -8.63695117052381E9 -8.633202477E9 -10.0 -10.0 -10.0 -8.66294961E9 21 21 600000 596235 2.9747133E7 0.0 0.0 No-deviation no-solution-selection
5 1000 1 EnergyPurchasingEvaluationFunction CoalitionValueBasedStrategy -8.632234384E9 -8.633700246761906E9 -8.632234384E9 -10.0 -10.0 -10.0 -8.66294961E9 21 21 600000 681501 3.0715226E7 0.0 0.0 No-deviation no-solution-selection
27 1000 1 EnergyPurchasingEvaluationFunction MixedStrategy.CoalitionValueBasedStrategy.1.0RandomStrategy.1.0 -8.637558214E9 -8.636609891115385E9 -8.633197168E9 -10.0 -10.0 -10.0 -8.66294961E9 26 26 600000 676256 2.9752442E7 0.0 0.0 No-deviation no-solution-selection
19 1000 1 EnergyPurchasingEvaluationFunction LocalSearchStrategy -8.632234384E9 -8.633700246761906E9 -8.632234384E9 -10.0 -10.0 -10.0 -8.66294961E9 21 21 600000 686613 3.0715226E7 0.0 0.0 No-deviation no-solution-selection
32 1000 2 EnergyPurchasingEvaluationFunction CoalitionValueBasedStrategy -8.63223448E9 -8.63416439125E9 -8.63223448E9 -10.0 -10.0 -10.0 -8.66294961E9 16 16 600000 567307 3.071513E7 0.0 0.0 No-deviation no-solution-selection
51 1000 2 EnergyPurchasingEvaluationFunction MixedStrategy.CoalitionValueBasedStrategy.1.0RandomStrategy.1.0 -8.634564638E9 -8.6413612725E9 -8.634564638E9 -10.0 -10.0 -10.0 -8.66294961E9 6 6 600000 120388 2.8384972E7 0.0 0.0 No-deviation no-solution-selection
57 1000 3 EnergyPurchasingEvaluationFunction CoalitionValueBasedStrategy -8.632337986E9 -8.647643798E9 -8.632337986E9 -10.0 -10.0 -10.0 -8.66294961E9 2 2 600000 52330 3.0611624E7 0.0 0.0 No-deviation no-solution-selection
45 1000 2 EnergyPurchasingEvaluationFunction LocalSearchStrategy -8.63223448E9 -8.635041623636364E9 -8.63223448E9 -10.0 -10.0 -10.0 -8.66294961E9 11 11 600000 407503 3.071513E7 0.0 0.0 No-deviation no-solution-selection
28 1000 1 EnergyPurchasingEvaluationFunction MixedStrategy.CoalitionValueBasedStrategy.1.0RandomStrategy.1.0 -8.633901837E9 -8.636316854193548E9 -8.633197168E9 -10.0 -401.1333333333333 -10.0 -8.66294961E9 31 31 600000 817911 2.9752442E7 0.0 0.0 No-deviation no-solution-selection
52 1000 2 EnergyPurchasingEvaluationFunction MixedStrategy.CoalitionValueBasedStrategy.1.0RandomStrategy.1.0 -8.636714489E9 -8.638112268636364E9 -8.633229738E9 -10.0 -10.0 -10.0 -8.66294961E9 11 11 600000 255846 2.9719872E7 0.0 0.0 No-deviation no-solution-selection
20 1000 1 EnergyPurchasingEvaluationFunction LocalSearchStrategy -8.632234384E9 -8.633418350076923E9 -8.632234384E9 -10.0 -10.0 -10.0 -8.66294961E9 26 26 600000 859797 3.0715226E7 0.0 0.0 No-deviation no-solution-selection
6 1000 1 EnergyPurchasingEvaluationFunction CoalitionValueBasedStrategy -8.632234384E9 -8.633418350076923E9 -8.632234384E9 -10.0 -10.0 -10.0 -8.66294961E9 26 26 600000 866515 3.0715226E7 0.0 0.0 No-deviation no-solution-selection
64 1000 3 EnergyPurchasingEvaluationFunction RandomStrategy -8.658648371E9 -8.6607989905E9 -8.658648371E9 -10.0 -10.0 -10.0 -8.66294961E9 2 2 600000 351 4301239.0 0.0 0.0 No-deviation no-solution-selection
65 1000 3 EnergyPurchasingEvaluationFunction RandomStrategy -8.653036674E9 -8.65616605E9 -8.653036674E9 -10.0 -51673.4 -10.0 -8.66294961E9 6 6 600000 762 9912936.0 0.0 0.0 No-deviation no-solution-selection
66 1000 3 EnergyPurchasingEvaluationFunction RandomStrategy -8.650779069E9 -8.654271396363636E9 -8.650779069E9 -161709.0 -72630.6 -10.0 -8.66294961E9 11 11 600000 1431 1.2170541E7 0.0 0.0 No-deviation no-solution-selection
67 1000 3 EnergyPurchasingEvaluationFunction RandomStrategy -8.651225546E9 -8.6533697061875E9 -8.650779069E9 -11755.0 -99649.46666666666 -10.0 -8.66294961E9 16 16 600000 2265 1.2170541E7 0.0 0.0 No-deviation no-solution-selection
68 1000 3 EnergyPurchasingEvaluationFunction RandomStrategy -8.649426872E9 -8.652612720857143E9 -8.649426872E9 -10.0 -109866.45 -10.0 -8.66294961E9 21 21 600000 2715 1.3522738E7 0.0 0.0 No-deviation no-solution-selection
69 1000 3 EnergyPurchasingEvaluationFunction RandomStrategy -8.650306568E9 -8.652026046807692E9 -8.648414128E9 -10.0 -133728.0 -10.0 -8.66294961E9 26 26 600000 3312 1.4535482E7 0.0 0.0 No-deviation no-solution-selection
70 1000 3 EnergyPurchasingEvaluationFunction RandomStrategy -8.648396668E9 -8.651621658387096E9 -8.648396668E9 -745615.0 -169870.43333333332 -10.0 -8.66294961E9 31 31 600000 3515 1.4552942E7 0.0 0.0 No-deviation no-solution-selection
58 1000 3 EnergyPurchasingEvaluationFunction CoalitionValueBasedStrategy -8.632234374E9 -8.6373708665E9 -8.632234374E9 -10.0 -10.0 -10.0 -8.66294961E9 6 6 600000 209516 3.0715236E7 0.0 0.0 No-deviation no-solution-selection
71 1000 3 EnergyPurchasingEvaluationFunction LocalSearchStrategy -8.632337986E9 -8.647643798E9 -8.632337986E9 -10.0 -10.0 -10.0 -8.66294961E9 2 2 600000 53967 3.0611624E7 0.0 0.0 No-deviation no-solution-selection
33 1000 2 EnergyPurchasingEvaluationFunction CoalitionValueBasedStrategy -8.63223448E9 -8.633704888571428E9 -8.63223448E9 -10.0 -10.0 -10.0 -8.66294961E9 21 21 600000 779225 3.071513E7 0.0 0.0 No-deviation no-solution-selection
46 1000 2 EnergyPurchasingEvaluationFunction LocalSearchStrategy -8.63223448E9 -8.63416439125E9 -8.63223448E9 -10.0 -10.0 -10.0 -8.66294961E9 16 16 600000 589109 3.071513E7 0.0 0.0 No-deviation no-solution-selection
53 1000 2 EnergyPurchasingEvaluationFunction MixedStrategy.CoalitionValueBasedStrategy.1.0RandomStrategy.1.0 -8.635827726E9 -8.6376702815E9 -8.633229738E9 -10.0 -10.0 -10.0 -8.66294961E9 16 16 600000 432407 2.9719872E7 0.0 0.0 No-deviation no-solution-selection
21 1000 1 EnergyPurchasingEvaluationFunction LocalSearchStrategy -8.632234384E9 -8.633227387806452E9 -8.632234384E9 -10.0 -10.0 -10.0 -8.66294961E9 31 31 600000 1035168 3.0715226E7 0.0 0.0 No-deviation no-solution-selection
7 1000 1 EnergyPurchasingEvaluationFunction CoalitionValueBasedStrategy -8.632234384E9 -8.633227387806452E9 -8.632234384E9 -10.0 -10.0 -10.0 -8.66294961E9 31 31 600000 1046814 3.0715226E7 0.0 0.0 No-deviation no-solution-selection
78 1000 3 EnergyPurchasingEvaluationFunction MixedStrategy.CoalitionValueBasedStrategy.1.0RandomStrategy.1.0 -8.641360168E9 -8.652154889E9 -8.641360168E9 -10.0 -10.0 -10.0 -8.66294961E9 2 2 600000 23498 2.1589442E7 0.0 0.0 No-deviation no-solution-selection
72 1000 3 EnergyPurchasingEvaluationFunction LocalSearchStrategy -8.632234374E9 -8.6373708665E9 -8.632234374E9 -10.0 -10.0 -10.0 -8.66294961E9 6 6 600000 194885 3.0715236E7 0.0 0.0 No-deviation no-solution-selection
59 1000 3 EnergyPurchasingEvaluationFunction CoalitionValueBasedStrategy -8.632234373E9 -8.635036096727272E9 -8.632234373E9 -10.0 -10.0 -10.0 -8.66294961E9 11 11 600000 365776 3.0715237E7 0.0 0.0 No-deviation no-solution-selection
34 1000 2 EnergyPurchasingEvaluationFunction CoalitionValueBasedStrategy -8.63223448E9 -8.633422117692308E9 -8.63223448E9 -10.0 -10.0 -10.0 -8.66294961E9 26 26 600000 927984 3.071513E7 0.0 0.0 No-deviation no-solution-selection
47 1000 2 EnergyPurchasingEvaluationFunction LocalSearchStrategy -8.63223448E9 -8.633704888571428E9 -8.63223448E9 -10.0 -10.0 -10.0 -8.66294961E9 21 21 600000 773617 3.071513E7 0.0 0.0 No-deviation no-solution-selection
79 1000 3 EnergyPurchasingEvaluationFunction MixedStrategy.CoalitionValueBasedStrategy.1.0RandomStrategy.1.0 -8.633814658E9 -8.640634234833334E9 -8.633814658E9 -10.0 -10.0 -10.0 -8.66294961E9 6 6 600000 111043 2.9134952E7 0.0 0.0 No-deviation no-solution-selection
54 1000 2 EnergyPurchasingEvaluationFunction MixedStrategy.CoalitionValueBasedStrategy.1.0RandomStrategy.1.0 -8.637390736E9 -8.637015762857143E9 -8.632903019E9 -10.0 -10.0 -10.0 -8.66294961E9 21 21 600000 555972 3.0046591E7 0.0 0.0 No-deviation no-solution-selection
85 1000 4 EnergyPurchasingEvaluationFunction CoalitionValueBasedStrategy -8.632304512E9 -8.647627061E9 -8.632304512E9 -10.0 -10.0 -10.0 -8.66294961E9 2 2 600000 47077 3.0645098E7 0.0 0.0 No-deviation no-solution-selection
73 1000 3 EnergyPurchasingEvaluationFunction LocalSearchStrategy -8.632234373E9 -8.635036096727272E9 -8.632234373E9 -10.0 -10.0 -10.0 -8.66294961E9 11 11 600000 342470 3.0715237E7 0.0 0.0 No-deviation no-solution-selection
60 1000 3 EnergyPurchasingEvaluationFunction CoalitionValueBasedStrategy -8.632234373E9 -8.6341605580625E9 -8.632234373E9 -10.0 -10.0 -10.0 -8.66294961E9 16 16 600000 555610 3.0715237E7 0.0 0.0 No-deviation no-solution-selection
80 1000 3 EnergyPurchasingEvaluationFunction MixedStrategy.CoalitionValueBasedStrategy.1.0RandomStrategy.1.0 -8.636725224E9 -8.638458725363636E9 -8.633814658E9 -10.0 -43007.3 -10.0 -8.66294961E9 11 11 600000 254427 2.9134952E7 0.0 0.0 No-deviation no-solution-selection
55 1000 2 EnergyPurchasingEvaluationFunction MixedStrategy.CoalitionValueBasedStrategy.1.0RandomStrategy.1.0 -8.634138318E9 -8.63656562973077E9 -8.632903019E9 -10.0 -10.0 -10.0 -8.66294961E9 26 26 600000 685404 3.0046591E7 0.0 0.0 No-deviation no-solution-selection
35 1000 2 EnergyPurchasingEvaluationFunction CoalitionValueBasedStrategy -8.63223448E9 -8.633230563225807E9 -8.63223448E9 -10.0 -10.0 -10.0 -8.66294961E9 31 31 600000 1135634 3.071513E7 0.0 0.0 No-deviation no-solution-selection
48 1000 2 EnergyPurchasingEvaluationFunction LocalSearchStrategy -8.63223448E9 -8.633422117692308E9 -8.63223448E9 -10.0 -10.0 -10.0 -8.66294961E9 26 26 600000 946456 3.071513E7 0.0 0.0 No-deviation no-solution-selection
92 1000 4 EnergyPurchasingEvaluationFunction RandomStrategy -8.658893877E9 -8.6609217435E9 -8.658893877E9 -10.0 -10.0 -10.0 -8.66294961E9 2 2 600000 279 4055733.0 0.0 0.0 No-deviation no-solution-selection
93 1000 4 EnergyPurchasingEvaluationFunction RandomStrategy -8.653455232E9 -8.655758945666666E9 -8.6496617E9 -92364.0 -18480.8 -10.0 -8.66294961E9 6 6 600000 908 1.328791E7 0.0 0.0 No-deviation no-solution-selection
94 1000 4 EnergyPurchasingEvaluationFunction RandomStrategy -8.649961089E9 -8.653672363454546E9 -8.649175081E9 -10.0 -39350.9 -10.0 -8.66294961E9 11 11 600000 1346 1.3774529E7 0.0 0.0 No-deviation no-solution-selection
74 1000 3 EnergyPurchasingEvaluationFunction LocalSearchStrategy -8.632234373E9 -8.6341605580625E9 -8.632234373E9 -10.0 -10.0 -10.0 -8.66294961E9 16 16 600000 492919 3.0715237E7 0.0 0.0 No-deviation no-solution-selection
95 1000 4 EnergyPurchasingEvaluationFunction RandomStrategy -8.649207615E9 -8.6525133505E9 -8.649108772E9 -33.0 -47241.73333333333 -10.0 -8.66294961E9 16 16 600000 2168 1.3840838E7 0.0 0.0 No-deviation no-solution-selection
96 1000 4 EnergyPurchasingEvaluationFunction RandomStrategy -8.64976185E9 -8.651842254904762E9 -8.648542565E9 -258327.0 -103195.85 -10.0 -8.66294961E9 21 21 600000 2698 1.4407045E7 0.0 0.0 No-deviation no-solution-selection
86 1000 4 EnergyPurchasingEvaluationFunction CoalitionValueBasedStrategy -8.632234355E9 -8.6373652725E9 -8.632234355E9 -10.0 -10.0 -10.0 -8.66294961E9 6 6 600000 186659 3.0715255E7 0.0 0.0 No-deviation no-solution-selection
97 1000 4 EnergyPurchasingEvaluationFunction RandomStrategy -8.651100831E9 -8.651411740076923E9 -8.648542565E9 -705747.0 -185633.0 -10.0 -8.66294961E9 26 26 600000 3383 1.4407045E7 0.0 0.0 No-deviation no-solution-selection
98 1000 4 EnergyPurchasingEvaluationFunction RandomStrategy -8.64908229E9 -8.65122284064516E9 -8.648542565E9 -1477097.0 -254563.06666666668 -10.0 -8.66294961E9 31 31 600000 3371 1.4407045E7 0.0 0.0 No-deviation no-solution-selection
81 1000 3 EnergyPurchasingEvaluationFunction MixedStrategy.CoalitionValueBasedStrategy.1.0RandomStrategy.1.0 -8.637542839E9 -8.6375846078125E9 -8.633421791E9 -10.0 -66122.93333333333 -10.0 -8.66294961E9 16 16 600000 383306 2.9527819E7 0.0 0.0 No-deviation no-solution-selection
56 1000 2 EnergyPurchasingEvaluationFunction MixedStrategy.CoalitionValueBasedStrategy.1.0RandomStrategy.1.0 -8.637979456E9 -8.636465859161291E9 -8.632903019E9 -10.0 -10.0 -10.0 -8.66294961E9 31 31 600000 830313 3.0046591E7 0.0 0.0 No-deviation no-solution-selection
99 1000 4 EnergyPurchasingEvaluationFunction LocalSearchStrategy -8.632304512E9 -8.647627061E9 -8.632304512E9 -10.0 -10.0 -10.0 -8.66294961E9 2 2 600000 49178 3.0645098E7 0.0 0.0 No-deviation no-solution-selection
61 1000 3 EnergyPurchasingEvaluationFunction CoalitionValueBasedStrategy -8.632234373E9 -8.633701942571428E9 -8.632234373E9 -10.0 -10.0 -10.0 -8.66294961E9 21 21 600000 733680 3.0715237E7 0.0 0.0 No-deviation no-solution-selection
75 1000 3 EnergyPurchasingEvaluationFunction LocalSearchStrategy -8.632234373E9 -8.633701942571428E9 -8.632234373E9 -10.0 -10.0 -10.0 -8.66294961E9 21 21 600000 657950 3.0715237E7 0.0 0.0 No-deviation no-solution-selection
82 1000 3 EnergyPurchasingEvaluationFunction MixedStrategy.CoalitionValueBasedStrategy.1.0RandomStrategy.1.0 -8.635774718E9 -8.637297497714285E9 -8.633421791E9 -10.0 -49594.7 -10.0 -8.66294961E9 21 21 600000 527784 2.9527819E7 0.0 0.0 No-deviation no-solution-selection
106 1000 4 EnergyPurchasingEvaluationFunction MixedStrategy.CoalitionValueBasedStrategy.1.0RandomStrategy.1.0 -8.638000123E9 -8.6504748665E9 -8.638000123E9 -10.0 -10.0 -10.0 -8.66294961E9 2 2 600000 22641 2.4949487E7 0.0 0.0 No-deviation no-solution-selection
100 1000 4 EnergyPurchasingEvaluationFunction LocalSearchStrategy -8.632234355E9 -8.6373652725E9 -8.632234355E9 -10.0 -10.0 -10.0 -8.66294961E9 6 6 600000 182850 3.0715255E7 0.0 0.0 No-deviation no-solution-selection
49 1000 2 EnergyPurchasingEvaluationFunction LocalSearchStrategy -8.63223448E9 -8.633230563225807E9 -8.63223448E9 -10.0 -10.0 -10.0 -8.66294961E9 31 31 600000 1139073 3.071513E7 0.0 0.0 No-deviation no-solution-selection
87 1000 4 EnergyPurchasingEvaluationFunction CoalitionValueBasedStrategy -8.632234353E9 -8.635033036363636E9 -8.632234353E9 -10.0 -10.0 -10.0 -8.66294961E9 11 11 600000 395421 3.0715257E7 0.0 0.0 No-deviation no-solution-selection
107 1000 4 EnergyPurchasingEvaluationFunction MixedStrategy.CoalitionValueBasedStrategy.1.0RandomStrategy.1.0 -8.635714562E9 -8.640920804E9 -8.635024465E9 -10.0 -10.0 -10.0 -8.66294961E9 6 6 600000 112830 2.7925145E7 0.0 0.0 No-deviation no-solution-selection
101 1000 4 EnergyPurchasingEvaluationFunction LocalSearchStrategy -8.632234353E9 -8.635033036363636E9 -8.632234353E9 -10.0 -10.0 -10.0 -8.66294961E9 11 11 600000 343984 3.0715257E7 0.0 0.0 No-deviation no-solution-selection
62 1000 3 EnergyPurchasingEvaluationFunction CoalitionValueBasedStrategy -8.632234373E9 -8.633419717653847E9 -8.632234373E9 -10.0 -10.0 -10.0 -8.66294961E9 26 26 600000 976442 3.0715237E7 0.0 0.0 No-deviation no-solution-selection
63 1000 3 EnergyPurchasingEvaluationFunction CoalitionValueBasedStrategy -8.632234373E9 -8.633228533032259E9 -8.632234373E9 -10.0 -10.0 -10.0 -8.66294961E9 31 31 600000 986439 3.0715237E7 0.0 0.0 No-deviation no-solution-selection
83 1000 3 EnergyPurchasingEvaluationFunction MixedStrategy.CoalitionValueBasedStrategy.1.0RandomStrategy.1.0 -8.636326455E9 -8.63691204473077E9 -8.633421791E9 -10.0 -39677.76 -10.0 -8.66294961E9 26 26 600000 685794 2.9527819E7 0.0 0.0 No-deviation no-solution-selection
113 1000 5 EnergyPurchasingEvaluationFunction CoalitionValueBasedStrategy -8.632266301E9 -8.6476079555E9 -8.632266301E9 -10.0 -10.0 -10.0 -8.66294961E9 2 2 600000 47163 3.0683309E7 0.0 0.0 No-deviation no-solution-selection
76 1000 3 EnergyPurchasingEvaluationFunction LocalSearchStrategy -8.632234373E9 -8.633419717653847E9 -8.632234373E9 -10.0 -10.0 -10.0 -8.66294961E9 26 26 600000 834808 3.0715237E7 0.0 0.0 No-deviation no-solution-selection
88 1000 4 EnergyPurchasingEvaluationFunction CoalitionValueBasedStrategy -8.632234353E9 -8.6341584478125E9 -8.632234353E9 -10.0 -10.0 -10.0 -8.66294961E9 16 16 600000 545338 3.0715257E7 0.0 0.0 No-deviation no-solution-selection
108 1000 4 EnergyPurchasingEvaluationFunction MixedStrategy.CoalitionValueBasedStrategy.1.0RandomStrategy.1.0 -8.637103207E9 -8.638459806454546E9 -8.633410743E9 -10.0 -10.0 -10.0 -8.66294961E9 11 11 600000 264082 2.9538867E7 0.0 0.0 No-deviation no-solution-selection
120 1000 5 EnergyPurchasingEvaluationFunction RandomStrategy -8.657149827E9 -8.6600497185E9 -8.657149827E9 -10.0 -10.0 -10.0 -8.66294961E9 2 2 600000 307 5799783.0 0.0 0.0 No-deviation no-solution-selection
121 1000 5 EnergyPurchasingEvaluationFunction RandomStrategy -8.653370064E9 -8.6566594735E9 -8.653370064E9 -10.0 -10.0 -10.0 -8.66294961E9 6 6 600000 925 9579546.0 0.0 0.0 No-deviation no-solution-selection
122 1000 5 EnergyPurchasingEvaluationFunction RandomStrategy -8.651185295E9 -8.654443393727272E9 -8.651119221E9 -171716.0 -48796.1 -10.0 -8.66294961E9 11 11 600000 1508 1.1830389E7 0.0 0.0 No-deviation no-solution-selection
123 1000 5 EnergyPurchasingEvaluationFunction RandomStrategy -8.649081942E9 -8.6529727570625E9 -8.649081942E9 -10.0 -93067.8 -10.0 -8.66294961E9 16 16 600000 2051 1.3867668E7 0.0 0.0 No-deviation no-solution-selection
124 1000 5 EnergyPurchasingEvaluationFunction RandomStrategy -8.650319707E9 -8.652270647190475E9 -8.649081942E9 -926525.0 -168858.05 -10.0 -8.66294961E9 21 21 600000 2567 1.3867668E7 0.0 0.0 No-deviation no-solution-selection
125 1000 5 EnergyPurchasingEvaluationFunction RandomStrategy -8.649192923E9 -8.651823082576923E9 -8.648329044E9 -10.0 -171195.8 -10.0 -8.66294961E9 26 26 600000 3020 1.4620566E7 0.0 0.0 No-deviation no-solution-selection
126 1000 5 EnergyPurchasingEvaluationFunction RandomStrategy -8.648256827E9 -8.651380530096775E9 -8.648256827E9 -10.0 -189995.23333333334 -10.0 -8.66294961E9 31 31 600000 3455 1.4692783E7 0.0 0.0 No-deviation no-solution-selection
84 1000 3 EnergyPurchasingEvaluationFunction MixedStrategy.CoalitionValueBasedStrategy.1.0RandomStrategy.1.0 -8.635041744E9 -8.636537409774193E9 -8.633421791E9 -10.0 -33066.46666666667 -10.0 -8.66294961E9 31 31 600000 804575 2.9527819E7 0.0 0.0 No-deviation no-solution-selection
127 1000 5 EnergyPurchasingEvaluationFunction LocalSearchStrategy -8.632266301E9 -8.6476079555E9 -8.632266301E9 -10.0 -10.0 -10.0 -8.66294961E9 2 2 600000 47389 3.0683309E7 0.0 0.0 No-deviation no-solution-selection
77 1000 3 EnergyPurchasingEvaluationFunction LocalSearchStrategy -8.632234373E9 -8.633228533032259E9 -8.632234373E9 -10.0 -10.0 -10.0 -8.66294961E9 31 31 600000 969197 3.0715237E7 0.0 0.0 No-deviation no-solution-selection
89 1000 4 EnergyPurchasingEvaluationFunction CoalitionValueBasedStrategy -8.632234353E9 -8.63370033E9 -8.632234353E9 -10.0 -10.0 -10.0 -8.66294961E9 21 21 600000 654769 3.0715257E7 0.0 0.0 No-deviation no-solution-selection
114 1000 5 EnergyPurchasingEvaluationFunction CoalitionValueBasedStrategy -8.632234327E9 -8.637358885E9 -8.632234327E9 -10.0 -10.0 -10.0 -8.66294961E9 6 6 600000 188487 3.0715283E7 0.0 0.0 No-deviation no-solution-selection
102 1000 4 EnergyPurchasingEvaluationFunction LocalSearchStrategy -8.632234353E9 -8.6341584478125E9 -8.632234353E9 -10.0 -10.0 -10.0 -8.66294961E9 16 16 600000 525431 3.0715257E7 0.0 0.0 No-deviation no-solution-selection
109 1000 4 EnergyPurchasingEvaluationFunction MixedStrategy.CoalitionValueBasedStrategy.1.0RandomStrategy.1.0 -8.634859401E9 -8.6372237154375E9 -8.633233979E9 -10.0 -10.0 -10.0 -8.66294961E9 16 16 600000 384573 2.9715631E7 0.0 0.0 No-deviation no-solution-selection
134 1000 5 EnergyPurchasingEvaluationFunction MixedStrategy.CoalitionValueBasedStrategy.1.0RandomStrategy.1.0 -8.637560047E9 -8.6502548285E9 -8.637560047E9 -10.0 -10.0 -10.0 -8.66294961E9 2 2 600000 20333 2.5389563E7 0.0 0.0 No-deviation no-solution-selection
110 1000 4 EnergyPurchasingEvaluationFunction MixedStrategy.CoalitionValueBasedStrategy.1.0RandomStrategy.1.0 -8.635303671E9 -8.63693887647619E9 -8.633233979E9 -10.0 -10.0 -10.0 -8.66294961E9 21 21 600000 508064 2.9715631E7 0.0 0.0 No-deviation no-solution-selection
135 1000 5 EnergyPurchasingEvaluationFunction MixedStrategy.CoalitionValueBasedStrategy.1.0RandomStrategy.1.0 -8.634086048E9 -8.640734851833334E9 -8.634086048E9 -10.0 -10.0 -10.0 -8.66294961E9 6 6 600000 113372 2.8863562E7 0.0 0.0 No-deviation no-solution-selection
103 1000 4 EnergyPurchasingEvaluationFunction LocalSearchStrategy -8.632234353E9 -8.63370033E9 -8.632234353E9 -10.0 -10.0 -10.0 -8.66294961E9 21 21 600000 666583 3.0715257E7 0.0 0.0 No-deviation no-solution-selection
128 1000 5 EnergyPurchasingEvaluationFunction LocalSearchStrategy -8.632234327E9 -8.637358885E9 -8.632234327E9 -10.0 -10.0 -10.0 -8.66294961E9 6 6 600000 205267 3.0715283E7 0.0 0.0 No-deviation no-solution-selection
115 1000 5 EnergyPurchasingEvaluationFunction CoalitionValueBasedStrategy -8.632234327E9 -8.635029540454546E9 -8.632234327E9 -10.0 -10.0 -10.0 -8.66294961E9 11 11 600000 355614 3.0715283E7 0.0 0.0 No-deviation no-solution-selection
90 1000 4 EnergyPurchasingEvaluationFunction CoalitionValueBasedStrategy -8.632234353E9 -8.633418411346153E9 -8.632234353E9 -10.0 -10.0 -10.0 -8.66294961E9 26 26 600000 924335 3.0715257E7 0.0 0.0 No-deviation no-solution-selection
104 1000 4 EnergyPurchasingEvaluationFunction LocalSearchStrategy -8.632234353E9 -8.633418411346153E9 -8.632234353E9 -10.0 -10.0 -10.0 -8.66294961E9 26 26 600000 817140 3.0715257E7 0.0 0.0 No-deviation no-solution-selection
141 1000 6 EnergyPurchasingEvaluationFunction CoalitionValueBasedStrategy -8.632376915E9 -8.6476632625E9 -8.632376915E9 -10.0 -10.0 -10.0 -8.66294961E9 2 2 600000 50823 3.0572695E7 0.0 0.0 No-deviation no-solution-selection
129 1000 5 EnergyPurchasingEvaluationFunction LocalSearchStrategy -8.632234327E9 -8.635029540454546E9 -8.632234327E9 -10.0 -10.0 -10.0 -8.66294961E9 11 11 600000 355263 3.0715283E7 0.0 0.0 No-deviation no-solution-selection
116 1000 5 EnergyPurchasingEvaluationFunction CoalitionValueBasedStrategy -8.632234327E9 -8.63415603625E9 -8.632234327E9 -10.0 -10.0 -10.0 -8.66294961E9 16 16 600000 514771 3.0715283E7 0.0 0.0 No-deviation no-solution-selection
111 1000 4 EnergyPurchasingEvaluationFunction MixedStrategy.CoalitionValueBasedStrategy.1.0RandomStrategy.1.0 -8.635287103E9 -8.636720985E9 -8.633233979E9 -372748.0 -14919.52 -10.0 -8.66294961E9 26 26 600000 714909 2.9715631E7 0.0 0.0 No-deviation no-solution-selection
136 1000 5 EnergyPurchasingEvaluationFunction MixedStrategy.CoalitionValueBasedStrategy.1.0RandomStrategy.1.0 -8.634035865E9 -8.638701118727272E9 -8.634035865E9 -10.0 -29067.9 -10.0 -8.66294961E9 11 11 600000 248422 2.8913745E7 0.0 0.0 No-deviation no-solution-selection
91 1000 4 EnergyPurchasingEvaluationFunction CoalitionValueBasedStrategy -8.632234353E9 -8.633227434193548E9 -8.632234353E9 -10.0 -10.0 -10.0 -8.66294961E9 31 31 600000 1114511 3.0715257E7 0.0 0.0 No-deviation no-solution-selection
148 1000 6 EnergyPurchasingEvaluationFunction RandomStrategy -8.658309204E9 -8.660629407E9 -8.658309204E9 -10.0 -10.0 -10.0 -8.66294961E9 2 2 600000 316 4640406.0 0.0 0.0 No-deviation no-solution-selection
149 1000 6 EnergyPurchasingEvaluationFunction RandomStrategy -8.653565906E9 -8.656610108833334E9 -8.653565906E9 -10.0 -10.0 -10.0 -8.66294961E9 6 6 600000 831 9383704.0 0.0 0.0 No-deviation no-solution-selection
150 1000 6 EnergyPurchasingEvaluationFunction RandomStrategy -8.651906608E9 -8.654475598272728E9 -8.650665739E9 -92353.0 -109518.5 -10.0 -8.66294961E9 11 11 600000 1580 1.2283871E7 0.0 0.0 No-deviation no-solution-selection
151 1000 6 EnergyPurchasingEvaluationFunction RandomStrategy -8.649116876E9 -8.6528755010625E9 -8.648383358E9 -153344.0 -212025.06666666668 -10.0 -8.66294961E9 16 16 600000 1880 1.4566252E7 0.0 0.0 No-deviation no-solution-selection
152 1000 6 EnergyPurchasingEvaluationFunction RandomStrategy -8.650038906E9 -8.652129048285715E9 -8.648340094E9 -373514.0 -280838.6 -10.0 -8.66294961E9 21 21 600000 2649 1.4609516E7 0.0 0.0 No-deviation no-solution-selection
153 1000 6 EnergyPurchasingEvaluationFunction RandomStrategy -8.64952305E9 -8.65159040576923E9 -8.648340094E9 -10.0 -293273.0 -10.0 -8.66294961E9 26 26 600000 3237 1.4609516E7 0.0 0.0 No-deviation no-solution-selection
105 1000 4 EnergyPurchasingEvaluationFunction LocalSearchStrategy -8.632234353E9 -8.633227434193548E9 -8.632234353E9 -10.0 -10.0 -10.0 -8.66294961E9 31 31 600000 954510 3.0715257E7 0.0 0.0 No-deviation no-solution-selection
154 1000 6 EnergyPurchasingEvaluationFunction RandomStrategy -8.649763141E9 -8.651179645419355E9 -8.647891027E9 -1443459.0 -355130.76666666666 -10.0 -8.66294961E9 31 31 600000 3481 1.5058583E7 0.0 0.0 No-deviation no-solution-selection
117 1000 5 EnergyPurchasingEvaluationFunction CoalitionValueBasedStrategy -8.632234327E9 -8.633698486428572E9 -8.632234327E9 -10.0 -10.0 -10.0 -8.66294961E9 21 21 600000 682404 3.0715283E7 0.0 0.0 No-deviation no-solution-selection
142 1000 6 EnergyPurchasingEvaluationFunction CoalitionValueBasedStrategy -8.632234514E9 -8.637377449166666E9 -8.632234514E9 -10.0 -10.0 -10.0 -8.66294961E9 6 6 600000 217562 3.0715096E7 0.0 0.0 No-deviation no-solution-selection
112 1000 4 EnergyPurchasingEvaluationFunction MixedStrategy.CoalitionValueBasedStrategy.1.0RandomStrategy.1.0 -8.638857569E9 -8.636685519161291E9 -8.633233979E9 -10.0 -12434.6 -10.0 -8.66294961E9 31 31 600000 811672 2.9715631E7 0.0 0.0 No-deviation no-solution-selection
155 1000 6 EnergyPurchasingEvaluationFunction LocalSearchStrategy -8.632376915E9 -8.6476632625E9 -8.632376915E9 -10.0 -10.0 -10.0 -8.66294961E9 2 2 600000 50862 3.0572695E7 0.0 0.0 No-deviation no-solution-selection
137 1000 5 EnergyPurchasingEvaluationFunction MixedStrategy.CoalitionValueBasedStrategy.1.0RandomStrategy.1.0 -8.637791032E9 -8.6376783713125E9 -8.634035865E9 -10.0 -19381.933333333334 -10.0 -8.66294961E9 16 16 600000 407001 2.8913745E7 0.0 0.0 No-deviation no-solution-selection
130 1000 5 EnergyPurchasingEvaluationFunction LocalSearchStrategy -8.632234327E9 -8.63415603625E9 -8.632234327E9 -10.0 -10.0 -10.0 -8.66294961E9 16 16 600000 582622 3.0715283E7 0.0 0.0 No-deviation no-solution-selection
162 1000 6 EnergyPurchasingEvaluationFunction MixedStrategy.CoalitionValueBasedStrategy.1.0RandomStrategy.1.0 -8.643833056E9 -8.653391333E9 -8.643833056E9 -10.0 -10.0 -10.0 -8.66294961E9 2 2 600000 22238 1.9116554E7 0.0 0.0 No-deviation no-solution-selection
118 1000 5 EnergyPurchasingEvaluationFunction CoalitionValueBasedStrategy -8.632234327E9 -8.633416917307692E9 -8.632234327E9 -10.0 -10.0 -10.0 -8.66294961E9 26 26 600000 827575 3.0715283E7 0.0 0.0 No-deviation no-solution-selection
131 1000 5 EnergyPurchasingEvaluationFunction LocalSearchStrategy -8.632234327E9 -8.633698486428572E9 -8.632234327E9 -10.0 -10.0 -10.0 -8.66294961E9 21 21 600000 688221 3.0715283E7 0.0 0.0 No-deviation no-solution-selection
163 1000 6 EnergyPurchasingEvaluationFunction MixedStrategy.CoalitionValueBasedStrategy.1.0RandomStrategy.1.0 -8.633565389E9 -8.640620156833334E9 -8.63336162E9 -10.0 -10.0 -10.0 -8.66294961E9 6 6 600000 110593 2.958799E7 0.0 0.0 No-deviation no-solution-selection
138 1000 5 EnergyPurchasingEvaluationFunction MixedStrategy.CoalitionValueBasedStrategy.1.0RandomStrategy.1.0 -8.635718179E9 -8.637135343904762E9 -8.633530969E9 -10.0 -14538.95 -10.0 -8.66294961E9 21 21 600000 550146 2.9418641E7 0.0 0.0 No-deviation no-solution-selection
143 1000 6 EnergyPurchasingEvaluationFunction CoalitionValueBasedStrategy -8.632234513E9 -8.63503975090909E9 -8.632234513E9 -10.0 -10.0 -10.0 -8.66294961E9 11 11 600000 401116 3.0715097E7 0.0 0.0 No-deviation no-solution-selection
156 1000 6 EnergyPurchasingEvaluationFunction LocalSearchStrategy -8.632234514E9 -8.637377449166666E9 -8.632234514E9 -10.0 -10.0 -10.0 -8.66294961E9 6 6 600000 216858 3.0715096E7 0.0 0.0 No-deviation no-solution-selection
169 1000 7 EnergyPurchasingEvaluationFunction CoalitionValueBasedStrategy -8.632280611E9 -8.6476151105E9 -8.632280611E9 -10.0 -10.0 -10.0 -8.66294961E9 2 2 600000 48405 3.0668999E7 0.0 0.0 No-deviation no-solution-selection
132 1000 5 EnergyPurchasingEvaluationFunction LocalSearchStrategy -8.632234327E9 -8.633416917307692E9 -8.632234327E9 -10.0 -10.0 -10.0 -8.66294961E9 26 26 600000 839279 3.0715283E7 0.0 0.0 No-deviation no-solution-selection
139 1000 5 EnergyPurchasingEvaluationFunction MixedStrategy.CoalitionValueBasedStrategy.1.0RandomStrategy.1.0 -8.634416797E9 -8.636903113653847E9 -8.633530969E9 -10.0 -11633.16 -10.0 -8.66294961E9 26 26 600000 671109 2.9418641E7 0.0 0.0 No-deviation no-solution-selection
119 1000 5 EnergyPurchasingEvaluationFunction CoalitionValueBasedStrategy -8.632234327E9 -8.633226176935484E9 -8.632234327E9 -10.0 -10.0 -10.0 -8.66294961E9 31 31 600000 1008918 3.0715283E7 0.0 0.0 No-deviation no-solution-selection
164 1000 6 EnergyPurchasingEvaluationFunction MixedStrategy.CoalitionValueBasedStrategy.1.0RandomStrategy.1.0 -8.634093676E9 -8.637989692181818E9 -8.63336162E9 -10.0 -10.0 -10.0 -8.66294961E9 11 11 600000 250311 2.958799E7 0.0 0.0 No-deviation no-solution-selection
144 1000 6 EnergyPurchasingEvaluationFunction CoalitionValueBasedStrategy -8.632234513E9 -8.6341631140625E9 -8.632234513E9 -10.0 -10.0 -10.0 -8.66294961E9 16 16 600000 601863 3.0715097E7 0.0 0.0 No-deviation no-solution-selection
157 1000 6 EnergyPurchasingEvaluationFunction LocalSearchStrategy -8.632234513E9 -8.63503975090909E9 -8.632234513E9 -10.0 -10.0 -10.0 -8.66294961E9 11 11 600000 408952 3.0715097E7 0.0 0.0 No-deviation no-solution-selection
176 1000 7 EnergyPurchasingEvaluationFunction RandomStrategy -8.658874318E9 -8.660911964E9 -8.658874318E9 -10.0 -10.0 -10.0 -8.66294961E9 2 2 600000 314 4075292.0 0.0 0.0 No-deviation no-solution-selection
177 1000 7 EnergyPurchasingEvaluationFunction RandomStrategy -8.652800685E9 -8.656750410333334E9 -8.652800685E9 -10.0 -10.0 -10.0 -8.66294961E9 6 6 600000 867 1.0148925E7 0.0 0.0 No-deviation no-solution-selection
178 1000 7 EnergyPurchasingEvaluationFunction RandomStrategy -8.652500975E9 -8.654522341636364E9 -8.651041641E9 -153344.0 -37301.7 -10.0 -8.66294961E9 11 11 600000 1485 1.1907969E7 0.0 0.0 No-deviation no-solution-selection
179 1000 7 EnergyPurchasingEvaluationFunction RandomStrategy -8.649307191E9 -8.653173107375E9 -8.647482167E9 -10.0 -88391.73333333334 -10.0 -8.66294961E9 16 16 600000 2041 1.5467443E7 0.0 0.0 No-deviation no-solution-selection
180 1000 7 EnergyPurchasingEvaluationFunction RandomStrategy -8.649965895E9 -8.652377764666666E9 -8.647482167E9 -219880.0 -115720.0 -10.0 -8.66294961E9 21 21 600000 2473 1.5467443E7 0.0 0.0 No-deviation no-solution-selection
181 1000 7 EnergyPurchasingEvaluationFunction RandomStrategy -8.650194371E9 -8.651875326807692E9 -8.647482167E9 -10.0 -156382.92 -10.0 -8.66294961E9 26 26 600000 2927 1.5467443E7 0.0 0.0 No-deviation no-solution-selection
182 1000 7 EnergyPurchasingEvaluationFunction RandomStrategy -8.649379585E9 -8.651376134870968E9 -8.646796941E9 -153344.0 -168414.33333333334 -10.0 -8.66294961E9 31 31 600000 3661 1.6152669E7 0.0 0.0 No-deviation no-solution-selection
170 1000 7 EnergyPurchasingEvaluationFunction CoalitionValueBasedStrategy -8.632234338E9 -8.637361278833334E9 -8.632234338E9 -10.0 -10.0 -10.0 -8.66294961E9 6 6 600000 189036 3.0715272E7 0.0 0.0 No-deviation no-solution-selection
140 1000 5 EnergyPurchasingEvaluationFunction MixedStrategy.CoalitionValueBasedStrategy.1.0RandomStrategy.1.0 -8.6339781E9 -8.636542130935484E9 -8.633530969E9 -10.0 -33074.933333333334 -10.0 -8.66294961E9 31 31 600000 829006 2.9418641E7 0.0 0.0 No-deviation no-solution-selection
133 1000 5 EnergyPurchasingEvaluationFunction LocalSearchStrategy -8.632234327E9 -8.633226176935484E9 -8.632234327E9 -10.0 -10.0 -10.0 -8.66294961E9 31 31 600000 1006610 3.0715283E7 0.0 0.0 No-deviation no-solution-selection
183 1000 7 EnergyPurchasingEvaluationFunction LocalSearchStrategy -8.632280611E9 -8.6476151105E9 -8.632280611E9 -10.0 -10.0 -10.0 -8.66294961E9 2 2 600000 53987 3.0668999E7 0.0 0.0 No-deviation no-solution-selection
165 1000 6 EnergyPurchasingEvaluationFunction MixedStrategy.CoalitionValueBasedStrategy.1.0RandomStrategy.1.0 -8.634262614E9 -8.6367183574375E9 -8.632532793E9 -10.0 -10.0 -10.0 -8.66294961E9 16 16 600000 392986 3.0416817E7 0.0 0.0 No-deviation no-solution-selection
145 1000 6 EnergyPurchasingEvaluationFunction CoalitionValueBasedStrategy -8.632234513E9 -8.633703923333334E9 -8.632234513E9 -10.0 -10.0 -10.0 -8.66294961E9 21 21 600000 781267 3.0715097E7 0.0 0.0 No-deviation no-solution-selection
184 1000 7 EnergyPurchasingEvaluationFunction LocalSearchStrategy -8.632234338E9 -8.637361278833334E9 -8.632234338E9 -10.0 -10.0 -10.0 -8.66294961E9 6 6 600000 207482 3.0715272E7 0.0 0.0 No-deviation no-solution-selection
158 1000 6 EnergyPurchasingEvaluationFunction LocalSearchStrategy -8.632234513E9 -8.6341631140625E9 -8.632234513E9 -10.0 -10.0 -10.0 -8.66294961E9 16 16 600000 657052 3.0715097E7 0.0 0.0 No-deviation no-solution-selection
190 1000 7 EnergyPurchasingEvaluationFunction MixedStrategy.CoalitionValueBasedStrategy.1.0RandomStrategy.1.0 -8.640019957E9 -8.6514847835E9 -8.640019957E9 -10.0 -10.0 -10.0 -8.66294961E9 2 2 600000 22205 2.2929653E7 0.0 0.0 No-deviation no-solution-selection
171 1000 7 EnergyPurchasingEvaluationFunction CoalitionValueBasedStrategy -8.632234335E9 -8.63503085E9 -8.632234335E9 -10.0 -10.0 -10.0 -8.66294961E9 11 11 600000 386374 3.0715275E7 0.0 0.0 No-deviation no-solution-selection
166 1000 6 EnergyPurchasingEvaluationFunction MixedStrategy.CoalitionValueBasedStrategy.1.0RandomStrategy.1.0 -8.634438389E9 -8.636789635952381E9 -8.632532793E9 -10.0 -22968.8 -10.0 -8.66294961E9 21 21 600000 536192 3.0416817E7 0.0 0.0 No-deviation no-solution-selection
191 1000 7 EnergyPurchasingEvaluationFunction MixedStrategy.CoalitionValueBasedStrategy.1.0RandomStrategy.1.0 -8.63445359E9 -8.641517597E9 -8.63445359E9 -10.0 -10.0 -10.0 -8.66294961E9 6 6 600000 113572 2.849602E7 0.0 0.0 No-deviation no-solution-selection
159 1000 6 EnergyPurchasingEvaluationFunction LocalSearchStrategy -8.632234513E9 -8.633703923333334E9 -8.632234513E9 -10.0 -10.0 -10.0 -8.66294961E9 21 21 600000 766409 3.0715097E7 0.0 0.0 No-deviation no-solution-selection
185 1000 7 EnergyPurchasingEvaluationFunction LocalSearchStrategy -8.632234335E9 -8.63503085E9 -8.632234335E9 -10.0 -10.0 -10.0 -8.66294961E9 11 11 600000 343575 3.0715275E7 0.0 0.0 No-deviation no-solution-selection
146 1000 6 EnergyPurchasingEvaluationFunction CoalitionValueBasedStrategy -8.632234513E9 -8.633421344423077E9 -8.632234513E9 -10.0 -10.0 -10.0 -8.66294961E9 26 26 600000 980571 3.0715097E7 0.0 0.0 No-deviation no-solution-selection
167 1000 6 EnergyPurchasingEvaluationFunction MixedStrategy.CoalitionValueBasedStrategy.1.0RandomStrategy.1.0 -8.635754388E9 -8.636427780038462E9 -8.632532793E9 -10.0 -18377.04 -10.0 -8.66294961E9 26 26 600000 689526 3.0416817E7 0.0 0.0 No-deviation no-solution-selection
197 1000 8 EnergyPurchasingEvaluationFunction CoalitionValueBasedStrategy -8.632308499E9 -8.6476290545E9 -8.632308499E9 -10.0 -10.0 -10.0 -8.66294961E9 2 2 600000 56480 3.0641111E7 0.0 0.0 No-deviation no-solution-selection
172 1000 7 EnergyPurchasingEvaluationFunction CoalitionValueBasedStrategy -8.632234335E9 -8.6341569390625E9 -8.632234335E9 -10.0 -10.0 -10.0 -8.66294961E9 16 16 600000 585305 3.0715275E7 0.0 0.0 No-deviation no-solution-selection
192 1000 7 EnergyPurchasingEvaluationFunction MixedStrategy.CoalitionValueBasedStrategy.1.0RandomStrategy.1.0 -8.636113154E9 -8.63826554890909E9 -8.633392277E9 -40511.0 -4060.1 -10.0 -8.66294961E9 11 11 600000 242773 2.9557333E7 0.0 0.0 No-deviation no-solution-selection
160 1000 6 EnergyPurchasingEvaluationFunction LocalSearchStrategy -8.632234513E9 -8.633421344423077E9 -8.632234513E9 -10.0 -10.0 -10.0 -8.66294961E9 26 26 600000 967429 3.0715097E7 0.0 0.0 No-deviation no-solution-selection
186 1000 7 EnergyPurchasingEvaluationFunction LocalSearchStrategy -8.632234335E9 -8.6341569390625E9 -8.632234335E9 -10.0 -10.0 -10.0 -8.66294961E9 16 16 600000 528890 3.0715275E7 0.0 0.0 No-deviation no-solution-selection
204 1000 8 EnergyPurchasingEvaluationFunction RandomStrategy -8.658414348E9 -8.660681979E9 -8.658414348E9 -10.0 -10.0 -10.0 -8.66294961E9 2 2 600000 331 4535262.0 0.0 0.0 No-deviation no-solution-selection
205 1000 8 EnergyPurchasingEvaluationFunction RandomStrategy -8.650010743E9 -8.655568652166666E9 -8.650010743E9 -92353.0 -18478.6 -10.0 -8.66294961E9 6 6 600000 960 1.2938867E7 0.0 0.0 No-deviation no-solution-selection
206 1000 8 EnergyPurchasingEvaluationFunction RandomStrategy -8.651447795E9 -8.653263893E9 -8.649023915E9 -161709.0 -98240.9 -10.0 -8.66294961E9 11 11 600000 1454 1.3925695E7 0.0 0.0 No-deviation no-solution-selection
207 1000 8 EnergyPurchasingEvaluationFunction RandomStrategy -8.65112833E9 -8.6525394430625E9 -8.649023915E9 -10.0 -98913.26666666666 -10.0 -8.66294961E9 16 16 600000 2236 1.3925695E7 0.0 0.0 No-deviation no-solution-selection
208 1000 8 EnergyPurchasingEvaluationFunction RandomStrategy -8.650266626E9 -8.652182021238094E9 -8.649023915E9 -397009.0 -106568.4 -10.0 -8.66294961E9 21 21 600000 2545 1.3925695E7 0.0 0.0 No-deviation no-solution-selection
168 1000 6 EnergyPurchasingEvaluationFunction MixedStrategy.CoalitionValueBasedStrategy.1.0RandomStrategy.1.0 -8.634076165E9 -8.636384460032259E9 -8.632532793E9 -10.0 -15315.866666666667 -10.0 -8.66294961E9 31 31 600000 830903 3.0416817E7 0.0 0.0 No-deviation no-solution-selection
209 1000 8 EnergyPurchasingEvaluationFunction RandomStrategy -8.650342172E9 -8.651814184307692E9 -8.649023915E9 -576386.0 -157481.96 -10.0 -8.66294961E9 26 26 600000 3312 1.3925695E7 0.0 0.0 No-deviation no-solution-selection
210 1000 8 EnergyPurchasingEvaluationFunction RandomStrategy -8.648107023E9 -8.651353522903225E9 -8.647900696E9 -417747.0 -159704.73333333334 -10.0 -8.66294961E9 31 31 600000 4016 1.5048914E7 0.0 0.0 No-deviation no-solution-selection
147 1000 6 EnergyPurchasingEvaluationFunction CoalitionValueBasedStrategy -8.632234513E9 -8.63322992E9 -8.632234513E9 -10.0 -10.0 -10.0 -8.66294961E9 31 31 600000 1173905 3.0715097E7 0.0 0.0 No-deviation no-solution-selection
198 1000 8 EnergyPurchasingEvaluationFunction CoalitionValueBasedStrategy -8.63223458E9 -8.637366084666666E9 -8.63223458E9 -10.0 -10.0 -10.0 -8.66294961E9 6 6 600000 233774 3.071503E7 0.0 0.0 No-deviation no-solution-selection
193 1000 7 EnergyPurchasingEvaluationFunction MixedStrategy.CoalitionValueBasedStrategy.1.0RandomStrategy.1.0 -8.636174677E9 -8.637319600125E9 -8.633392277E9 -10.0 -2710.0666666666666 -10.0 -8.66294961E9 16 16 600000 379851 2.9557333E7 0.0 0.0 No-deviation no-solution-selection
211 1000 8 EnergyPurchasingEvaluationFunction LocalSearchStrategy -8.632308499E9 -8.6476290545E9 -8.632308499E9 -10.0 -10.0 -10.0 -8.66294961E9 2 2 600000 54112 3.0641111E7 0.0 0.0 No-deviation no-solution-selection
173 1000 7 EnergyPurchasingEvaluationFunction CoalitionValueBasedStrategy -8.632234335E9 -8.633699176190475E9 -8.632234335E9 -10.0 -10.0 -10.0 -8.66294961E9 21 21 600000 769671 3.0715275E7 0.0 0.0 No-deviation no-solution-selection
187 1000 7 EnergyPurchasingEvaluationFunction LocalSearchStrategy -8.632234335E9 -8.633699176190475E9 -8.632234335E9 -10.0 -10.0 -10.0 -8.66294961E9 21 21 600000 704920 3.0715275E7 0.0 0.0 No-deviation no-solution-selection
161 1000 6 EnergyPurchasingEvaluationFunction LocalSearchStrategy -8.632234513E9 -8.63322992E9 -8.632234513E9 -10.0 -10.0 -10.0 -8.66294961E9 31 31 600000 1177610 3.0715097E7 0.0 0.0 No-deviation no-solution-selection
218 1000 8 EnergyPurchasingEvaluationFunction MixedStrategy.CoalitionValueBasedStrategy.1.0RandomStrategy.1.0 -8.642324153E9 -8.6526368815E9 -8.642324153E9 -10.0 -10.0 -10.0 -8.66294961E9 2 2 600000 22193 2.0625457E7 0.0 0.0 No-deviation no-solution-selection
212 1000 8 EnergyPurchasingEvaluationFunction LocalSearchStrategy -8.63223458E9 -8.637366084666666E9 -8.63223458E9 -10.0 -10.0 -10.0 -8.66294961E9 6 6 600000 213196 3.071503E7 0.0 0.0 No-deviation no-solution-selection
194 1000 7 EnergyPurchasingEvaluationFunction MixedStrategy.CoalitionValueBasedStrategy.1.0RandomStrategy.1.0 -8.635693323E9 -8.637124111428572E9 -8.633392277E9 -10.0 -14566.05 -10.0 -8.66294961E9 21 21 600000 538939 2.9557333E7 0.0 0.0 No-deviation no-solution-selection
174 1000 7 EnergyPurchasingEvaluationFunction CoalitionValueBasedStrategy -8.632234335E9 -8.633417475961538E9 -8.632234335E9 -10.0 -10.0 -10.0 -8.66294961E9 26 26 600000 869682 3.0715275E7 0.0 0.0 No-deviation no-solution-selection
199 1000 8 EnergyPurchasingEvaluationFunction CoalitionValueBasedStrategy -8.63223458E9 -8.635033582545454E9 -8.63223458E9 -10.0 -10.0 -10.0 -8.66294961E9 11 11 600000 429902 3.071503E7 0.0 0.0 No-deviation no-solution-selection
219 1000 8 EnergyPurchasingEvaluationFunction MixedStrategy.CoalitionValueBasedStrategy.1.0RandomStrategy.1.0 -8.634074952E9 -8.641918093333334E9 -8.634074952E9 -10.0 -10.0 -10.0 -8.66294961E9 6 6 600000 124038 2.8874658E7 0.0 0.0 No-deviation no-solution-selection
225 1000 9 EnergyPurchasingEvaluationFunction CoalitionValueBasedStrategy -8.632273425E9 -8.6476115175E9 -8.632273425E9 -10.0 -10.0 -10.0 -8.66294961E9 2 2 600000 49931 3.0676185E7 0.0 0.0 No-deviation no-solution-selection
175 1000 7 EnergyPurchasingEvaluationFunction CoalitionValueBasedStrategy -8.632234335E9 -8.633226646774193E9 -8.632234335E9 -10.0 -10.0 -10.0 -8.66294961E9 31 31 600000 1016703 3.0715275E7 0.0 0.0 No-deviation no-solution-selection
195 1000 7 EnergyPurchasingEvaluationFunction MixedStrategy.CoalitionValueBasedStrategy.1.0RandomStrategy.1.0 -8.636896505E9 -8.636933687846153E9 -8.633392277E9 -10.0 -16325.44 -10.0 -8.66294961E9 26 26 600000 680781 2.9557333E7 0.0 0.0 No-deviation no-solution-selection
213 1000 8 EnergyPurchasingEvaluationFunction LocalSearchStrategy -8.63223458E9 -8.635033582545454E9 -8.63223458E9 -10.0 -10.0 -10.0 -8.66294961E9 11 11 600000 421647 3.071503E7 0.0 0.0 No-deviation no-solution-selection
220 1000 8 EnergyPurchasingEvaluationFunction MixedStrategy.CoalitionValueBasedStrategy.1.0RandomStrategy.1.0 -8.63498139E9 -8.638669087272728E9 -8.63383077E9 -10.0 -10.0 -10.0 -8.66294961E9 11 11 600000 262565 2.911884E7 0.0 0.0 No-deviation no-solution-selection
188 1000 7 EnergyPurchasingEvaluationFunction LocalSearchStrategy -8.632234335E9 -8.633417475961538E9 -8.632234335E9 -10.0 -10.0 -10.0 -8.66294961E9 26 26 600000 955903 3.0715275E7 0.0 0.0 No-deviation no-solution-selection
200 1000 8 EnergyPurchasingEvaluationFunction CoalitionValueBasedStrategy -8.63223458E9 -8.63415889425E9 -8.63223458E9 -10.0 -10.0 -10.0 -8.66294961E9 16 16 600000 628574 3.071503E7 0.0 0.0 No-deviation no-solution-selection
232 1000 9 EnergyPurchasingEvaluationFunction RandomStrategy -8.658179528E9 -8.660564569E9 -8.658179528E9 -10.0 -10.0 -10.0 -8.66294961E9 2 2 600000 399 4770082.0 0.0 0.0 No-deviation no-solution-selection
233 1000 9 EnergyPurchasingEvaluationFunction RandomStrategy -8.652054474E9 -8.656030348166666E9 -8.652054474E9 -10.0 -10.0 -10.0 -8.66294961E9 6 6 600000 925 1.0895136E7 0.0 0.0 No-deviation no-solution-selection
234 1000 9 EnergyPurchasingEvaluationFunction RandomStrategy -8.651525618E9 -8.654220016727272E9 -8.651525618E9 -10.0 -21998.1 -10.0 -8.66294961E9 11 11 600000 1443 1.1423992E7 0.0 0.0 No-deviation no-solution-selection
235 1000 9 EnergyPurchasingEvaluationFunction RandomStrategy -8.649936606E9 -8.6532579583125E9 -8.649936606E9 -705759.0 -117353.33333333333 -10.0 -8.66294961E9 16 16 600000 1833 1.3013004E7 0.0 0.0 No-deviation no-solution-selection
236 1000 9 EnergyPurchasingEvaluationFunction RandomStrategy -8.648649921E9 -8.652540700904762E9 -8.648649921E9 -273527.0 -207486.9 -10.0 -8.66294961E9 21 21 600000 2716 1.4299689E7 0.0 0.0 No-deviation no-solution-selection
237 1000 9 EnergyPurchasingEvaluationFunction RandomStrategy -8.649823718E9 -8.651981792807692E9 -8.648649921E9 -10.0 -214723.96 -10.0 -8.66294961E9 26 26 600000 3025 1.4299689E7 0.0 0.0 No-deviation no-solution-selection
238 1000 9 EnergyPurchasingEvaluationFunction RandomStrategy -8.649749795E9 -8.651572979516129E9 -8.648601082E9 -153344.0 -276874.23333333334 -10.0 -8.66294961E9 31 31 600000 3644 1.4348528E7 0.0 0.0 No-deviation no-solution-selection
239 1000 9 EnergyPurchasingEvaluationFunction LocalSearchStrategy -8.632273425E9 -8.6476115175E9 -8.632273425E9 -10.0 -10.0 -10.0 -8.66294961E9 2 2 600000 46776 3.0676185E7 0.0 0.0 No-deviation no-solution-selection
226 1000 9 EnergyPurchasingEvaluationFunction CoalitionValueBasedStrategy -8.632234368E9 -8.6373600975E9 -8.632234368E9 -10.0 -10.0 -10.0 -8.66294961E9 6 6 600000 212259 3.0715242E7 0.0 0.0 No-deviation no-solution-selection
196 1000 7 EnergyPurchasingEvaluationFunction MixedStrategy.CoalitionValueBasedStrategy.1.0RandomStrategy.1.0 -8.635744721E9 -8.63693020032258E9 -8.633392277E9 -10.0 -18996.166666666668 -10.0 -8.66294961E9 31 31 600000 823046 2.9557333E7 0.0 0.0 No-deviation no-solution-selection
189 1000 7 EnergyPurchasingEvaluationFunction LocalSearchStrategy -8.632234335E9 -8.633226646774193E9 -8.632234335E9 -10.0 -10.0 -10.0 -8.66294961E9 31 31 600000 1020700 3.0715275E7 0.0 0.0 No-deviation no-solution-selection
221 1000 8 EnergyPurchasingEvaluationFunction MixedStrategy.CoalitionValueBasedStrategy.1.0RandomStrategy.1.0 -8.635579566E9 -8.63778778225E9 -8.633773645E9 -10.0 -10.0 -10.0 -8.66294961E9 16 16 600000 394258 2.9175965E7 0.0 0.0 No-deviation no-solution-selection
201 1000 8 EnergyPurchasingEvaluationFunction CoalitionValueBasedStrategy -8.63223458E9 -8.633700724190475E9 -8.63223458E9 -10.0 -10.0 -10.0 -8.66294961E9 21 21 600000 816164 3.071503E7 0.0 0.0 No-deviation no-solution-selection
214 1000 8 EnergyPurchasingEvaluationFunction LocalSearchStrategy -8.63223458E9 -8.63415889425E9 -8.63223458E9 -10.0 -10.0 -10.0 -8.66294961E9 16 16 600000 678003 3.071503E7 0.0 0.0 No-deviation no-solution-selection
246 1000 9 EnergyPurchasingEvaluationFunction MixedStrategy.CoalitionValueBasedStrategy.1.0RandomStrategy.1.0 -8.639290905E9 -8.6511202575E9 -8.639290905E9 -10.0 -10.0 -10.0 -8.66294961E9 2 2 600000 23220 2.3658705E7 0.0 0.0 No-deviation no-solution-selection
240 1000 9 EnergyPurchasingEvaluationFunction LocalSearchStrategy -8.632234368E9 -8.6373600975E9 -8.632234368E9 -10.0 -10.0 -10.0 -8.66294961E9 6 6 600000 188834 3.0715242E7 0.0 0.0 No-deviation no-solution-selection
222 1000 8 EnergyPurchasingEvaluationFunction MixedStrategy.CoalitionValueBasedStrategy.1.0RandomStrategy.1.0 -8.634214032E9 -8.636990951952381E9 -8.633266753E9 -10.0 -10.0 -10.0 -8.66294961E9 21 21 600000 543776 2.9682857E7 0.0 0.0 No-deviation no-solution-selection
227 1000 9 EnergyPurchasingEvaluationFunction CoalitionValueBasedStrategy -8.632234367E9 -8.63503022E9 -8.632234367E9 -10.0 -10.0 -10.0 -8.66294961E9 11 11 600000 398327 3.0715243E7 0.0 0.0 No-deviation no-solution-selection
247 1000 9 EnergyPurchasingEvaluationFunction MixedStrategy.CoalitionValueBasedStrategy.1.0RandomStrategy.1.0 -8.633911652E9 -8.640960781166666E9 -8.633911652E9 -10.0 -10.0 -10.0 -8.66294961E9 6 6 600000 115318 2.9037958E7 0.0 0.0 No-deviation no-solution-selection
202 1000 8 EnergyPurchasingEvaluationFunction CoalitionValueBasedStrategy -8.63223458E9 -8.633418773384615E9 -8.63223458E9 -10.0 -10.0 -10.0 -8.66294961E9 26 26 600000 999711 3.071503E7 0.0 0.0 No-deviation no-solution-selection
223 1000 8 EnergyPurchasingEvaluationFunction MixedStrategy.CoalitionValueBasedStrategy.1.0RandomStrategy.1.0 -8.634346367E9 -8.63661861176923E9 -8.633266753E9 -10.0 -10.0 -10.0 -8.66294961E9 26 26 600000 698273 2.9682857E7 0.0 0.0 No-deviation no-solution-selection
215 1000 8 EnergyPurchasingEvaluationFunction LocalSearchStrategy -8.63223458E9 -8.633700724190475E9 -8.63223458E9 -10.0 -10.0 -10.0 -8.66294961E9 21 21 600000 916492 3.071503E7 0.0 0.0 No-deviation no-solution-selection
241 1000 9 EnergyPurchasingEvaluationFunction LocalSearchStrategy -8.632234367E9 -8.63503022E9 -8.632234367E9 -10.0 -10.0 -10.0 -8.66294961E9 11 11 600000 392471 3.0715243E7 0.0 0.0 No-deviation no-solution-selection
253 1000 10 EnergyPurchasingEvaluationFunction CoalitionValueBasedStrategy -8.632292345E9 -8.6476209775E9 -8.632292345E9 -10.0 -10.0 -10.0 -8.66294961E9 2 2 600000 50609 3.0657265E7 0.0 0.0 No-deviation no-solution-selection
248 1000 9 EnergyPurchasingEvaluationFunction MixedStrategy.CoalitionValueBasedStrategy.1.0RandomStrategy.1.0 -8.634759347E9 -8.638546904272728E9 -8.633911652E9 -10.0 -10.0 -10.0 -8.66294961E9 11 11 600000 249850 2.9037958E7 0.0 0.0 No-deviation no-solution-selection
228 1000 9 EnergyPurchasingEvaluationFunction CoalitionValueBasedStrategy -8.632234367E9 -8.6341565159375E9 -8.632234367E9 -10.0 -10.0 -10.0 -8.66294961E9 16 16 600000 617521 3.0715243E7 0.0 0.0 No-deviation no-solution-selection
216 1000 8 EnergyPurchasingEvaluationFunction LocalSearchStrategy -8.63223458E9 -8.633418773384615E9 -8.63223458E9 -10.0 -10.0 -10.0 -8.66294961E9 26 26 600000 1018980 3.071503E7 0.0 0.0 No-deviation no-solution-selection
224 1000 8 EnergyPurchasingEvaluationFunction MixedStrategy.CoalitionValueBasedStrategy.1.0RandomStrategy.1.0 -8.635977027E9 -8.636404346290323E9 -8.633266753E9 -10.0 -10.0 -10.0 -8.66294961E9 31 31 600000 842803 2.9682857E7 0.0 0.0 No-deviation no-solution-selection
260 1000 10 EnergyPurchasingEvaluationFunction RandomStrategy -8.658463479E9 -8.6607065445E9 -8.658463479E9 -10.0 -10.0 -10.0 -8.66294961E9 2 2 600000 340 4486131.0 0.0 0.0 No-deviation no-solution-selection
261 1000 10 EnergyPurchasingEvaluationFunction RandomStrategy -8.651315701E9 -8.656159872166666E9 -8.651315701E9 -10.0 -10.0 -10.0 -8.66294961E9 6 6 600000 806 1.1633909E7 0.0 0.0 No-deviation no-solution-selection
262 1000 10 EnergyPurchasingEvaluationFunction RandomStrategy -8.652426764E9 -8.65410875490909E9 -8.651296645E9 -258327.0 -25841.7 -10.0 -8.66294961E9 11 11 600000 1363 1.1652965E7 0.0 0.0 No-deviation no-solution-selection
263 1000 10 EnergyPurchasingEvaluationFunction RandomStrategy -8.65090475E9 -8.653108744625E9 -8.650473933E9 -153344.0 -71070.06666666667 -10.0 -8.66294961E9 16 16 600000 2022 1.2475677E7 0.0 0.0 No-deviation no-solution-selection
264 1000 10 EnergyPurchasingEvaluationFunction RandomStrategy -8.650089142E9 -8.652370896571428E9 -8.649287331E9 -561731.0 -123395.8 -10.0 -8.66294961E9 21 21 600000 2644 1.3662279E7 0.0 0.0 No-deviation no-solution-selection
265 1000 10 EnergyPurchasingEvaluationFunction RandomStrategy -8.649481134E9 -8.651955874846153E9 -8.648886771E9 -378231.0 -192907.96 -10.0 -8.66294961E9 26 26 600000 2857 1.4062839E7 0.0 0.0 No-deviation no-solution-selection
266 1000 10 EnergyPurchasingEvaluationFunction RandomStrategy -8.648626967E9 -8.651521247935484E9 -8.6483582E9 -92364.0 -189275.16666666666 -10.0 -8.66294961E9 31 31 600000 3667 1.459141E7 0.0 0.0 No-deviation no-solution-selection
249 1000 9 EnergyPurchasingEvaluationFunction MixedStrategy.CoalitionValueBasedStrategy.1.0RandomStrategy.1.0 -8.635377001E9 -8.6373631985E9 -8.633383146E9 -10.0 -10.0 -10.0 -8.66294961E9 16 16 600000 389934 2.9566464E7 0.0 0.0 No-deviation no-solution-selection
229 1000 9 EnergyPurchasingEvaluationFunction CoalitionValueBasedStrategy -8.632234367E9 -8.633698861428572E9 -8.632234367E9 -10.0 -10.0 -10.0 -8.66294961E9 21 21 600000 730025 3.0715243E7 0.0 0.0 No-deviation no-solution-selection
254 1000 10 EnergyPurchasingEvaluationFunction CoalitionValueBasedStrategy -8.632234486E9 -8.637363326333334E9 -8.632234486E9 -10.0 -10.0 -10.0 -8.66294961E9 6 6 600000 211882 3.0715124E7 0.0 0.0 No-deviation no-solution-selection
267 1000 10 EnergyPurchasingEvaluationFunction LocalSearchStrategy -8.632292345E9 -8.6476209775E9 -8.632292345E9 -10.0 -10.0 -10.0 -8.66294961E9 2 2 600000 54414 3.0657265E7 0.0 0.0 No-deviation no-solution-selection
242 1000 9 EnergyPurchasingEvaluationFunction LocalSearchStrategy -8.632234367E9 -8.6341565159375E9 -8.632234367E9 -10.0 -10.0 -10.0 -8.66294961E9 16 16 600000 611411 3.0715243E7 0.0 0.0 No-deviation no-solution-selection
203 1000 8 EnergyPurchasingEvaluationFunction CoalitionValueBasedStrategy -8.63223458E9 -8.633227774451612E9 -8.63223458E9 -10.0 -10.0 -10.0 -8.66294961E9 31 31 600000 1229948 3.071503E7 0.0 0.0 No-deviation no-solution-selection
243 1000 9 EnergyPurchasingEvaluationFunction LocalSearchStrategy -8.632234367E9 -8.633698861428572E9 -8.632234367E9 -10.0 -10.0 -10.0 -8.66294961E9 21 21 600000 706934 3.0715243E7 0.0 0.0 No-deviation no-solution-selection
274 1000 10 EnergyPurchasingEvaluationFunction MixedStrategy.CoalitionValueBasedStrategy.1.0RandomStrategy.1.0 -8.640672593E9 -8.6518111015E9 -8.640672593E9 -10.0 -10.0 -10.0 -8.66294961E9 2 2 600000 21014 2.2277017E7 0.0 0.0 No-deviation no-solution-selection
217 1000 8 EnergyPurchasingEvaluationFunction LocalSearchStrategy -8.63223458E9 -8.633227774451612E9 -8.63223458E9 -10.0 -10.0 -10.0 -8.66294961E9 31 31 600000 1241953 3.071503E7 0.0 0.0 No-deviation no-solution-selection
230 1000 9 EnergyPurchasingEvaluationFunction CoalitionValueBasedStrategy -8.632234367E9 -8.633417227884615E9 -8.632234367E9 -10.0 -10.0 -10.0 -8.66294961E9 26 26 600000 875592 3.0715243E7 0.0 0.0 No-deviation no-solution-selection
250 1000 9 EnergyPurchasingEvaluationFunction MixedStrategy.CoalitionValueBasedStrategy.1.0RandomStrategy.1.0 -8.635168136E9 -8.636799340047619E9 -8.633383146E9 -10.0 -22968.8 -10.0 -8.66294961E9 21 21 600000 561544 2.9566464E7 0.0 0.0 No-deviation no-solution-selection
268 1000 10 EnergyPurchasingEvaluationFunction LocalSearchStrategy -8.632234486E9 -8.637363326333334E9 -8.632234486E9 -10.0 -10.0 -10.0 -8.66294961E9 6 6 600000 205006 3.0715124E7 0.0 0.0 No-deviation no-solution-selection
255 1000 10 EnergyPurchasingEvaluationFunction CoalitionValueBasedStrategy -8.632234485E9 -8.635032035E9 -8.632234485E9 -10.0 -10.0 -10.0 -8.66294961E9 11 11 600000 394243 3.0715125E7 0.0 0.0 No-deviation no-solution-selection
275 1000 10 EnergyPurchasingEvaluationFunction MixedStrategy.CoalitionValueBasedStrategy.1.0RandomStrategy.1.0 -8.638700429E9 -8.640862668E9 -8.633524645E9 -10.0 -10.0 -10.0 -8.66294961E9 6 6 600000 114837 2.9424965E7 0.0 0.0 No-deviation no-solution-selection
244 1000 9 EnergyPurchasingEvaluationFunction LocalSearchStrategy -8.632234367E9 -8.633417227884615E9 -8.632234367E9 -10.0 -10.0 -10.0 -8.66294961E9 26 26 600000 874053 3.0715243E7 0.0 0.0 No-deviation no-solution-selection
251 1000 9 EnergyPurchasingEvaluationFunction MixedStrategy.CoalitionValueBasedStrategy.1.0RandomStrategy.1.0 -8.640271637E9 -8.636628459E9 -8.632918242E9 -10.0 -18377.04 -10.0 -8.66294961E9 26 26 600000 660115 3.0031368E7 0.0 0.0 No-deviation no-solution-selection
269 1000 10 EnergyPurchasingEvaluationFunction LocalSearchStrategy -8.632234485E9 -8.635032035E9 -8.632234485E9 -10.0 -10.0 -10.0 -8.66294961E9 11 11 600000 375223 3.0715125E7 0.0 0.0 No-deviation no-solution-selection
256 1000 10 EnergyPurchasingEvaluationFunction CoalitionValueBasedStrategy -8.632234485E9 -8.634157800625E9 -8.632234485E9 -10.0 -10.0 -10.0 -8.66294961E9 16 16 600000 552933 3.0715125E7 0.0 0.0 No-deviation no-solution-selection
276 1000 10 EnergyPurchasingEvaluationFunction MixedStrategy.CoalitionValueBasedStrategy.1.0RandomStrategy.1.0 -8.63495387E9 -8.638384554363636E9 -8.633524645E9 -10.0 -10.0 -10.0 -8.66294961E9 11 11 600000 233009 2.9424965E7 0.0 0.0 No-deviation no-solution-selection
231 1000 9 EnergyPurchasingEvaluationFunction CoalitionValueBasedStrategy -8.632234367E9 -8.633226443870968E9 -8.632234367E9 -10.0 -10.0 -10.0 -8.66294961E9 31 31 600000 1124770 3.0715243E7 0.0 0.0 No-deviation no-solution-selection
252 1000 9 EnergyPurchasingEvaluationFunction MixedStrategy.CoalitionValueBasedStrategy.1.0RandomStrategy.1.0 -8.636451598E9 -8.636242678258064E9 -8.632823926E9 -10.0 -48158.46666666667 -10.0 -8.66294961E9 31 31 600000 762974 3.0125684E7 0.0 0.0 No-deviation no-solution-selection
245 1000 9 EnergyPurchasingEvaluationFunction LocalSearchStrategy -8.632234367E9 -8.633226443870968E9 -8.632234367E9 -10.0 -10.0 -10.0 -8.66294961E9 31 31 600000 987496 3.0715243E7 0.0 0.0 No-deviation no-solution-selection
270 1000 10 EnergyPurchasingEvaluationFunction LocalSearchStrategy -8.632234485E9 -8.634157800625E9 -8.632234485E9 -10.0 -10.0 -10.0 -8.66294961E9 16 16 600000 505007 3.0715125E7 0.0 0.0 No-deviation no-solution-selection
277 1000 10 EnergyPurchasingEvaluationFunction MixedStrategy.CoalitionValueBasedStrategy.1.0RandomStrategy.1.0 -8.636050626E9 -8.6377388969375E9 -8.633524645E9 -839865.0 -56000.333333333336 -10.0 -8.66294961E9 16 16 600000 356465 2.9424965E7 0.0 0.0 No-deviation no-solution-selection
257 1000 10 EnergyPurchasingEvaluationFunction CoalitionValueBasedStrategy -8.632234485E9 -8.633699868333334E9 -8.632234485E9 -10.0 -10.0 -10.0 -8.66294961E9 21 21 600000 747430 3.0715125E7 0.0 0.0 No-deviation no-solution-selection
278 1000 10 EnergyPurchasingEvaluationFunction MixedStrategy.CoalitionValueBasedStrategy.1.0RandomStrategy.1.0 -8.633851346E9 -8.63715139E9 -8.633524645E9 -10.0 -42002.75 -10.0 -8.66294961E9 21 21 600000 444447 2.9424965E7 0.0 0.0 No-deviation no-solution-selection
271 1000 10 EnergyPurchasingEvaluationFunction LocalSearchStrategy -8.632234485E9 -8.633699868333334E9 -8.632234485E9 -10.0 -10.0 -10.0 -8.66294961E9 21 21 600000 616332 3.0715125E7 0.0 0.0 No-deviation no-solution-selection
258 1000 10 EnergyPurchasingEvaluationFunction CoalitionValueBasedStrategy -8.632234485E9 -8.633418063846153E9 -8.632234485E9 -10.0 -10.0 -10.0 -8.66294961E9 26 26 600000 781858 3.0715125E7 0.0 0.0 No-deviation no-solution-selection
279 1000 10 EnergyPurchasingEvaluationFunction MixedStrategy.CoalitionValueBasedStrategy.1.0RandomStrategy.1.0 -8.639010689E9 -8.6368729565E9 -8.633174109E9 -10.0 -33604.2 -10.0 -8.66294961E9 26 26 600000 553190 2.9775501E7 0.0 0.0 No-deviation no-solution-selection
259 1000 10 EnergyPurchasingEvaluationFunction CoalitionValueBasedStrategy -8.632234485E9 -8.633227164032259E9 -8.632234485E9 -10.0 -10.0 -10.0 -8.66294961E9 31 31 600000 853658 3.0715125E7 0.0 0.0 No-deviation no-solution-selection
280 1000 10 EnergyPurchasingEvaluationFunction MixedStrategy.CoalitionValueBasedStrategy.1.0RandomStrategy.1.0 -8.63444029E9 -8.636630964064516E9 -8.633174109E9 -10.0 -28005.166666666668 -10.0 -8.66294961E9 31 31 600000 571702 2.9775501E7 0.0 0.0 No-deviation no-solution-selection
272 1000 10 EnergyPurchasingEvaluationFunction LocalSearchStrategy -8.632234485E9 -8.633418063846153E9 -8.632234485E9 -10.0 -10.0 -10.0 -8.66294961E9 26 26 600000 739029 3.0715125E7 0.0 0.0 No-deviation no-solution-selection
273 1000 10 EnergyPurchasingEvaluationFunction LocalSearchStrategy -8.632234485E9 -8.633227164032259E9 -8.632234485E9 -10.0 -10.0 -10.0 -8.66294961E9 31 31 600000 776462 3.0715125E7 0.0 0.0 No-deviation no-solution-selection
