1 20 1 MarketBasedSizePenalizedEvaluationFunction CoalitionValueBasedStrategy 31607.0 26626.296296296296 31954.0 9171.0 8958.5 13858.0 0.0 27 27 5000 31954.0 0.6666666666666666 0.0 increasing-marginal-contribution
2 20 1 MarketBasedSizePenalizedEvaluationFunction LocalSearchStrategy 32017.0 26641.48148148148 32017.0 9171.0 8958.5 13858.0 0.0 27 27 5000 32017.0 0.6666666666666666 0.0 increasing-marginal-contribution
4 20 1 EnergyPurchasingEvaluationFunction LocalSearchStrategy -3.0323342E7 -3.032526505882353E7 -3.0323336E7 -3839366.0 -3267273.5625 -944547.0 -3.0348075E7 17 17 5000 24739.0 0.6666666666666666 0.0 increasing-marginal-contribution
3 20 1 EnergyPurchasingEvaluationFunction CoalitionValueBasedStrategy -3.0323342E7 -3.032526505882353E7 -3.0323336E7 -3839366.0 -3267273.5625 -944547.0 -3.0348075E7 17 17 5000 24739.0 0.6666666666666666 0.0 increasing-marginal-contribution
6 1000 1 MarketBasedSizePenalizedEvaluationFunction LocalSearchStrategy 1851988.0 1750085.9473684211 1880604.0 12101.0 10955.166666666666 15382.0 0.0 19 19 600000 1880604.0 0.9840182648401826 0.0 increasing-marginal-contribution
5 1000 1 MarketBasedSizePenalizedEvaluationFunction CoalitionValueBasedStrategy 1874575.0 1739145.6470588236 1880604.0 15382.0 10811.9375 15382.0 0.0 17 17 600000 1880604.0 0.9840182648401826 0.0 increasing-marginal-contribution
8 1000 1 EnergyPurchasingEvaluationFunction LocalSearchStrategy -8.632224471E9 -8.6364284357E9 -8.632224471E9 -755132.0 -178127.55555555556 -11737.0 -8.662942917E9 10 10 600000 3.0718446E7 0.625531914893617 0.0 increasing-marginal-contribution
7 1000 1 EnergyPurchasingEvaluationFunction CoalitionValueBasedStrategy -8.632326304E9 -8.636096174545454E9 -8.632326304E9 -145804.0 -113962.6 -11737.0 -8.662942917E9 11 11 600000 3.0616613E7 0.7007874015748031 0.0 increasing-marginal-contribution
25 20 2 MarketBasedSizePenalizedEvaluationFunction CoalitionValueBasedStrategy 28713.0 28428.882716049382 34091.0 6500.0 5452.509316770186 11892.0 0.0 162 162 5000 34091.0 0.6666666666666666 0.0 increasing-marginal-contribution
26 20 2 MarketBasedSizePenalizedEvaluationFunction LocalSearchStrategy 27844.0 28528.775956284153 34091.0 8411.0 5660.076923076923 11892.0 0.0 183 183 5000 34091.0 0.6666666666666666 0.0 increasing-marginal-contribution
27 20 2 EnergyPurchasingEvaluationFunction CoalitionValueBasedStrategy -3.0323336E7 -3.032420542016807E7 -3.0323329E7 -3839366.0 -3687300.6694915253 -29195.0 -3.0348075E7 119 119 5000 24746.0 1.0 0.0 increasing-marginal-contribution
28 20 2 EnergyPurchasingEvaluationFunction LocalSearchStrategy -3.0323336E7 -3.0324184237704918E7 -3.0323329E7 -3839366.0 -3687723.1570247933 -29195.0 -3.0348075E7 122 122 5000 24746.0 1.0 0.0 increasing-marginal-contribution
10 2000 1 MarketBasedSizePenalizedEvaluationFunction LocalSearchStrategy 3802550.0 3362314.6 3802550.0 11321.0 10654.555555555555 11321.0 0.0 10 10 1200000 3802550.0 0.9710467706013363 0.0 increasing-marginal-contribution
9 2000 1 MarketBasedSizePenalizedEvaluationFunction CoalitionValueBasedStrategy 3827691.0 3319979.888888889 3827691.0 11321.0 10571.25 11321.0 0.0 9 9 1200000 3827691.0 0.9650900900900901 0.0 increasing-marginal-contribution
29 1000 2 MarketBasedSizePenalizedEvaluationFunction CoalitionValueBasedStrategy 1857169.0 1727558.611111111 1857169.0 11731.0 11518.529411764706 13432.0 0.0 18 18 600000 1857169.0 0.974477958236659 0.0 increasing-marginal-contribution
30 1000 2 MarketBasedSizePenalizedEvaluationFunction LocalSearchStrategy 1860457.0 1727741.2777777778 1860457.0 11731.0 11518.529411764706 13432.0 0.0 18 18 600000 1860457.0 0.9697674418604652 0.0 increasing-marginal-contribution
31 1000 2 EnergyPurchasingEvaluationFunction CoalitionValueBasedStrategy -8.632225262E9 -8.63586824590909E9 -8.632225262E9 -426525.0 -175297.4 -11737.0 -8.662942917E9 11 11 600000 3.0717655E7 0.6666666666666666 0.0 increasing-marginal-contribution
11 2000 1 EnergyPurchasingEvaluationFunction CoalitionValueBasedStrategy -1.771431859E10 -1.7726014825666668E10 -1.771431859E10 -161702.0 -120376.0 -6.0 -1.7777163806E10 6 6 1200000 6.2845216E7 0.6888454011741683 0.0 increasing-marginal-contribution
12 2000 1 EnergyPurchasingEvaluationFunction LocalSearchStrategy -1.7714318579E10 -1.7726014823833332E10 -1.7714318579E10 -161702.0 -120376.0 -6.0 -1.7777163806E10 6 6 1200000 6.2845227E7 0.692156862745098 0.0 increasing-marginal-contribution
14 3000 1 MarketBasedSizePenalizedEvaluationFunction LocalSearchStrategy 5708367.0 4807583.571428572 5708367.0 9374.0 10301.5 13362.0 0.0 7 7 1800000 5708367.0 0.984081041968162 0.0 increasing-marginal-contribution
13 3000 1 MarketBasedSizePenalizedEvaluationFunction CoalitionValueBasedStrategy 5728424.0 4810448.857142857 5728424.0 9374.0 10301.5 13362.0 0.0 7 7 1800000 5728424.0 0.9818049490538574 0.0 increasing-marginal-contribution
32 1000 2 EnergyPurchasingEvaluationFunction LocalSearchStrategy -8.632400135E9 -8.635884143454546E9 -8.632400135E9 -426525.0 -175297.4 -11737.0 -8.662942917E9 11 11 600000 3.0542782E7 0.7434944237918215 0.0 increasing-marginal-contribution
16 3000 1 EnergyPurchasingEvaluationFunction LocalSearchStrategy -2.7752571577E10 -2.77731895934E10 -2.7752571577E10 -161702.0 -83786.0 -3.0 -2.7847465593E10 5 5 1800000 9.4894016E7 0.6865497076023391 0.0 increasing-marginal-contribution
15 3000 1 EnergyPurchasingEvaluationFunction CoalitionValueBasedStrategy -2.7752571467E10 -2.77731895714E10 -2.7752571467E10 -161702.0 -83786.0 -3.0 -2.7847465593E10 5 5 1800000 9.4894126E7 0.680047225501771 0.0 increasing-marginal-contribution
33 2000 2 MarketBasedSizePenalizedEvaluationFunction CoalitionValueBasedStrategy 3801730.0 3337846.6 3801730.0 10254.0 10071.111111111111 12181.0 0.0 10 10 1200000 3801730.0 0.9698996655518395 0.0 increasing-marginal-contribution
18 4000 1 MarketBasedSizePenalizedEvaluationFunction LocalSearchStrategy 7661574.0 6275227.666666667 7661574.0 9921.0 9722.0 10294.0 0.0 6 6 2400000 7661574.0 0.9824281150159745 0.0 increasing-marginal-contribution
17 4000 1 MarketBasedSizePenalizedEvaluationFunction CoalitionValueBasedStrategy 7693096.0 6007897.0 7693096.0 10294.0 9765.5 10294.0 0.0 5 5 2400000 7693096.0 0.978051391862955 0.0 increasing-marginal-contribution
19 4000 1 EnergyPurchasingEvaluationFunction CoalitionValueBasedStrategy -3.67028393E10 -3.6736708031E10 -3.67028393E10 -161702.0 -61725.333333333336 -11737.0 -3.6828803579E10 4 4 2400000 1.25964279E8 0.711472602739726 0.0 increasing-marginal-contribution
34 2000 2 MarketBasedSizePenalizedEvaluationFunction LocalSearchStrategy 3800550.0 3337728.6 3800550.0 10254.0 10071.111111111111 12181.0 0.0 10 10 1200000 3800550.0 0.9710144927536232 0.0 increasing-marginal-contribution
35 2000 2 EnergyPurchasingEvaluationFunction CoalitionValueBasedStrategy -1.7716027166E10 -1.772489878457143E10 -1.7715348735E10 -7.0 -69777.16666666667 -7.0 -1.7777163806E10 7 7 1200000 6.1815071E7 0.7761989342806395 0.0 increasing-marginal-contribution
20 4000 1 EnergyPurchasingEvaluationFunction LocalSearchStrategy -3.670283925E10 -3.67367080185E10 -3.670283925E10 -161702.0 -61725.333333333336 -11737.0 -3.6828803579E10 4 4 2400000 1.25964329E8 0.7141630901287553 0.0 increasing-marginal-contribution
49 20 3 MarketBasedSizePenalizedEvaluationFunction CoalitionValueBasedStrategy 23513.0 28981.174129353232 34430.0 4630.0 6607.43 13298.0 0.0 200 201 5000 34430.0 0.6666666666666666 0.0 increasing-marginal-contribution
36 2000 2 EnergyPurchasingEvaluationFunction LocalSearchStrategy -1.7714318504E10 -1.7726070754166668E10 -1.7714318504E10 -161702.0 -116070.2 -72255.0 -1.7777163806E10 6 6 1200000 6.2845302E7 0.7021696252465484 0.0 increasing-marginal-contribution
50 20 3 MarketBasedSizePenalizedEvaluationFunction LocalSearchStrategy 32429.0 28980.28846153846 33891.0 7564.0 6289.212903225806 12968.0 0.0 155 156 5000 33891.0 0.8571428571428571 0.0 increasing-marginal-contribution
51 20 3 EnergyPurchasingEvaluationFunction CoalitionValueBasedStrategy -3.0323354E7 -3.0323916338842977E7 -3.0323335E7 -1971337.0 -2976266.566666667 -92346.0 -3.0348075E7 121 121 5000 24740.0 0.6666666666666666 0.0 increasing-marginal-contribution
52 20 3 EnergyPurchasingEvaluationFunction LocalSearchStrategy -3.0323336E7 -3.0323889047244094E7 -3.0323335E7 -3394632.0 -2989224.1507936507 -92346.0 -3.0348075E7 127 127 5000 24740.0 0.6666666666666666 0.0 increasing-marginal-contribution
22 5000 1 MarketBasedSizePenalizedEvaluationFunction LocalSearchStrategy 9611351.0 7544914.4 9611351.0 10254.0 9755.5 10254.0 0.0 5 5 3000000 9611351.0 0.9877430262045647 0.0 increasing-marginal-contribution
21 5000 1 MarketBasedSizePenalizedEvaluationFunction CoalitionValueBasedStrategy 9619012.0 7546446.6 9619012.0 10254.0 9755.5 10254.0 0.0 5 5 3000000 9619012.0 0.9843419382141346 0.0 increasing-marginal-contribution
38 3000 2 MarketBasedSizePenalizedEvaluationFunction LocalSearchStrategy 5709481.0 4781716.285714285 5709481.0 13272.0 10687.666666666666 13272.0 0.0 7 7 1800000 5709481.0 0.983941605839416 0.0 increasing-marginal-contribution
37 3000 2 MarketBasedSizePenalizedEvaluationFunction CoalitionValueBasedStrategy 5709016.0 4781649.857142857 5709016.0 13272.0 10687.666666666666 13272.0 0.0 7 7 1800000 5709016.0 0.9802919708029197 0.0 increasing-marginal-contribution
23 5000 1 EnergyPurchasingEvaluationFunction CoalitionValueBasedStrategy -4.5620683689E10 -4.56622687585E10 -4.5620683689E10 -72255.0 -81898.0 -11737.0 -4.5778956288E10 4 4 3000000 1.58272599E8 0.7811720698254364 0.0 increasing-marginal-contribution
53 1000 3 MarketBasedSizePenalizedEvaluationFunction CoalitionValueBasedStrategy 1895361.0 1752257.7368421052 1895361.0 19566.0 12196.277777777777 19566.0 0.0 19 19 600000 1895361.0 0.9527186761229315 0.0 increasing-marginal-contribution
54 1000 3 MarketBasedSizePenalizedEvaluationFunction LocalSearchStrategy 1899479.0 1746446.0 1899479.0 17738.0 12129.058823529413 17738.0 0.0 18 18 600000 1899479.0 0.9643705463182898 0.0 increasing-marginal-contribution
55 1000 3 EnergyPurchasingEvaluationFunction CoalitionValueBasedStrategy -8.632225166E9 -8.6366236223E9 -8.632225166E9 -771498.0 -199371.33333333334 -11737.0 -8.662942917E9 10 10 600000 3.0717751E7 0.6487603305785123 0.0 increasing-marginal-contribution
24 5000 1 EnergyPurchasingEvaluationFunction LocalSearchStrategy -4.5620530928E10 -4.566223056825E10 -4.5620530928E10 -161702.0 -111713.66666666667 -11737.0 -4.5778956288E10 4 4 3000000 1.5842536E8 0.7761100687929956 0.0 increasing-marginal-contribution
56 1000 3 EnergyPurchasingEvaluationFunction LocalSearchStrategy -8.632225376E9 -8.636276492727272E9 -8.632225376E9 -497656.0 -159275.5 -11737.0 -8.662942917E9 11 11 600000 3.0717541E7 0.65 0.0 increasing-marginal-contribution
40 3000 2 EnergyPurchasingEvaluationFunction LocalSearchStrategy -2.7752594509E10 -2.77746773002E10 -2.7752594509E10 -11737.0 -108950.0 -11737.0 -2.7847465593E10 5 5 1800000 9.4871084E7 0.691566265060241 0.0 increasing-marginal-contribution
39 3000 2 EnergyPurchasingEvaluationFunction CoalitionValueBasedStrategy -2.7752594246E10 -2.77746772476E10 -2.7752594246E10 -11737.0 -108950.0 -11737.0 -2.7847465593E10 5 5 1800000 9.4871347E7 0.6903614457831325 0.0 increasing-marginal-contribution
42 4000 2 MarketBasedSizePenalizedEvaluationFunction LocalSearchStrategy 7635566.0 6242591.666666667 7635566.0 8804.0 9037.2 10084.0 0.0 6 6 2400000 7635566.0 0.9812433011789925 0.0 increasing-marginal-contribution
41 4000 2 MarketBasedSizePenalizedEvaluationFunction CoalitionValueBasedStrategy 7631024.0 6241834.666666667 7631024.0 8804.0 9037.2 10084.0 0.0 6 6 2400000 7631024.0 0.9812633832976445 0.0 increasing-marginal-contribution
43 4000 2 EnergyPurchasingEvaluationFunction CoalitionValueBasedStrategy -3.6702838776E10 -3.67357278865E10 -3.6702838776E10 -161702.0 -88595.0 -11737.0 -3.6828803579E10 4 4 2400000 1.25964803E8 0.6982836495031617 0.0 increasing-marginal-contribution
57 2000 3 MarketBasedSizePenalizedEvaluationFunction CoalitionValueBasedStrategy 3810759.0 3358360.1 3810759.0 10861.0 10726.111111111111 11391.0 0.0 10 10 1200000 3810759.0 0.9740990990990991 0.0 increasing-marginal-contribution
58 2000 3 MarketBasedSizePenalizedEvaluationFunction LocalSearchStrategy 3818539.0 3312649.777777778 3818539.0 12842.0 10901.875 12842.0 0.0 9 9 1200000 3818539.0 0.9706214689265537 0.0 increasing-marginal-contribution
59 2000 3 EnergyPurchasingEvaluationFunction CoalitionValueBasedStrategy -1.7714318781E10 -1.7726612818833332E10 -1.7714318781E10 -161702.0 -137272.8 -11737.0 -1.7777163806E10 6 6 1200000 6.2845025E7 0.697265625 0.0 increasing-marginal-contribution
60 2000 3 EnergyPurchasingEvaluationFunction LocalSearchStrategy -1.7714318781E10 -1.7726612818833332E10 -1.7714318781E10 -161702.0 -137272.8 -11737.0 -1.7777163806E10 6 6 1200000 6.2845025E7 0.697265625 0.0 increasing-marginal-contribution
73 20 4 MarketBasedSizePenalizedEvaluationFunction CoalitionValueBasedStrategy 29253.0 29632.38823529412 32954.0 8404.0 6373.627218934911 9522.0 0.0 170 170 5000 32954.0 0.8333333333333334 0.0 increasing-marginal-contribution
74 20 4 MarketBasedSizePenalizedEvaluationFunction LocalSearchStrategy 27443.0 29664.951612903227 34596.0 7571.0 6574.983783783784 10962.0 0.0 186 186 5000 34596.0 0.4 0.0 increasing-marginal-contribution
75 20 4 EnergyPurchasingEvaluationFunction CoalitionValueBasedStrategy -3.0323354E7 -3.0323853945736434E7 -3.0323329E7 -2046362.0 -4051025.359375 -92346.0 -3.0348075E7 129 129 5000 24746.0 1.0 0.0 increasing-marginal-contribution
76 20 4 EnergyPurchasingEvaluationFunction LocalSearchStrategy -3.0323344E7 -3.0323854810606062E7 -3.0323329E7 -5138083.0 -4054229.007633588 -92346.0 -3.0348075E7 132 132 5000 24746.0 1.0 0.0 increasing-marginal-contribution
44 4000 2 EnergyPurchasingEvaluationFunction LocalSearchStrategy -3.670283872E10 -3.67357278725E10 -3.670283872E10 -161702.0 -88595.0 -11737.0 -3.6828803579E10 4 4 2400000 1.25964859E8 0.695731153496821 0.0 increasing-marginal-contribution
61 3000 3 MarketBasedSizePenalizedEvaluationFunction CoalitionValueBasedStrategy 5710812.0 4935737.875 5710812.0 10491.0 10690.857142857143 15702.0 0.0 8 8 1800000 5710812.0 0.9827213822894169 0.0 increasing-marginal-contribution
62 3000 3 MarketBasedSizePenalizedEvaluationFunction LocalSearchStrategy 5748934.0 4833463.857142857 5748934.0 15702.0 11592.666666666666 15702.0 0.0 7 7 1800000 5748934.0 0.9804063860667634 0.0 increasing-marginal-contribution
77 1000 4 MarketBasedSizePenalizedEvaluationFunction CoalitionValueBasedStrategy 1917783.0 1762846.6666666667 1917783.0 11241.0 12110.70588235294 15042.0 0.0 18 18 600000 1917783.0 0.9648711943793911 0.0 increasing-marginal-contribution
63 3000 3 EnergyPurchasingEvaluationFunction CoalitionValueBasedStrategy -2.7752573819E10 -2.7772917983E10 -2.7752573819E10 -11737.0 -11737.0 -11737.0 -2.7847465593E10 5 5 1800000 9.4891774E7 0.7033492822966507 0.0 increasing-marginal-contribution
78 1000 4 MarketBasedSizePenalizedEvaluationFunction LocalSearchStrategy 1900960.0 1768924.1578947369 1905460.0 13412.0 12182.5 15042.0 0.0 19 19 600000 1905460.0 0.9747706422018348 0.0 increasing-marginal-contribution
46 5000 2 MarketBasedSizePenalizedEvaluationFunction LocalSearchStrategy 9596548.0 7482955.0 9596548.0 16057.0 11050.5 16057.0 0.0 5 5 3000000 9596548.0 0.985885372112917 0.0 increasing-marginal-contribution
45 5000 2 MarketBasedSizePenalizedEvaluationFunction CoalitionValueBasedStrategy 9581546.0 7479954.6 9581546.0 13158.0 10325.75 13158.0 0.0 5 5 3000000 9581546.0 0.9872013651877133 0.0 increasing-marginal-contribution
79 1000 4 EnergyPurchasingEvaluationFunction CoalitionValueBasedStrategy -8.632225847E9 -8.6364354247E9 -8.632225847E9 -549801.0 -156875.66666666666 -11737.0 -8.662942917E9 10 10 600000 3.071707E7 0.6721311475409836 0.0 increasing-marginal-contribution
47 5000 2 EnergyPurchasingEvaluationFunction CoalitionValueBasedStrategy -4.5620936906E10 -4.566240796175E10 -4.5620936906E10 -92346.0 -73617.0 -11737.0 -4.5778956288E10 4 4 3000000 1.58019382E8 0.7708333333333334 0.0 increasing-marginal-contribution
64 3000 3 EnergyPurchasingEvaluationFunction LocalSearchStrategy -2.775284306E10 -2.77729718312E10 -2.775284306E10 -11737.0 -11737.0 -11737.0 -2.7847465593E10 5 5 1800000 9.4622533E7 0.7479579929988331 0.0 increasing-marginal-contribution
48 5000 2 EnergyPurchasingEvaluationFunction LocalSearchStrategy -4.562020604E10 -4.5674299185666664E10 -4.562020604E10 -161702.0 -86719.5 -11737.0 -4.5778956288E10 3 3 3000000 1.58750248E8 0.7226074895977809 0.0 increasing-marginal-contribution
80 1000 4 EnergyPurchasingEvaluationFunction LocalSearchStrategy -8.632225855E9 -8.6364354255E9 -8.632225855E9 -549801.0 -156875.66666666666 -11737.0 -8.662942917E9 10 10 600000 3.0717062E7 0.6762295081967213 0.0 increasing-marginal-contribution
65 4000 3 MarketBasedSizePenalizedEvaluationFunction CoalitionValueBasedStrategy 7648122.0 6247697.166666667 7648122.0 10501.0 9728.2 10501.0 0.0 6 6 2400000 7648122.0 0.9855227882037534 0.0 increasing-marginal-contribution
66 4000 3 MarketBasedSizePenalizedEvaluationFunction LocalSearchStrategy 7660177.0 6249706.333333333 7660177.0 10501.0 9728.2 10501.0 0.0 6 6 2400000 7660177.0 0.986021505376344 0.0 increasing-marginal-contribution
81 2000 4 MarketBasedSizePenalizedEvaluationFunction CoalitionValueBasedStrategy 3821172.0 3367177.4 3821172.0 11471.0 10901.777777777777 13552.0 0.0 10 10 1200000 3821172.0 0.969060773480663 0.0 increasing-marginal-contribution
67 4000 3 EnergyPurchasingEvaluationFunction CoalitionValueBasedStrategy -3.6702840369E10 -3.673621873375E10 -3.6702840369E10 -161702.0 -57814.0 -3.0 -3.6828803579E10 4 4 2400000 1.2596321E8 0.7005988023952096 0.0 increasing-marginal-contribution
82 2000 4 MarketBasedSizePenalizedEvaluationFunction LocalSearchStrategy 3818335.0 3366893.7 3818335.0 11471.0 10901.777777777777 13552.0 0.0 10 10 1200000 3818335.0 0.9735099337748344 0.0 increasing-marginal-contribution
83 2000 4 EnergyPurchasingEvaluationFunction CoalitionValueBasedStrategy -1.7714337033E10 -1.7727376989833332E10 -1.7714337033E10 -11734.0 -80950.2 -3.0 -1.7777163806E10 6 6 1200000 6.2826773E7 0.6784313725490196 0.0 increasing-marginal-contribution
97 20 5 MarketBasedSizePenalizedEvaluationFunction CoalitionValueBasedStrategy 31547.0 31017.79411764706 37489.0 7224.0 11234.699507389163 19517.0 0.0 204 204 5000 37489.0 0.75 0.0 increasing-marginal-contribution
84 2000 4 EnergyPurchasingEvaluationFunction LocalSearchStrategy -1.7714319539E10 -1.7727374074166668E10 -1.7714319539E10 -161702.0 -110943.8 -3.0 -1.7777163806E10 6 6 1200000 6.2844267E7 0.6735537190082644 0.0 increasing-marginal-contribution
98 20 5 MarketBasedSizePenalizedEvaluationFunction LocalSearchStrategy 34144.0 30957.079439252335 37489.0 11342.0 11107.488262910798 19517.0 0.0 214 214 5000 37489.0 0.75 0.0 increasing-marginal-contribution
100 20 5 EnergyPurchasingEvaluationFunction LocalSearchStrategy -3.0323453E7 -3.0324101829931974E7 -3.0323335E7 -194404.0 -3008726.3767123288 -92346.0 -3.0348075E7 147 147 5000 24740.0 0.6666666666666666 0.0 increasing-marginal-contribution
99 20 5 EnergyPurchasingEvaluationFunction CoalitionValueBasedStrategy -3.0323345E7 -3.0324109570422534E7 -3.0323335E7 -1917735.0 -3059636.219858156 -92346.0 -3.0348075E7 142 142 5000 24740.0 0.6666666666666666 0.0 increasing-marginal-contribution
68 4000 3 EnergyPurchasingEvaluationFunction LocalSearchStrategy -3.6702839838E10 -3.6736218601E10 -3.6702839838E10 -161702.0 -57814.0 -3.0 -3.6828803579E10 4 4 2400000 1.25963741E8 0.6963490650044524 0.0 increasing-marginal-contribution
102 1000 5 MarketBasedSizePenalizedEvaluationFunction LocalSearchStrategy 1887574.0 1751613.7368421052 1887574.0 11241.0 11484.0 16437.0 0.0 19 19 600000 1887574.0 0.9860788863109049 0.0 increasing-marginal-contribution
101 1000 5 MarketBasedSizePenalizedEvaluationFunction CoalitionValueBasedStrategy 1905804.0 1736962.1176470588 1905804.0 11711.0 11543.75 16437.0 0.0 17 17 600000 1905804.0 0.9671361502347418 0.0 increasing-marginal-contribution
86 3000 4 MarketBasedSizePenalizedEvaluationFunction LocalSearchStrategy 5733381.0 4814394.714285715 5733381.0 9741.0 9156.833333333334 9741.0 0.0 7 7 1800000 5733381.0 0.9847605224963716 0.0 increasing-marginal-contribution
85 3000 4 MarketBasedSizePenalizedEvaluationFunction CoalitionValueBasedStrategy 5733261.0 4814377.571428572 5733261.0 9741.0 9156.833333333334 9741.0 0.0 7 7 1800000 5733261.0 0.9840348330914369 0.0 increasing-marginal-contribution
69 5000 3 MarketBasedSizePenalizedEvaluationFunction CoalitionValueBasedStrategy 9628800.0 7524331.4 9628800.0 9374.0 9053.0 9374.0 0.0 5 5 3000000 9628800.0 0.9816709292412618 0.0 increasing-marginal-contribution
70 5000 3 MarketBasedSizePenalizedEvaluationFunction LocalSearchStrategy 9624200.0 7523411.4 9624200.0 9374.0 9053.0 9374.0 0.0 5 5 3000000 9624200.0 0.9821124361158433 0.0 increasing-marginal-contribution
87 3000 4 EnergyPurchasingEvaluationFunction CoalitionValueBasedStrategy -2.7753202027E10 -2.7774719726E10 -2.7753202027E10 -7.0 -41272.25 -7.0 -2.7847465593E10 5 5 1800000 9.4263566E7 0.7613504074505238 0.0 increasing-marginal-contribution
88 3000 4 EnergyPurchasingEvaluationFunction LocalSearchStrategy -2.7752721945E10 -2.77746237096E10 -2.7752721945E10 -7.0 -41272.25 -7.0 -2.7847465593E10 5 5 1800000 9.4743648E7 0.7447058823529412 0.0 increasing-marginal-contribution
71 5000 3 EnergyPurchasingEvaluationFunction CoalitionValueBasedStrategy -4.5621570822E10 -4.566474096675E10 -4.5621570822E10 -92346.0 -38606.666666666664 -11737.0 -4.5778956288E10 4 4 3000000 1.57385466E8 0.8012539184952978 0.0 increasing-marginal-contribution
72 5000 3 EnergyPurchasingEvaluationFunction LocalSearchStrategy -4.5621157934E10 -4.566463774475E10 -4.5621157934E10 -92346.0 -38606.666666666664 -11737.0 -4.5778956288E10 4 4 3000000 1.57798354E8 0.7996219281663516 0.0 increasing-marginal-contribution
103 1000 5 EnergyPurchasingEvaluationFunction CoalitionValueBasedStrategy -8.632231901E9 -8.63580426890909E9 -8.632231901E9 -11737.0 -160175.8 -11737.0 -8.662942917E9 11 11 600000 3.0711016E7 0.7205882352941176 0.0 increasing-marginal-contribution
104 1000 5 EnergyPurchasingEvaluationFunction LocalSearchStrategy -8.632224805E9 -8.635803623818182E9 -8.632224805E9 -161702.0 -175172.3 -11737.0 -8.662942917E9 11 11 600000 3.0718112E7 0.7142857142857143 0.0 increasing-marginal-contribution
89 4000 4 MarketBasedSizePenalizedEvaluationFunction CoalitionValueBasedStrategy 7650269.0 6252913.333333333 7650269.0 10781.0 9739.4 10781.0 0.0 6 6 2400000 7650269.0 0.9855614973262032 0.0 increasing-marginal-contribution
90 4000 4 MarketBasedSizePenalizedEvaluationFunction LocalSearchStrategy 7643698.0 6251818.166666667 7643698.0 10781.0 9739.4 10781.0 0.0 6 6 2400000 7643698.0 0.98505072076882 0.0 increasing-marginal-contribution
91 4000 4 EnergyPurchasingEvaluationFunction CoalitionValueBasedStrategy -3.670284023E10 -3.673703261E10 -3.670284023E10 -161702.0 -61725.333333333336 -11737.0 -3.6828803579E10 4 4 2400000 1.25963349E8 0.7101576182136602 0.0 increasing-marginal-contribution
105 2000 5 MarketBasedSizePenalizedEvaluationFunction CoalitionValueBasedStrategy 3817950.0 3359564.8 3817950.0 11891.0 10897.0 12122.0 0.0 10 10 1200000 3817950.0 0.9798206278026906 0.0 increasing-marginal-contribution
106 2000 5 MarketBasedSizePenalizedEvaluationFunction LocalSearchStrategy 3801904.0 3357960.2 3801904.0 11891.0 10897.0 12122.0 0.0 10 10 1200000 3801904.0 0.9732739420935412 0.0 increasing-marginal-contribution
107 2000 5 EnergyPurchasingEvaluationFunction CoalitionValueBasedStrategy -1.7714318479E10 -1.7725784694833332E10 -1.7714318479E10 -161702.0 -100043.2 -11737.0 -1.7777163806E10 6 6 1200000 6.2845327E7 0.6604938271604939 0.0 increasing-marginal-contribution
108 2000 5 EnergyPurchasingEvaluationFunction LocalSearchStrategy -1.771431863E10 -1.772578472E10 -1.771431863E10 -161702.0 -100043.2 -11737.0 -1.7777163806E10 6 6 1200000 6.2845176E7 0.6434262948207171 0.0 increasing-marginal-contribution
121 20 6 MarketBasedSizePenalizedEvaluationFunction CoalitionValueBasedStrategy 32699.0 31167.62777777778 34211.0 7144.0 7118.916201117318 10241.0 0.0 180 180 5000 34211.0 0.8571428571428571 0.0 increasing-marginal-contribution
122 20 6 MarketBasedSizePenalizedEvaluationFunction LocalSearchStrategy 32699.0 31167.62777777778 34211.0 7144.0 7118.916201117318 10241.0 0.0 180 180 5000 34211.0 0.8571428571428571 0.0 increasing-marginal-contribution
123 20 6 EnergyPurchasingEvaluationFunction CoalitionValueBasedStrategy -3.0323345E7 -3.0323824310344826E7 -3.0323329E7 -4816259.0 -3512499.027777778 -92346.0 -3.0348075E7 145 145 5000 24746.0 0.0 0.0 increasing-marginal-contribution
124 20 6 EnergyPurchasingEvaluationFunction LocalSearchStrategy -3.0323356E7 -3.032384541221374E7 -3.0323329E7 -3191468.0 -3623664.6 -92346.0 -3.0348075E7 131 131 5000 24746.0 0.0 0.0 increasing-marginal-contribution
92 4000 4 EnergyPurchasingEvaluationFunction LocalSearchStrategy -3.6702840158E10 -3.6737032592E10 -3.6702840158E10 -161702.0 -61725.333333333336 -11737.0 -3.6828803579E10 4 4 2400000 1.25963421E8 0.7130281690140845 0.0 increasing-marginal-contribution
109 3000 5 MarketBasedSizePenalizedEvaluationFunction CoalitionValueBasedStrategy 5710788.0 4795317.428571428 5710788.0 13041.0 9592.833333333334 13041.0 0.0 7 7 1800000 5710788.0 0.984081041968162 0.0 increasing-marginal-contribution
110 3000 5 MarketBasedSizePenalizedEvaluationFunction LocalSearchStrategy 5708352.0 4794969.428571428 5708352.0 13041.0 9592.833333333334 13041.0 0.0 7 7 1800000 5708352.0 0.9819233550253073 0.0 increasing-marginal-contribution
93 5000 4 MarketBasedSizePenalizedEvaluationFunction CoalitionValueBasedStrategy 9587166.0 7509352.6 9587166.0 10264.0 9653.0 10264.0 0.0 5 5 3000000 9587166.0 0.9872013651877133 0.0 increasing-marginal-contribution
125 1000 6 MarketBasedSizePenalizedEvaluationFunction CoalitionValueBasedStrategy 1894232.0 1751586.8235294118 1894232.0 11041.0 10745.5625 16438.0 0.0 17 17 600000 1894232.0 0.9727272727272728 0.0 increasing-marginal-contribution
126 1000 6 MarketBasedSizePenalizedEvaluationFunction LocalSearchStrategy 1903776.0 1752148.2352941176 1903776.0 13042.0 10870.625 16438.0 0.0 17 17 600000 1903776.0 0.965675057208238 0.0 increasing-marginal-contribution
111 3000 5 EnergyPurchasingEvaluationFunction CoalitionValueBasedStrategy -2.7752603486E10 -2.77743137386E10 -2.7752603486E10 -92346.0 -52041.5 -11737.0 -2.7847465593E10 5 5 1800000 9.4862107E7 0.7213316892725031 0.0 increasing-marginal-contribution
127 1000 6 EnergyPurchasingEvaluationFunction CoalitionValueBasedStrategy -8.632225243E9 -8.636239058E9 -8.632225243E9 -161702.0 -202714.2 -92346.0 -8.662942917E9 11 11 600000 3.0717674E7 0.6217391304347826 0.0 increasing-marginal-contribution
112 3000 5 EnergyPurchasingEvaluationFunction LocalSearchStrategy -2.7752693657E10 -2.77743317728E10 -2.7752693657E10 -92346.0 -52041.5 -11737.0 -2.7847465593E10 5 5 1800000 9.4771936E7 0.744578313253012 0.0 increasing-marginal-contribution
94 5000 4 MarketBasedSizePenalizedEvaluationFunction LocalSearchStrategy 9575886.0 7507096.6 9575886.0 10264.0 9653.0 10264.0 0.0 5 5 3000000 9575886.0 0.9880749574105622 0.0 increasing-marginal-contribution
95 5000 4 EnergyPurchasingEvaluationFunction CoalitionValueBasedStrategy -4.5621053097E10 -4.566271541775E10 -4.5621053097E10 -3.0 -7825.666666666667 -3.0 -4.5778956288E10 4 4 3000000 1.57903191E8 0.788979336255479 0.0 increasing-marginal-contribution
96 5000 4 EnergyPurchasingEvaluationFunction LocalSearchStrategy -4.5621266362E10 -4.5662768734E10 -4.5621266362E10 -3.0 -7825.666666666667 -3.0 -4.5778956288E10 4 4 3000000 1.57689926E8 0.7951280449718926 0.0 increasing-marginal-contribution
128 1000 6 EnergyPurchasingEvaluationFunction LocalSearchStrategy -8.632225296E9 -8.636239062818182E9 -8.632225296E9 -161702.0 -202714.2 -92346.0 -8.662942917E9 11 11 600000 3.0717621E7 0.6217391304347826 0.0 increasing-marginal-contribution
113 4000 5 MarketBasedSizePenalizedEvaluationFunction CoalitionValueBasedStrategy 7666813.0 6278982.833333333 7666813.0 12932.0 10820.4 12932.0 0.0 6 6 2400000 7666813.0 0.983991462113127 0.0 increasing-marginal-contribution
114 4000 5 MarketBasedSizePenalizedEvaluationFunction LocalSearchStrategy 7682759.0 6010697.6 7682759.0 10341.0 9644.75 10341.0 0.0 5 5 2400000 7682759.0 0.9844919786096257 0.0 increasing-marginal-contribution
115 4000 5 EnergyPurchasingEvaluationFunction CoalitionValueBasedStrategy -3.6702840657E10 -3.673612022075E10 -3.6702840657E10 -3.0 -7825.666666666667 -3.0 -3.6828803579E10 4 4 2400000 1.25962922E8 0.696137339055794 0.0 increasing-marginal-contribution
129 2000 6 MarketBasedSizePenalizedEvaluationFunction CoalitionValueBasedStrategy 3827463.0 3373337.1 3827463.0 12411.0 10402.666666666666 12411.0 0.0 10 10 1200000 3827463.0 0.9755826859045506 0.0 increasing-marginal-contribution
130 2000 6 MarketBasedSizePenalizedEvaluationFunction LocalSearchStrategy 3811504.0 3326769.111111111 3811504.0 10331.0 10151.625 10331.0 0.0 9 9 1200000 3811504.0 0.9757709251101322 0.0 increasing-marginal-contribution
116 4000 5 EnergyPurchasingEvaluationFunction LocalSearchStrategy -3.6702840628E10 -3.67361202135E10 -3.6702840628E10 -3.0 -7825.666666666667 -3.0 -3.6828803579E10 4 4 2400000 1.25962951E8 0.6968130921619293 0.0 increasing-marginal-contribution
145 20 7 MarketBasedSizePenalizedEvaluationFunction CoalitionValueBasedStrategy 35687.0 32961.70718232044 41304.0 10671.0 10155.038888888888 22850.0 0.0 181 181 5000 41304.0 0.75 0.0 increasing-marginal-contribution
131 2000 6 EnergyPurchasingEvaluationFunction CoalitionValueBasedStrategy -1.7714318905E10 -1.7726142366833332E10 -1.7714318905E10 -331576.0 -185469.6 -11737.0 -1.7777163806E10 6 6 1200000 6.2844901E7 0.73 0.0 increasing-marginal-contribution
132 2000 6 EnergyPurchasingEvaluationFunction LocalSearchStrategy -1.7714319013E10 -1.7726142384833332E10 -1.7714319013E10 -331576.0 -185469.6 -11737.0 -1.7777163806E10 6 6 1200000 6.2844793E7 0.7294117647058823 0.0 increasing-marginal-contribution
146 20 7 MarketBasedSizePenalizedEvaluationFunction LocalSearchStrategy 34755.0 32724.1572327044 41304.0 7844.0 10123.056962025317 22850.0 0.0 159 159 5000 41304.0 0.75 0.0 increasing-marginal-contribution
147 20 7 EnergyPurchasingEvaluationFunction CoalitionValueBasedStrategy -3.0323344E7 -3.032411047107438E7 -3.0323329E7 -3839366.0 -3588607.9 -92346.0 -3.0348075E7 121 121 5000 24746.0 0.5 0.0 increasing-marginal-contribution
148 20 7 EnergyPurchasingEvaluationFunction LocalSearchStrategy -3.0323336E7 -3.0324111614814814E7 -3.0323329E7 -3839366.0 -3524397.552238806 -41890.0 -3.0348075E7 135 135 5000 24746.0 0.5 0.0 increasing-marginal-contribution
117 5000 5 MarketBasedSizePenalizedEvaluationFunction CoalitionValueBasedStrategy 9643417.0 7537320.0 9643417.0 10731.0 9939.0 10731.0 0.0 5 5 3000000 9643417.0 0.9833333333333333 0.0 increasing-marginal-contribution
133 3000 6 MarketBasedSizePenalizedEvaluationFunction CoalitionValueBasedStrategy 5754508.0 4834025.571428572 5754508.0 11081.0 10344.666666666666 11231.0 0.0 7 7 1800000 5754508.0 0.9768953068592058 0.0 increasing-marginal-contribution
134 3000 6 MarketBasedSizePenalizedEvaluationFunction LocalSearchStrategy 5738620.0 4831755.857142857 5738620.0 11081.0 10344.666666666666 11231.0 0.0 7 7 1800000 5738620.0 0.9798705966930266 0.0 increasing-marginal-contribution
149 1000 7 MarketBasedSizePenalizedEvaluationFunction CoalitionValueBasedStrategy 1860475.0 1740852.3157894737 1866157.0 15548.0 11725.111111111111 15548.0 0.0 19 19 600000 1866157.0 0.9722863741339491 0.0 increasing-marginal-contribution
135 3000 6 EnergyPurchasingEvaluationFunction CoalitionValueBasedStrategy -2.7752624491E10 -2.77754262736E10 -2.7752624491E10 -92346.0 -39427.5 -11737.0 -2.7847465593E10 5 5 1800000 9.4841102E7 0.7286549707602339 0.0 increasing-marginal-contribution
150 1000 7 MarketBasedSizePenalizedEvaluationFunction LocalSearchStrategy 1894463.0 1736094.8333333333 1894463.0 15548.0 11500.235294117647 15548.0 0.0 18 18 600000 1894463.0 0.966903073286052 0.0 increasing-marginal-contribution
136 3000 6 EnergyPurchasingEvaluationFunction LocalSearchStrategy -2.7753596599E10 -2.77756206952E10 -2.7753596599E10 -41890.0 -26813.5 -11737.0 -2.7847465593E10 5 5 1800000 9.3868994E7 0.7908571428571428 0.0 increasing-marginal-contribution
118 5000 5 MarketBasedSizePenalizedEvaluationFunction LocalSearchStrategy 9639295.0 7536495.6 9639295.0 10731.0 9939.0 10731.0 0.0 5 5 3000000 9639295.0 0.9829205807002562 0.0 increasing-marginal-contribution
151 1000 7 EnergyPurchasingEvaluationFunction CoalitionValueBasedStrategy -8.632224724E9 -8.636172083272728E9 -8.632224724E9 -508698.0 -158715.7 -11737.0 -8.662942917E9 11 11 600000 3.0718193E7 0.6788617886178862 0.0 increasing-marginal-contribution
119 5000 5 EnergyPurchasingEvaluationFunction CoalitionValueBasedStrategy -4.5620534012E10 -4.566183543475E10 -4.5620534012E10 -11737.0 -11737.0 -11737.0 -4.5778956288E10 4 4 3000000 1.58422276E8 0.7819693094629157 0.0 increasing-marginal-contribution
120 5000 5 EnergyPurchasingEvaluationFunction LocalSearchStrategy -4.562045554E10 -4.566181581675E10 -4.562045554E10 -11737.0 -11737.0 -11737.0 -4.5778956288E10 4 4 3000000 1.58500748E8 0.7789878283151825 0.0 increasing-marginal-contribution
152 1000 7 EnergyPurchasingEvaluationFunction LocalSearchStrategy -8.63222475E9 -8.636172085636364E9 -8.63222475E9 -508698.0 -158715.7 -11737.0 -8.662942917E9 11 11 600000 3.0718167E7 0.6854838709677419 0.0 increasing-marginal-contribution
137 4000 6 MarketBasedSizePenalizedEvaluationFunction CoalitionValueBasedStrategy 7716075.0 6027668.6 7716075.0 10204.0 9287.0 10204.0 0.0 5 5 2400000 7716075.0 0.9828877005347594 0.0 increasing-marginal-contribution
138 4000 6 MarketBasedSizePenalizedEvaluationFunction LocalSearchStrategy 7693448.0 6298994.0 7693448.0 10204.0 9470.4 10204.0 0.0 6 6 2400000 7693448.0 0.9856230031948882 0.0 increasing-marginal-contribution
139 4000 6 EnergyPurchasingEvaluationFunction CoalitionValueBasedStrategy -3.6702839854E10 -3.6736117201E10 -3.6702839854E10 -161702.0 -61725.333333333336 -11737.0 -3.6828803579E10 4 4 2400000 1.25963725E8 0.7114695340501792 0.0 increasing-marginal-contribution
153 2000 7 MarketBasedSizePenalizedEvaluationFunction CoalitionValueBasedStrategy 3789864.0 3346881.6 3789864.0 11412.0 10462.111111111111 11412.0 0.0 10 10 1200000 3789864.0 0.9809630459126539 0.0 increasing-marginal-contribution
154 2000 7 MarketBasedSizePenalizedEvaluationFunction LocalSearchStrategy 3809945.0 3348889.7 3809945.0 12801.0 10616.444444444445 12801.0 0.0 10 10 1200000 3809945.0 0.9661399548532731 0.0 increasing-marginal-contribution
155 2000 7 EnergyPurchasingEvaluationFunction CoalitionValueBasedStrategy -1.7714364463E10 -1.7726132698166668E10 -1.7714364463E10 -3.0 -61535.6 -3.0 -1.7777163806E10 6 6 1200000 6.2799343E7 0.7045009784735812 0.0 increasing-marginal-contribution
156 2000 7 EnergyPurchasingEvaluationFunction LocalSearchStrategy -1.7714364454E10 -1.7726132696666668E10 -1.7714364454E10 -3.0 -61535.6 -3.0 -1.7777163806E10 6 6 1200000 6.2799352E7 0.7019607843137254 0.0 increasing-marginal-contribution
169 20 8 MarketBasedSizePenalizedEvaluationFunction CoalitionValueBasedStrategy 36286.0 35887.20855614973 38418.0 6510.0 6807.220430107527 14508.0 0.0 183 187 5000 38418.0 0.8571428571428571 0.0 increasing-marginal-contribution
170 20 8 MarketBasedSizePenalizedEvaluationFunction LocalSearchStrategy 36286.0 35976.5643153527 38418.0 6510.0 6740.345833333334 14508.0 0.0 237 241 5000 38418.0 0.8571428571428571 0.0 increasing-marginal-contribution
140 4000 6 EnergyPurchasingEvaluationFunction LocalSearchStrategy -3.6702843493E10 -3.673611811075E10 -3.6702843493E10 -11737.0 -11737.0 -11737.0 -3.6828803579E10 4 4 2400000 1.25960086E8 0.7057837384744342 0.0 increasing-marginal-contribution
171 20 8 EnergyPurchasingEvaluationFunction CoalitionValueBasedStrategy -3.0323335E7 -3.032401620979021E7 -3.0323329E7 -5747227.0 -3458381.0070422534 -92346.0 -3.0348075E7 143 143 5000 24746.0 0.5 0.0 increasing-marginal-contribution
172 20 8 EnergyPurchasingEvaluationFunction LocalSearchStrategy -3.0327685E7 -3.0324040789855074E7 -3.0323329E7 -5662608.0 -3398974.591240876 -92346.0 -3.0348075E7 138 138 5000 24746.0 0.5 0.0 increasing-marginal-contribution
158 3000 7 MarketBasedSizePenalizedEvaluationFunction LocalSearchStrategy 5739628.0 4825257.428571428 5739628.0 9534.0 8838.333333333334 9534.0 0.0 7 7 1800000 5739628.0 0.9766763848396501 0.0 increasing-marginal-contribution
157 3000 7 MarketBasedSizePenalizedEvaluationFunction CoalitionValueBasedStrategy 5734946.0 4824588.571428572 5734946.0 9534.0 8838.333333333334 9534.0 0.0 7 7 1800000 5734946.0 0.9759825327510917 0.0 increasing-marginal-contribution
159 3000 7 EnergyPurchasingEvaluationFunction CoalitionValueBasedStrategy -2.7752707462E10 -2.7774817642E10 -2.7752707462E10 -11737.0 -19275.25 -11737.0 -2.7847465593E10 5 5 1800000 9.4758131E7 0.7228915662650602 0.0 increasing-marginal-contribution
160 3000 7 EnergyPurchasingEvaluationFunction LocalSearchStrategy -2.7753847176E10 -2.77750455848E10 -2.7753847176E10 -41890.0 -26813.5 -11737.0 -2.7847465593E10 5 5 1800000 9.3618417E7 0.7692307692307693 0.0 increasing-marginal-contribution
173 1000 8 MarketBasedSizePenalizedEvaluationFunction CoalitionValueBasedStrategy 1864152.0 1755629.894736842 1873177.0 11201.0 10855.333333333334 11631.0 0.0 19 19 600000 1873177.0 0.9863945578231292 0.0 increasing-marginal-contribution
141 5000 6 MarketBasedSizePenalizedEvaluationFunction CoalitionValueBasedStrategy 9636628.0 7561928.0 9636628.0 10511.0 9596.5 10511.0 0.0 5 5 3000000 9636628.0 0.9877378435517971 0.0 increasing-marginal-contribution
174 1000 8 MarketBasedSizePenalizedEvaluationFunction LocalSearchStrategy 1891918.0 1751859.111111111 1891918.0 12552.0 10914.470588235294 12552.0 0.0 18 18 600000 1891918.0 0.9722863741339491 0.0 increasing-marginal-contribution
175 1000 8 EnergyPurchasingEvaluationFunction CoalitionValueBasedStrategy -8.632225187E9 -8.63632085511111E9 -8.632225187E9 -283479.0 -162565.75 -11737.0 -8.662942917E9 9 9 600000 3.071773E7 0.6794871794871795 0.0 increasing-marginal-contribution
142 5000 6 MarketBasedSizePenalizedEvaluationFunction LocalSearchStrategy 9689770.0 7572556.4 9689770.0 10511.0 9596.5 10511.0 0.0 5 5 3000000 9689770.0 0.9825234441602728 0.0 increasing-marginal-contribution
143 5000 6 EnergyPurchasingEvaluationFunction CoalitionValueBasedStrategy -4.5622183847E10 -4.5664523067E10 -4.5622183847E10 -3.0 -3914.3333333333335 -3.0 -4.5778956288E10 4 4 3000000 1.56772441E8 0.8050955414012739 0.0 increasing-marginal-contribution
144 5000 6 EnergyPurchasingEvaluationFunction LocalSearchStrategy -4.5622794451E10 -4.5664675718E10 -4.5622794451E10 -3.0 -3914.3333333333335 -3.0 -4.5778956288E10 4 4 3000000 1.56161837E8 0.8128172588832487 0.0 increasing-marginal-contribution
176 1000 8 EnergyPurchasingEvaluationFunction LocalSearchStrategy -8.633207302E9 -8.6361303263E9 -8.632804097E9 -219577.0 -161800.11111111112 -11737.0 -8.662942917E9 10 10 600000 3.013882E7 0.7744360902255639 0.0 increasing-marginal-contribution
161 4000 7 MarketBasedSizePenalizedEvaluationFunction CoalitionValueBasedStrategy 7683392.0 5965186.2 7683392.0 9782.0 9669.25 11431.0 0.0 5 5 2400000 7683392.0 0.9745119305856833 0.0 increasing-marginal-contribution
162 4000 7 MarketBasedSizePenalizedEvaluationFunction LocalSearchStrategy 7645316.0 6233733.333333333 7645316.0 9601.0 9619.4 11431.0 0.0 6 6 2400000 7645316.0 0.982210242587601 0.0 increasing-marginal-contribution
163 4000 7 EnergyPurchasingEvaluationFunction CoalitionValueBasedStrategy -3.6702840979E10 -3.67370803295E10 -3.6702840979E10 -161702.0 -61725.333333333336 -11737.0 -3.6828803579E10 4 4 2400000 1.259626E8 0.6794543904518329 0.0 increasing-marginal-contribution
177 2000 8 MarketBasedSizePenalizedEvaluationFunction CoalitionValueBasedStrategy 3822097.0 3358327.2 3822097.0 10661.0 10132.777777777777 11762.0 0.0 10 10 1200000 3822097.0 0.9756367663344407 0.0 increasing-marginal-contribution
178 2000 8 MarketBasedSizePenalizedEvaluationFunction LocalSearchStrategy 3797297.0 3355847.2 3797297.0 10661.0 10132.777777777777 11762.0 0.0 10 10 1200000 3797297.0 0.9879253567508233 0.0 increasing-marginal-contribution
179 2000 8 EnergyPurchasingEvaluationFunction CoalitionValueBasedStrategy -1.7714319254E10 -1.7726679906333332E10 -1.7714319254E10 -161702.0 -99948.4 -11737.0 -1.7777163806E10 6 6 1200000 6.2844552E7 0.7056451612903226 0.0 increasing-marginal-contribution
164 4000 7 EnergyPurchasingEvaluationFunction LocalSearchStrategy -3.6702840067E10 -3.67370801015E10 -3.6702840067E10 -161702.0 -61725.333333333336 -11737.0 -3.6828803579E10 4 4 2400000 1.25963512E8 0.680071492403932 0.0 increasing-marginal-contribution
180 2000 8 EnergyPurchasingEvaluationFunction LocalSearchStrategy -1.771431907E10 -1.7726679875666668E10 -1.771431907E10 -161702.0 -99948.4 -11737.0 -1.7777163806E10 6 6 1200000 6.2844736E7 0.7304526748971193 0.0 increasing-marginal-contribution
193 20 9 MarketBasedSizePenalizedEvaluationFunction CoalitionValueBasedStrategy 31906.0 32051.954545454544 36268.0 11201.0 7207.764705882353 13132.0 0.0 154 154 5000 36268.0 0.8571428571428571 0.0 increasing-marginal-contribution
194 20 9 MarketBasedSizePenalizedEvaluationFunction LocalSearchStrategy 37207.0 32109.471337579616 37207.0 10921.0 7247.5 13132.0 0.0 157 157 5000 37207.0 0.8333333333333334 0.0 increasing-marginal-contribution
195 20 9 EnergyPurchasingEvaluationFunction CoalitionValueBasedStrategy -3.0323344E7 -3.0323935379032258E7 -3.0323329E7 -5457826.0 -3602165.6341463416 -92346.0 -3.0348075E7 124 124 5000 24746.0 0.5 0.0 increasing-marginal-contribution
196 20 9 EnergyPurchasingEvaluationFunction LocalSearchStrategy -3.0323335E7 -3.0323905709923666E7 -3.0323329E7 -5747227.0 -3673454.5923076924 -92346.0 -3.0348075E7 131 131 5000 24746.0 0.5 0.0 increasing-marginal-contribution
165 5000 7 MarketBasedSizePenalizedEvaluationFunction CoalitionValueBasedStrategy 9585042.0 7494477.6 9585042.0 9364.0 8897.0 9364.0 0.0 5 5 3000000 9585042.0 0.9854762921828278 0.0 increasing-marginal-contribution
181 3000 8 MarketBasedSizePenalizedEvaluationFunction CoalitionValueBasedStrategy 5725854.0 4806577.142857143 5725854.0 12071.0 9994.0 12071.0 0.0 7 7 1800000 5725854.0 0.9819102749638206 0.0 increasing-marginal-contribution
182 3000 8 MarketBasedSizePenalizedEvaluationFunction LocalSearchStrategy 5725854.0 4806577.142857143 5725854.0 12071.0 9994.0 12071.0 0.0 7 7 1800000 5725854.0 0.9826338639652678 0.0 increasing-marginal-contribution
183 3000 8 EnergyPurchasingEvaluationFunction CoalitionValueBasedStrategy -2.7752571551E10 -2.77727851766E10 -2.7752571551E10 -161702.0 -86719.5 -11737.0 -2.7847465593E10 5 5 1800000 9.4894042E7 0.7042755344418052 0.0 increasing-marginal-contribution
197 1000 9 MarketBasedSizePenalizedEvaluationFunction CoalitionValueBasedStrategy 1908876.0 1751259.9411764706 1908876.0 15308.0 12700.5625 15308.0 0.0 17 17 600000 1908876.0 0.9641148325358851 0.0 increasing-marginal-contribution
198 1000 9 MarketBasedSizePenalizedEvaluationFunction LocalSearchStrategy 1921827.0 1759658.888888889 1921827.0 15268.0 12851.588235294117 15308.0 0.0 18 18 600000 1921827.0 0.9565217391304348 0.0 increasing-marginal-contribution
199 1000 9 EnergyPurchasingEvaluationFunction CoalitionValueBasedStrategy -8.632224475E9 -8.63583569190909E9 -8.632224475E9 -161702.0 -94437.8 -6.0 -8.662942917E9 11 11 600000 3.0718442E7 0.6527777777777778 0.0 increasing-marginal-contribution
184 3000 8 EnergyPurchasingEvaluationFunction LocalSearchStrategy -2.7752571303E10 -2.7772785127E10 -2.7752571303E10 -161702.0 -86719.5 -11737.0 -2.7847465593E10 5 5 1800000 9.489429E7 0.7196601941747572 0.0 increasing-marginal-contribution
166 5000 7 MarketBasedSizePenalizedEvaluationFunction LocalSearchStrategy 9587619.0 7494993.0 9587619.0 9364.0 8897.0 9364.0 0.0 5 5 3000000 9587619.0 0.9837606837606837 0.0 increasing-marginal-contribution
168 5000 7 EnergyPurchasingEvaluationFunction LocalSearchStrategy -4.5620900139E10 -4.566299187025E10 -4.5620900139E10 -11737.0 -11737.0 -11737.0 -4.5778956288E10 4 4 3000000 1.58056149E8 0.7823042647994908 0.0 increasing-marginal-contribution
167 5000 7 EnergyPurchasingEvaluationFunction CoalitionValueBasedStrategy -4.5621009865E10 -4.566301930175E10 -4.5621009865E10 -11737.0 -11737.0 -11737.0 -4.5778956288E10 4 4 3000000 1.57946423E8 0.7832167832167832 0.0 increasing-marginal-contribution
200 1000 9 EnergyPurchasingEvaluationFunction LocalSearchStrategy -8.632224625E9 -8.635835705545454E9 -8.632224625E9 -745609.0 -152828.5 -6.0 -8.662942917E9 11 11 600000 3.0718292E7 0.6666666666666666 0.0 increasing-marginal-contribution
185 4000 8 MarketBasedSizePenalizedEvaluationFunction CoalitionValueBasedStrategy 7656701.0 6254924.166666667 7656701.0 10741.0 9768.0 10741.0 0.0 6 6 2400000 7656701.0 0.982860203535083 0.0 increasing-marginal-contribution
186 4000 8 MarketBasedSizePenalizedEvaluationFunction LocalSearchStrategy 7650408.0 6253875.333333333 7650408.0 10741.0 9768.0 10741.0 0.0 6 6 2400000 7650408.0 0.9855614973262032 0.0 increasing-marginal-contribution
187 4000 8 EnergyPurchasingEvaluationFunction CoalitionValueBasedStrategy -3.6702844097E10 -3.673683247275E10 -3.6702844097E10 -11737.0 -34695.333333333336 -3.0 -3.6828803579E10 4 4 2400000 1.25959482E8 0.6917164816396243 0.0 increasing-marginal-contribution
201 2000 9 MarketBasedSizePenalizedEvaluationFunction CoalitionValueBasedStrategy 3806383.0 3355665.3 3806383.0 9794.0 9881.444444444445 12481.0 0.0 10 10 1200000 3806383.0 0.9799777530589544 0.0 increasing-marginal-contribution
202 2000 9 MarketBasedSizePenalizedEvaluationFunction LocalSearchStrategy 3811892.0 3356216.2 3811892.0 11351.0 10054.444444444445 12481.0 0.0 10 10 1200000 3811892.0 0.979933110367893 0.0 increasing-marginal-contribution
203 2000 9 EnergyPurchasingEvaluationFunction CoalitionValueBasedStrategy -1.771431846E10 -1.7725710583166668E10 -1.771431846E10 -161702.0 -82349.6 -11737.0 -1.7777163806E10 6 6 1200000 6.2845346E7 0.7156488549618321 0.0 increasing-marginal-contribution
204 2000 9 EnergyPurchasingEvaluationFunction LocalSearchStrategy -1.7714318405E10 -1.7725710574E10 -1.7714318405E10 -161702.0 -82349.6 -11737.0 -1.7777163806E10 6 6 1200000 6.2845401E7 0.7148362235067437 0.0 increasing-marginal-contribution
217 20 10 MarketBasedSizePenalizedEvaluationFunction CoalitionValueBasedStrategy 32437.0 26960.69512195122 32589.0 8901.0 7495.01226993865 14668.0 0.0 164 164 5000 32589.0 0.8333333333333334 0.0 increasing-marginal-contribution
218 20 10 MarketBasedSizePenalizedEvaluationFunction LocalSearchStrategy 30961.0 27262.563157894736 32589.0 10792.0 7482.169312169312 14668.0 0.0 190 190 5000 32589.0 0.8333333333333334 0.0 increasing-marginal-contribution
219 20 10 EnergyPurchasingEvaluationFunction CoalitionValueBasedStrategy -3.0323336E7 -3.0323795263157893E7 -3.0323335E7 -3394632.0 -3416861.2954545454 -153338.0 -3.0348075E7 133 133 5000 24740.0 0.3333333333333333 0.0 increasing-marginal-contribution
220 20 10 EnergyPurchasingEvaluationFunction LocalSearchStrategy -3.0323336E7 -3.0323775956834532E7 -3.0323335E7 -3394632.0 -3397164.4855072466 -153338.0 -3.0348075E7 139 139 5000 24740.0 0.3333333333333333 0.0 increasing-marginal-contribution
188 4000 8 EnergyPurchasingEvaluationFunction LocalSearchStrategy -3.6702845001E10 -3.673683269875E10 -3.6702845001E10 -11737.0 -34695.333333333336 -3.0 -3.6828803579E10 4 4 2400000 1.25958578E8 0.6933560477001703 0.0 increasing-marginal-contribution
205 3000 9 MarketBasedSizePenalizedEvaluationFunction CoalitionValueBasedStrategy 5736363.0 4818507.428571428 5736363.0 11132.0 9824.166666666666 11741.0 0.0 7 7 1800000 5736363.0 0.9848265895953757 0.0 increasing-marginal-contribution
206 3000 9 MarketBasedSizePenalizedEvaluationFunction LocalSearchStrategy 5727790.0 4817282.714285715 5727790.0 11132.0 9824.166666666666 11741.0 0.0 7 7 1800000 5727790.0 0.9826964671953857 0.0 increasing-marginal-contribution
221 1000 10 MarketBasedSizePenalizedEvaluationFunction CoalitionValueBasedStrategy 1872626.0 1743662.4444444445 1872626.0 14082.0 10444.882352941177 14082.0 0.0 18 18 600000 1872626.0 0.9773755656108597 0.0 increasing-marginal-contribution
222 1000 10 MarketBasedSizePenalizedEvaluationFunction LocalSearchStrategy 1892970.0 1744792.6666666667 1892970.0 14082.0 10444.882352941177 14082.0 0.0 18 18 600000 1892970.0 0.963302752293578 0.0 increasing-marginal-contribution
223 1000 10 EnergyPurchasingEvaluationFunction CoalitionValueBasedStrategy -8.6370213E9 -8.637092514636364E9 -8.632717086E9 -161702.0 -148322.7 -72255.0 -8.662942917E9 11 11 600000 3.0225831E7 0.7956204379562044 0.0 increasing-marginal-contribution
207 3000 9 EnergyPurchasingEvaluationFunction CoalitionValueBasedStrategy -2.7752613553E10 -2.77732172218E10 -2.7752613553E10 -153338.0 -120028.75 -11737.0 -2.7847465593E10 5 5 1800000 9.485204E7 0.7485101311084624 0.0 increasing-marginal-contribution
189 5000 8 MarketBasedSizePenalizedEvaluationFunction CoalitionValueBasedStrategy 9617670.0 7534628.6 9617670.0 9164.0 8790.5 9164.0 0.0 5 5 3000000 9617670.0 0.9876910016977929 0.0 increasing-marginal-contribution
208 3000 9 EnergyPurchasingEvaluationFunction LocalSearchStrategy -2.7752577964E10 -2.7773210104E10 -2.7752577964E10 -161702.0 -122119.75 -11737.0 -2.7847465593E10 5 5 1800000 9.4887629E7 0.7292418772563177 0.0 increasing-marginal-contribution
190 5000 8 MarketBasedSizePenalizedEvaluationFunction LocalSearchStrategy 9608109.0 7532716.4 9608109.0 9164.0 8790.5 9164.0 0.0 5 5 3000000 9608109.0 0.989826197541331 0.0 increasing-marginal-contribution
191 5000 8 EnergyPurchasingEvaluationFunction CoalitionValueBasedStrategy -4.562022609E10 -4.5678020791333336E10 -4.562022609E10 -161702.0 -80852.5 -3.0 -4.5778956288E10 3 3 3000000 1.58730198E8 0.6984705025491624 0.0 increasing-marginal-contribution
224 1000 10 EnergyPurchasingEvaluationFunction LocalSearchStrategy -8.632355368E9 -8.636668339E9 -8.632355368E9 -322028.0 -164355.3 -72255.0 -8.662942917E9 11 11 600000 3.0587549E7 0.7032520325203252 0.0 increasing-marginal-contribution
192 5000 8 EnergyPurchasingEvaluationFunction LocalSearchStrategy -4.5622643092E10 -4.5665526255E10 -4.5622643092E10 -11737.0 -7825.666666666667 -3.0 -4.5778956288E10 4 4 3000000 1.56313196E8 0.7966321243523317 0.0 increasing-marginal-contribution
210 4000 9 MarketBasedSizePenalizedEvaluationFunction LocalSearchStrategy 7670683.0 6282993.5 7670683.0 11781.0 10036.0 11781.0 0.0 6 6 2400000 7670683.0 0.9839486356340289 0.0 increasing-marginal-contribution
209 4000 9 MarketBasedSizePenalizedEvaluationFunction CoalitionValueBasedStrategy 7671934.0 6283202.0 7671934.0 11781.0 10036.0 11781.0 0.0 6 6 2400000 7671934.0 0.9812734082397003 0.0 increasing-marginal-contribution
211 4000 9 EnergyPurchasingEvaluationFunction CoalitionValueBasedStrategy -3.6702839425E10 -3.673620105675E10 -3.6702839425E10 -161702.0 -61725.333333333336 -11737.0 -3.6828803579E10 4 4 2400000 1.25964154E8 0.7094535993061578 0.0 increasing-marginal-contribution
225 2000 10 MarketBasedSizePenalizedEvaluationFunction CoalitionValueBasedStrategy 3816216.0 3384614.6 3816570.0 11181.0 9687.333333333334 11181.0 0.0 10 10 1200000 3816570.0 0.9857612267250822 0.0 increasing-marginal-contribution
226 2000 10 MarketBasedSizePenalizedEvaluationFunction LocalSearchStrategy 3819818.0 3340187.111111111 3819818.0 10521.0 9597.75 10521.0 0.0 9 9 1200000 3819818.0 0.9824945295404814 0.0 increasing-marginal-contribution
227 2000 10 EnergyPurchasingEvaluationFunction CoalitionValueBasedStrategy -1.7714319545E10 -1.7726356933666668E10 -1.7714319545E10 -396993.0 -100891.8 -11737.0 -1.7777163806E10 6 6 1200000 6.2844261E7 0.6824457593688363 0.0 increasing-marginal-contribution
228 2000 10 EnergyPurchasingEvaluationFunction LocalSearchStrategy -1.7714319655E10 -1.7726356952E10 -1.7714319655E10 -508698.0 -123232.8 -11737.0 -1.7777163806E10 6 6 1200000 6.2844151E7 0.6796875 0.0 increasing-marginal-contribution
212 4000 9 EnergyPurchasingEvaluationFunction LocalSearchStrategy -3.6702839415E10 -3.673620105425E10 -3.6702839415E10 -161702.0 -61725.333333333336 -11737.0 -3.6828803579E10 4 4 2400000 1.25964164E8 0.7109375 0.0 increasing-marginal-contribution
229 3000 10 MarketBasedSizePenalizedEvaluationFunction CoalitionValueBasedStrategy 5774903.0 4857587.857142857 5774903.0 9851.0 9167.833333333334 9851.0 0.0 7 7 1800000 5774903.0 0.9782608695652174 0.0 increasing-marginal-contribution
230 3000 10 MarketBasedSizePenalizedEvaluationFunction LocalSearchStrategy 5760619.0 4855547.285714285 5760619.0 9564.0 9120.0 9564.0 0.0 7 7 1800000 5760619.0 0.9812409812409812 0.0 increasing-marginal-contribution
231 3000 10 EnergyPurchasingEvaluationFunction CoalitionValueBasedStrategy -2.7752572205E10 -2.77745283682E10 -2.7752572205E10 -3.0 -42599.5 -3.0 -2.7847465593E10 5 5 1800000 9.4893388E7 0.6777251184834123 0.0 increasing-marginal-contribution
213 5000 9 MarketBasedSizePenalizedEvaluationFunction CoalitionValueBasedStrategy 9626727.0 7528609.0 9626727.0 9054.0 8785.5 9054.0 0.0 5 5 3000000 9626727.0 0.9821048146570089 0.0 increasing-marginal-contribution
232 3000 10 EnergyPurchasingEvaluationFunction LocalSearchStrategy -2.7752572378E10 -2.77745284028E10 -2.7752572378E10 -3.0 -42599.5 -3.0 -2.7847465593E10 5 5 1800000 9.4893215E7 0.6781065088757396 0.0 increasing-marginal-contribution
214 5000 9 MarketBasedSizePenalizedEvaluationFunction LocalSearchStrategy 9605222.0 7524308.0 9605222.0 9054.0 8785.5 9054.0 0.0 5 5 3000000 9605222.0 0.9817487266553481 0.0 increasing-marginal-contribution
216 5000 9 EnergyPurchasingEvaluationFunction LocalSearchStrategy -4.5620367626E10 -4.5662365756E10 -4.5620367626E10 -3.0 -7825.666666666667 -3.0 -4.5778956288E10 4 4 3000000 1.58588662E8 0.7544529262086515 0.0 increasing-marginal-contribution
215 5000 9 EnergyPurchasingEvaluationFunction CoalitionValueBasedStrategy -4.5620552866E10 -4.5662412066E10 -4.5620552866E10 -3.0 -7825.666666666667 -3.0 -4.5778956288E10 4 4 3000000 1.58403422E8 0.7608558842039018 0.0 increasing-marginal-contribution
233 4000 10 MarketBasedSizePenalizedEvaluationFunction CoalitionValueBasedStrategy 7677988.0 6484364.0 7677988.0 8964.0 9222.166666666666 10711.0 0.0 7 7 2400000 7677988.0 0.9845662586482171 0.0 increasing-marginal-contribution
234 4000 10 MarketBasedSizePenalizedEvaluationFunction LocalSearchStrategy 7712978.0 6292211.833333333 7712978.0 10711.0 9623.2 10711.0 0.0 6 6 2400000 7712978.0 0.9850347407803314 0.0 increasing-marginal-contribution
235 4000 10 EnergyPurchasingEvaluationFunction CoalitionValueBasedStrategy -3.6702839954E10 -3.67367257985E10 -3.6702839954E10 -161702.0 -61725.333333333336 -11737.0 -3.6828803579E10 4 4 2400000 1.25963625E8 0.6901544401544402 0.0 increasing-marginal-contribution
236 4000 10 EnergyPurchasingEvaluationFunction LocalSearchStrategy -3.6702840539E10 -3.6730708715E10 -3.6702840539E10 -161702.0 -53592.75 -11737.0 -3.6828803579E10 5 5 2400000 1.2596304E8 0.6782133090246126 0.0 increasing-marginal-contribution
237 5000 10 MarketBasedSizePenalizedEvaluationFunction CoalitionValueBasedStrategy 9642580.0 8134501.857142857 9642580.0 11121.0 10403.5 11121.0 0.0 7 7 3000000 9642580.0 0.9825754356141096 0.0 increasing-marginal-contribution
238 5000 10 MarketBasedSizePenalizedEvaluationFunction LocalSearchStrategy 9623995.0 8131846.857142857 9623995.0 11121.0 10403.5 11121.0 0.0 7 7 3000000 9623995.0 0.9885593220338983 0.0 increasing-marginal-contribution
239 5000 10 EnergyPurchasingEvaluationFunction CoalitionValueBasedStrategy -4.5622233883E10 -4.56580128612E10 -4.5622233883E10 -11737.0 -11737.0 -11737.0 -4.5778956288E10 5 5 3000000 1.56722405E8 0.7719915552427867 0.0 increasing-marginal-contribution
240 5000 10 EnergyPurchasingEvaluationFunction LocalSearchStrategy -4.5621458033E10 -4.56578576912E10 -4.5621458033E10 -11737.0 -11737.0 -11737.0 -4.5778956288E10 5 5 3000000 1.57498255E8 0.7704802259887006 0.0 increasing-marginal-contribution
