8 20 1 EnergyPurchasingEvaluationFunction MixedStrategy.CoalitionValueBasedStrategy.1.0RandomStrategy.1.0 -3.0323756E7 -3.032528492436975E7 -3.0323546E7 -489672.0 -626109.7372881356 -29202.0 -3.0348208E7 119 119 5000 24662.0 0.0 0.0 No-deviation no-solution-selection
7 20 1 EnergyPurchasingEvaluationFunction LocalSearchStrategy -3.0323545E7 -3.0324336833333332E7 -3.0323541E7 -92353.0 -301156.9438202247 -41896.0 -3.0348208E7 46 90 5000 24667.0 0.0 0.0 No-deviation no-solution-selection
4 20 1 MarketBasedSizePenalizedEvaluationFunction MixedStrategy.CoalitionValueBasedStrategy.1.0RandomStrategy.1.0 1.70390090925E12 1.56634060044125E12 2.03535723369E12 9.9936516905E11 1.0468766558046478E12 1.81699917562E12 0.0 72 72 5000 2.03535723369E12 0.0 0.0 No-deviation no-solution-selection
5 20 1 EnergyPurchasingEvaluationFunction CoalitionValueBasedStrategy -3.0323541E7 -3.0323838204819277E7 -3.0323541E7 -153344.0 -153344.0 -153344.0 -3.0348208E7 26 83 5000 24667.0 0.0 0.0 No-deviation no-solution-selection
2 20 1 MarketBasedSizePenalizedEvaluationFunction RandomStrategy 3.5918284528E11 6.755481812638071E11 1.78011711693E12 3.0443097091E11 4.485101273953944E11 1.37436809738E12 0.0 394 394 5000 1.78011711693E12 0.0 0.0 No-deviation no-solution-selection
3 20 1 MarketBasedSizePenalizedEvaluationFunction LocalSearchStrategy 2.04093701877E12 1.98615549237225E12 2.04093701877E12 1.21774953632E12 1.2244229519266667E12 1.52260267815E12 0.0 40 40 5000 2.04093701877E12 0.0 0.0 No-deviation no-solution-selection
1 20 1 MarketBasedSizePenalizedEvaluationFunction CoalitionValueBasedStrategy 2.04093701877E12 1.987491627162439E12 2.04093701877E12 1.21774953632E12 1.2242561165365E12 1.52260267815E12 0.0 41 41 5000 2.04093701877E12 0.0 0.0 No-deviation no-solution-selection
6 20 1 EnergyPurchasingEvaluationFunction RandomStrategy -3.0324183E7 -3.0331014784974094E7 -3.0323557E7 -29202.0 -513760.01038961037 -29202.0 -3.0348208E7 386 386 5000 24651.0 0.0 0.0 No-deviation no-solution-selection
16 100 1 EnergyPurchasingEvaluationFunction MixedStrategy.CoalitionValueBasedStrategy.1.0RandomStrategy.1.0 -2.51383813E8 -2.5144177288E8 -2.51292471E8 -285326.0 -647706.6666666666 -11744.0 -2.52108429E8 25 25 12000 815958.0 0.0 0.0 No-deviation no-solution-selection
15 100 1 EnergyPurchasingEvaluationFunction LocalSearchStrategy -2.5123518E8 -2.5128489316666666E8 -2.5123518E8 -11744.0 -92256.17647058824 -11744.0 -2.52108429E8 18 18 12000 873249.0 0.0 0.0 No-deviation no-solution-selection
14 100 1 EnergyPurchasingEvaluationFunction RandomStrategy -2.51629544E8 -2.516864940347432E8 -2.51446852E8 -161709.0 -587984.3055975795 -11744.0 -2.52108429E8 662 662 12000 661577.0 0.0 0.0 No-deviation no-solution-selection
13 100 1 EnergyPurchasingEvaluationFunction CoalitionValueBasedStrategy -2.5123518E8 -2.512948358E8 -2.5123518E8 -11744.0 -109508.78571428571 -11744.0 -2.52108429E8 15 15 12000 873249.0 0.0 0.0 No-deviation no-solution-selection
12 100 1 MarketBasedSizePenalizedEvaluationFunction MixedStrategy.CoalitionValueBasedStrategy.1.0RandomStrategy.1.0 1.648008085823E13 1.5802427038426E13 2.117767908008E13 3.32460417891E12 4.477042625784737E12 6.64512808679E12 0.0 20 20 12000 2.117767908008E13 0.0 0.0 No-deviation no-solution-selection
11 100 1 MarketBasedSizePenalizedEvaluationFunction LocalSearchStrategy 2.827218997613E13 2.3719630844044285E13 2.827218997613E13 1.645122542777E13 1.492753424922E13 1.651508748678E13 0.0 7 7 12000 2.827218997613E13 0.0 0.0 No-deviation no-solution-selection
10 100 1 MarketBasedSizePenalizedEvaluationFunction RandomStrategy 8.22330395072E12 8.093635978316439E12 1.347871921063E13 2.46342850415E12 2.34998135945893E12 6.94760541038E12 0.0 646 646 12000 1.347871921063E13 0.0 0.0 No-deviation no-solution-selection
9 100 1 MarketBasedSizePenalizedEvaluationFunction CoalitionValueBasedStrategy 2.827218997613E13 2.3719630844044285E13 2.827218997613E13 1.645122542777E13 1.492753424922E13 1.651508748678E13 0.0 7 7 12000 2.827218997613E13 0.0 0.0 No-deviation no-solution-selection
